<?xml version="1.0" encoding="utf-8"?>
<!-- Generator: Adobe Illustrator 22.0.1, SVG Export Plug-In . SVG Version: 6.00 Build 0)  -->
<svg version="1.1" id="Layer_1" xmlns="http://www.w3.org/2000/svg" xmlns:xlink="http://www.w3.org/1999/xlink" x="0px" y="0px"
	 viewBox="0 0 300 300" style="enable-background:new 0 0 300 300;" xml:space="preserve">
<style type="text/css">
	.st0{fill:#66cd00;}
</style>
<g>
	<g>
		<path class="st0" d="M125.3,192.7c0,0,6.1-15.9,13.8-15.9c7.8,0,44.3,4.5,58.9-25.5c0,0,3.5-13.1,11.4-15.2c0,0-64.7-17.5-80.3,43
			c0,0,14.4-30.1,38.3-31.8C167.4,147.3,133.1,163,125.3,192.7z"/>
		<path class="st0" d="M132.4,162.1c0,0,3.8-8,10.2-14.7c0,0-20.5-37.7-64.1-29.7c0,0,6.4,4.5,8.1,12.1c1.7,7.5,7.7,44.9,39.8,50.2
			c0,0,12.6-24.5-16.6-43.6C109.8,136.5,130.1,142.6,132.4,162.1z"/>
		<path class="st0" d="M129.2,127.4c0,0,16.5-22.4,16.2-34.6c0,0,22.4,20,20.7,40.9c0,0-15.5,5.5-21.6,12.1c0,0,6.2-21.1,4.7-36
			c0,0-1.1,23.2-7.4,30.7C141.7,140.5,135.7,131.7,129.2,127.4z"/>
	</g>
	<path class="st0" d="M144,229.7c-48,0-87-39-87-87c0-48,39-87,87-87c48,0,87,39,87,87C231,190.7,192,229.7,144,229.7z M144,61.7
		c-44.7,0-81,36.3-81,81c0,44.7,36.3,81,81,81c44.7,0,81-36.3,81-81C225,98,188.7,61.7,144,61.7z"/>
</g>
</svg>
