<?xml version="1.0" encoding="utf-8"?>
<!-- Generator: Adobe Illustrator 22.0.1, SVG Export Plug-In . SVG Version: 6.00 Build 0)  -->
<svg version="1.1" id="Layer_1" xmlns="http://www.w3.org/2000/svg" xmlns:xlink="http://www.w3.org/1999/xlink" x="0px" y="0px"
	 viewBox="0 0 80 80" style="enable-background:new 0 0 80 80;" xml:space="preserve">
<style type="text/css">
	.st0{fill:#E5E5E5;}
	.st1{fill:url(#SVGID_1_);}
	.st2{fill:url(#SVGID_2_);}
	.st3{fill:url(#SVGID_3_);}
	.st4{fill:url(#SVGID_4_);}
	.st5{fill:url(#SVGID_5_);}
	.st6{fill:url(#SVGID_6_);}
	.st7{fill:url(#SVGID_7_);}
	.st8{fill:url(#SVGID_8_);}
	.st9{fill:url(#SVGID_9_);}
	.st10{fill:url(#SVGID_10_);}
	.st11{fill:url(#SVGID_11_);}
	.st12{fill:url(#SVGID_12_);}
	.st13{fill:url(#SVGID_13_);}
	.st14{fill:url(#SVGID_14_);}
	.st15{fill:url(#SVGID_15_);}
	.st16{fill:url(#SVGID_16_);}
	.st17{fill:url(#SVGID_17_);}
	.st18{fill:url(#SVGID_18_);}
	.st19{fill:url(#SVGID_19_);}
	.st20{fill:url(#SVGID_20_);}
	.st21{fill:url(#SVGID_21_);}
	.st22{fill:url(#SVGID_22_);}
	.st23{fill:url(#SVGID_23_);}
	.st24{fill:url(#SVGID_24_);}
	.st25{fill:url(#SVGID_25_);}
	.st26{fill:url(#SVGID_26_);}
	.st27{fill:url(#SVGID_27_);}
	.st28{fill:url(#SVGID_28_);}
	.st29{fill:url(#SVGID_29_);}
	.st30{fill:url(#SVGID_30_);}
	.st31{fill:url(#SVGID_31_);}
	.st32{fill:#4D4D4D;}
	.st33{fill:url(#SVGID_32_);}
	.st34{fill:url(#SVGID_33_);}
	.st35{fill:url(#SVGID_34_);}
	.st36{fill:url(#SVGID_35_);}
	.st37{fill:url(#SVGID_36_);}
	.st38{fill:url(#SVGID_37_);}
	.st39{fill:url(#SVGID_38_);}
	.st40{fill:url(#SVGID_39_);}
	.st41{fill:url(#SVGID_40_);}
	.st42{fill:url(#SVGID_41_);}
	.st43{fill:url(#SVGID_42_);}
	.st44{fill:url(#SVGID_43_);}
	.st45{fill:none;stroke:#30AFC4;stroke-miterlimit:10;}
	.st46{fill:#009CDE;}
	.st47{fill:none;stroke:#30AFC4;stroke-width:1.4179;stroke-miterlimit:10;}
	.st48{fill:#F15B29;}
	.st49{fill:#662D91;}
	.st50{fill:#009832;}
	.st51{fill:#F7931E;}
	.st52{fill:#9F1F63;}
	.st53{fill:#8CC63F;}
	.st54{fill:url(#SVGID_44_);}
	.st55{fill:url(#SVGID_45_);}
	.st56{fill:url(#SVGID_46_);}
	.st57{fill:url(#SVGID_47_);}
	.st58{fill:#EFA829;}
	.st59{fill:url(#SVGID_48_);}
	.st60{fill:#FFFFFF;}
	.st61{fill:url(#SVGID_49_);}
	.st62{fill:url(#SVGID_50_);}
	.st63{fill:url(#SVGID_51_);}
	.st64{fill:url(#SVGID_52_);}
	.st65{fill:url(#SVGID_53_);}
	.st66{fill:url(#SVGID_54_);}
	.st67{fill:url(#SVGID_55_);}
	.st68{fill:url(#SVGID_56_);}
	.st69{fill:url(#SVGID_57_);}
	.st70{fill:url(#SVGID_58_);}
	.st71{fill:url(#SVGID_59_);}
	.st72{fill:url(#SVGID_60_);}
	.st73{fill:url(#SVGID_61_);}
	.st74{fill:url(#SVGID_62_);}
	.st75{clip-path:url(#SVGID_65_);fill:url(#SVGID_66_);}
	.st76{clip-path:url(#SVGID_69_);fill:url(#SVGID_70_);}
	.st77{clip-path:url(#SVGID_73_);fill:url(#SVGID_74_);}
	.st78{clip-path:url(#SVGID_77_);fill:url(#SVGID_78_);}
	.st79{clip-path:url(#SVGID_81_);fill:url(#SVGID_82_);}
	.st80{fill:url(#SVGID_93_);}
	.st81{fill:url(#SVGID_94_);}
	.st82{fill:url(#SVGID_95_);}
	.st83{fill-rule:evenodd;clip-rule:evenodd;fill:#EFA829;}
	.st84{fill:#FDCF85;}
	.st85{clip-path:url(#SVGID_97_);fill:#EFA829;}
	.st86{clip-path:url(#SVGID_99_);fill:#EFA829;}
	.st87{clip-path:url(#SVGID_101_);fill:#EFA829;}
	.st88{clip-path:url(#SVGID_103_);fill:#EFA829;}
	.st89{fill:url(#SVGID_104_);}
	.st90{fill:url(#SVGID_105_);}
	.st91{fill:url(#SVGID_106_);}
	.st92{fill:url(#SVGID_107_);}
	.st93{fill:url(#SVGID_108_);}
	.st94{fill:url(#SVGID_109_);}
	.st95{fill:url(#SVGID_110_);}
	.st96{fill:url(#SVGID_111_);}
	.st97{fill:url(#SVGID_112_);}
	.st98{fill:url(#SVGID_113_);}
	.st99{fill:url(#SVGID_114_);}
	.st100{fill:url(#SVGID_115_);}
	.st101{fill:url(#SVGID_116_);}
	.st102{fill:url(#SVGID_117_);}
	.st103{fill:url(#SVGID_118_);}
	.st104{fill:url(#SVGID_119_);}
	.st105{fill:url(#SVGID_120_);}
	.st106{fill:url(#SVGID_121_);}
	.st107{fill:url(#SVGID_122_);}
	.st108{fill:url(#SVGID_123_);}
	.st109{fill:url(#SVGID_124_);}
	.st110{fill:url(#SVGID_125_);}
	.st111{fill:url(#SVGID_126_);}
	.st112{fill:url(#SVGID_127_);}
	.st113{fill:url(#SVGID_128_);}
	.st114{fill:#EE2B7B;}
	.st115{fill:#EE2B7B;stroke:#EE2B7B;stroke-width:1.4725;stroke-linecap:round;stroke-linejoin:round;stroke-miterlimit:10;}
	.st116{fill:#FFFFFF;stroke:#FFFFFF;stroke-width:1.4725;stroke-miterlimit:10;}
	.st117{fill:none;stroke:#FFFFFF;stroke-width:1.4725;stroke-linecap:round;stroke-miterlimit:10;}
	.st118{fill:none;stroke:#FFFFFF;stroke-width:1.4725;stroke-miterlimit:10;}
	.st119{fill-rule:evenodd;clip-rule:evenodd;fill:#EE2B7B;}
	.st120{fill:url(#SVGID_129_);}
	.st121{fill:url(#SVGID_130_);}
	.st122{fill:url(#SVGID_131_);}
	.st123{fill:url(#SVGID_132_);}
	.st124{fill:url(#SVGID_133_);}
	.st125{fill:url(#SVGID_134_);}
	.st126{fill:url(#SVGID_135_);}
	.st127{fill:url(#SVGID_136_);}
	.st128{fill:url(#SVGID_137_);}
	.st129{fill:url(#SVGID_138_);}
	.st130{fill:url(#SVGID_139_);}
	.st131{fill:url(#SVGID_140_);}
	.st132{fill:url(#SVGID_141_);}
	.st133{fill:url(#SVGID_142_);}
	.st134{fill:url(#SVGID_143_);}
	.st135{fill:url(#SVGID_144_);}
	.st136{fill:url(#SVGID_145_);}
	.st137{fill:url(#SVGID_146_);}
	.st138{fill:url(#SVGID_147_);}
	.st139{fill:url(#SVGID_148_);}
	.st140{fill:url(#SVGID_149_);}
	.st141{fill:url(#SVGID_150_);}
	.st142{fill:url(#SVGID_151_);}
	.st143{fill:url(#SVGID_152_);}
	.st144{fill:url(#SVGID_153_);}
	.st145{fill:url(#SVGID_154_);}
	.st146{fill:url(#SVGID_155_);}
	.st147{fill:url(#SVGID_156_);}
	.st148{fill:url(#SVGID_157_);}
	.st149{fill:url(#SVGID_158_);}
	.st150{fill:url(#SVGID_159_);}
	.st151{fill:url(#SVGID_160_);}
	.st152{fill:url(#SVGID_161_);}
	.st153{fill:url(#SVGID_162_);}
	.st154{fill:url(#SVGID_163_);}
	.st155{fill:none;stroke:#009CDE;}
	.st156{fill-rule:evenodd;clip-rule:evenodd;fill:#231F20;}
	.st157{fill:#0F3C5C;}
	.st158{fill:#0090D2;}
	.st159{fill:#009FE0;}
	.st160{fill:none;}
	.st161{fill:#FFC325;}
	.st162{fill:#E10177;}
	.st163{fill:#78828D;}
	.st164{fill:#009EC2;}
	.st165{fill:#C0D72F;}
	.st166{fill:#231F20;}
	.st167{fill:#020303;}
	.st168{fill:#F4F4F4;}
	.st169{fill:#872626;}
	.st170{fill:#EE7B46;}
	.st171{fill:#C73250;}
	.st172{fill:#3E8EC9;}
	.st173{fill:#B5A0CD;}
	.st174{fill:#000100;}
	.st175{fill:#F7C0BF;}
	.st176{fill:#F19BB7;}
	.st177{fill:url(#SVGID_164_);}
	.st178{fill:url(#SVGID_165_);}
	.st179{fill:url(#SVGID_166_);}
	.st180{fill:#B2B4B5;}
	.st181{fill:url(#SVGID_167_);}
	.st182{fill:url(#SVGID_168_);}
	.st183{fill:url(#SVGID_169_);}
	.st184{fill:url(#SVGID_170_);}
	.st185{fill:url(#SVGID_171_);}
	.st186{fill:url(#SVGID_172_);}
	.st187{fill:url(#SVGID_173_);}
	.st188{fill:url(#SVGID_174_);}
	.st189{fill:url(#SVGID_175_);}
	.st190{fill:url(#SVGID_176_);}
	.st191{fill:url(#SVGID_177_);}
	.st192{fill:url(#SVGID_178_);}
	.st193{fill:url(#SVGID_179_);}
	.st194{fill:url(#SVGID_180_);}
	.st195{fill:url(#SVGID_181_);}
	.st196{fill:url(#SVGID_182_);}
	.st197{fill:#C10230;}
	.st198{opacity:0.47;fill:#FFFFFF;}
	.st199{opacity:0.28;fill:#060507;}
	.st200{fill:#CE4792;}
	.st201{fill:#C7324F;}
	.st202{fill:#78203F;}
	.st203{fill:#ECE554;}
	.st204{fill:#EF7E45;}
	.st205{fill:#F7C0BE;}
	.st206{fill:#9DA2A0;}
	.st207{fill:#EA5954;}
	.st208{opacity:0.58;fill:url(#SVGID_183_);}
	.st209{fill:url(#SVGID_184_);}
	.st210{fill:url(#SVGID_185_);}
	.st211{fill:url(#SVGID_186_);}
	.st212{fill:url(#SVGID_187_);}
	.st213{fill:url(#SVGID_188_);}
	.st214{fill:url(#SVGID_189_);}
	.st215{fill:url(#SVGID_190_);}
	.st216{fill:url(#SVGID_191_);}
	.st217{fill:url(#SVGID_192_);}
	.st218{fill:url(#SVGID_193_);}
	.st219{fill:url(#SVGID_194_);}
	.st220{fill:url(#SVGID_195_);}
	.st221{fill:url(#SVGID_196_);}
	.st222{fill:url(#SVGID_197_);}
	.st223{fill:url(#SVGID_198_);}
	.st224{fill:url(#SVGID_199_);}
	.st225{fill:url(#SVGID_200_);}
	.st226{fill:url(#SVGID_201_);}
	.st227{fill:url(#SVGID_202_);}
	.st228{fill:url(#SVGID_203_);}
	.st229{fill:url(#SVGID_204_);}
	.st230{fill:url(#SVGID_205_);}
	.st231{fill:url(#SVGID_206_);}
	.st232{fill:url(#SVGID_207_);}
	.st233{fill:url(#SVGID_208_);}
	.st234{fill:url(#SVGID_209_);}
	.st235{fill:url(#SVGID_210_);}
	.st236{fill:url(#SVGID_211_);}
	.st237{fill:url(#SVGID_212_);}
	.st238{fill:url(#SVGID_213_);}
	.st239{fill:url(#SVGID_214_);}
	.st240{fill:url(#SVGID_215_);}
	.st241{fill:url(#SVGID_216_);}
	.st242{fill:url(#SVGID_217_);}
	.st243{fill:url(#SVGID_218_);}
	.st244{fill:url(#SVGID_219_);}
	.st245{fill:url(#SVGID_220_);}
	.st246{fill:url(#SVGID_221_);}
	.st247{fill:url(#SVGID_222_);}
	.st248{fill:url(#SVGID_223_);}
	.st249{fill:url(#SVGID_224_);}
	.st250{fill:url(#SVGID_225_);}
	.st251{fill:url(#SVGID_226_);}
	.st252{fill:url(#SVGID_227_);}
	.st253{fill:#0D5B70;}
	.st254{fill:#808184;}
	.st255{fill:#003A80;}
	.st256{fill:url(#SVGID_228_);}
	.st257{fill:url(#SVGID_229_);}
	.st258{fill:url(#SVGID_230_);}
	.st259{fill:url(#SVGID_231_);}
	.st260{fill:url(#SVGID_232_);}
	.st261{fill:url(#SVGID_233_);}
	.st262{fill:url(#SVGID_234_);}
	.st263{fill:url(#SVGID_235_);}
	.st264{fill:url(#SVGID_236_);}
	.st265{fill:url(#SVGID_237_);}
	.st266{fill:url(#SVGID_238_);}
	.st267{fill:url(#SVGID_239_);}
	.st268{fill:#008FCE;}
	.st269{fill:#1F1E1B;}
	.st270{fill:none;stroke:#222119;stroke-width:0.0407;stroke-miterlimit:3.864;}
	.st271{fill:#464A45;}
	.st272{fill:#212921;}
	.st273{fill:#BF001B;}
	.st274{clip-path:url(#SVGID_241_);fill:#21241F;}
	.st275{clip-path:url(#SVGID_243_);fill:#BF001B;}
	.st276{fill:#BAC92B;}
	.st277{fill:url(#SVGID_244_);}
	.st278{fill:url(#SVGID_245_);}
	.st279{fill:url(#SVGID_246_);}
	.st280{fill:url(#SVGID_247_);}
	.st281{fill:url(#SVGID_248_);}
	.st282{fill:url(#SVGID_249_);}
	.st283{fill:url(#SVGID_250_);}
	.st284{fill:url(#SVGID_251_);}
	.st285{fill:url(#SVGID_252_);}
	.st286{fill:url(#SVGID_253_);}
	.st287{fill:url(#SVGID_254_);}
	.st288{fill:url(#SVGID_255_);}
	.st289{fill:none;stroke:#FFFFFF;stroke-width:0.0758;stroke-linecap:round;stroke-miterlimit:10;}
	.st290{fill:#58585A;}
	.st291{fill:#59595C;}
	.st292{fill-rule:evenodd;clip-rule:evenodd;fill:#1A181D;}
	.st293{filter:url(#Adobe_OpacityMaskFilter);}
	.st294{mask:url(#SVGID_258_);}
	.st295{fill:#703A19;}
</style>
<g>
	<circle class="st0" cx="40" cy="40" r="30"/>
</g>
<g>
	<linearGradient id="SVGID_1_" gradientUnits="userSpaceOnUse" x1="45.8014" y1="36.9144" x2="45.8014" y2="42.6554">
		<stop  offset="0" style="stop-color:#007CBB"/>
		<stop  offset="0.1547" style="stop-color:#0072B0"/>
		<stop  offset="0.4298" style="stop-color:#005791"/>
		<stop  offset="0.7907" style="stop-color:#002C61"/>
		<stop  offset="1" style="stop-color:#001041"/>
	</linearGradient>
	<path class="st1" d="M46.5291,38.9701c0.0826-0.0838,0.1675-0.1659,0.2487-0.2509c0.2286-0.3012,0.5269-0.5454,0.7514-0.8434
		c0.0932-0.1227,0.1666-0.2542,0.2658-0.375c0-0.0451,0.0005-0.0844-0.0167-0.11c-0.0234-0.0735-0.073-0.0937-0.156-0.1087
		c-0.0793,0.0545-0.1744,0.0694-0.2488,0.1253c-0.0581,0.0419-0.0834,0.1123-0.1258,0.1708
		c-0.0874,0.1158-0.2068,0.2092-0.297,0.3287c-0.0469,0.0414-0.0943,0.0833-0.1411,0.1257
		c-0.2297,0.3038-0.5186,0.5539-0.7512,0.8599c-0.0969,0.0987-0.1969,0.1965-0.2953,0.2957c-0.269,0.356-0.607,0.6467-0.8761,1.0001
		c-0.0946,0.0951-0.188,0.1883-0.2811,0.2825c-0.2133,0.2822-0.5031,0.5092-0.7036,0.7982c-0.0492,0.069-0.1453,0.2469-0.0623,0.343
		c0.0288,0.0621,0.0888,0.0545,0.1401,0.0933c0.2849-0.0031,0.3923-0.2222,0.5162-0.3908c0.1595-0.2155,0.3528-0.4078,0.516-0.6246
		c0.2307-0.3073,0.5309-0.5657,0.7653-0.8753c0.0424-0.0379,0.0839-0.0734,0.1256-0.1105
		C46.0987,39.446,46.333,39.2287,46.5291,38.9701z"/>
	<linearGradient id="SVGID_2_" gradientUnits="userSpaceOnUse" x1="43.1188" y1="36.9144" x2="43.1188" y2="42.6554">
		<stop  offset="0" style="stop-color:#007CBB"/>
		<stop  offset="0.1547" style="stop-color:#0072B0"/>
		<stop  offset="0.4298" style="stop-color:#005791"/>
		<stop  offset="0.7907" style="stop-color:#002C61"/>
		<stop  offset="1" style="stop-color:#001041"/>
	</linearGradient>
	<path class="st2" d="M44.2933,40.1274c0.0482-0.0197,0.0725-0.0779,0.0464-0.1256c-0.033-0.1041-0.1384-0.1303-0.2809-0.1253
		c-0.0572,0.0386-0.1478,0.0234-0.2186,0.0468c-0.1622,0.0523-0.5102,0.1622-0.6246,0.265h-0.0324
		c0.0135-0.0762,0.0324-0.1758-0.0153-0.2345c-0.0221-0.0306-0.0194-0.0324-0.0618-0.045c-0.0623-0.0392-0.2452-0.0217-0.3138,0
		c-0.1752,0.0513-0.7327,0.2442-0.7949,0.3746c-0.0139,0.0157-0.0076,0.0035-0.017,0.0311c0.0142,0.0144,0.0208,0.027,0.031,0.0468
		c0.0946,0.0153,0.5096-0.0686,0.5939-0.1253c0.0937,0,0.1064,0.0147,0.1573,0.0473c-0.004,0.3566-0.443,0.6917-0.6414,0.8909
		c-0.1117,0.1123-0.2321,0.1645-0.2343,0.3909c0.0311,0.036,0.0621,0.0719,0.0934,0.109c0.3568,0.0816,0.4861-0.1961,0.6412-0.4052
		c0.2556-0.3456,0.5673-0.7063,0.936-0.9392c0.142-0.0884,0.3011-0.1595,0.4849-0.2025H44.2933z"/>
	<linearGradient id="SVGID_3_" gradientUnits="userSpaceOnUse" x1="34.2429" y1="36.9144" x2="34.2429" y2="42.6554">
		<stop  offset="0" style="stop-color:#007CBB"/>
		<stop  offset="0.1547" style="stop-color:#0072B0"/>
		<stop  offset="0.4298" style="stop-color:#005791"/>
		<stop  offset="0.7907" style="stop-color:#002C61"/>
		<stop  offset="1" style="stop-color:#001041"/>
	</linearGradient>
	<path class="st3" d="M37.1514,37.6419c-0.0937,0.0573-0.2921,0.0046-0.407,0.031c-0.3272,0.0746-0.6575,0.1037-0.9689,0.2029
		c-0.8766,0.2831-1.7373,0.5548-2.5477,0.8919c-0.4611,0.1906-0.8992,0.3497-1.2962,0.5939
		c-0.4538,0.2759-1.024,0.536-1.1416,1.1408c-0.0122,0.0609,0.0185,0.1425,0.0306,0.1875c0.1259,0.4448,0.4872,0.5687,0.8915,0.7342
		c0.3917,0.1618,0.8338,0.237,1.2967,0.3444c0.2015,0.0455,0.3957-0.0154,0.6098,0.031c0.2555,0.0559,0.9748,0.0357,1.2187-0.0157
		h0.2817c0.2582-0.0559,0.5746-0.0235,0.8279-0.0784h0.1884c0.2015-0.0442,0.4602-0.0423,0.6728-0.0609
		c0.1394,0.0044,0.2803,0.0096,0.4215,0.0154c0.0802-0.0227,0.1162-0.0825,0.1718-0.1257c0.0107-0.1438-0.0154-0.1857-0.0784-0.2803
		c-0.3038-0.0789-0.7567-0.0258-1.0786,0.0455c-0.2298,0.0519-0.4727,0.0153-0.6881,0.0631
		c-0.2498,0.0158-0.4993,0.0312-0.75,0.0465h-0.3123c-0.2037,0.0445-0.7175,0.0445-0.9211,0
		c-0.2231-0.0482-0.4476,0.0044-0.6576-0.0465c-0.5724-0.1398-1.1087-0.2344-1.5161-0.5318
		c-0.0821-0.06-0.1181-0.1622-0.1862-0.2338c-0.0059-0.49,0.5454-0.7004,0.859-0.8925c0.4106-0.2497,0.8856-0.398,1.3602-0.594
		c0.6665-0.2754,1.38-0.5062,2.0776-0.7666c0.347-0.1274,0.7215-0.186,1.0939-0.2807c0.091-0.0217,0.3365-0.0618,0.4067-0.0149
		c0.0592,0.0059,0.0578,0.0122,0.0934,0.0306c-0.0014,0.1196-0.0522,0.1989-0.1095,0.265c0.0058,0.0166,0.0121,0.0325,0.0161,0.0479
		c0.3511,0.0721,0.6946-0.1533,0.6882-0.5156C37.5358,37.7017,37.4778,37.6573,37.1514,37.6419z"/>
	<linearGradient id="SVGID_4_" gradientUnits="userSpaceOnUse" x1="46.963" y1="36.9144" x2="46.963" y2="42.6554">
		<stop  offset="0" style="stop-color:#007CBB"/>
		<stop  offset="0.1547" style="stop-color:#0072B0"/>
		<stop  offset="0.4298" style="stop-color:#005791"/>
		<stop  offset="0.7907" style="stop-color:#002C61"/>
		<stop  offset="1" style="stop-color:#001041"/>
	</linearGradient>
	<path class="st4" d="M47.8578,39.7042c-0.0348-0.0762-0.0983-0.1483-0.1411-0.2187c-0.1239-0.0008-0.1509,0.02-0.219,0.0632
		c-0.0063,0.1033-0.0122,0.2475,0.0469,0.3278v0.0157c-0.6567,0.0249-1.2556,0.5053-1.5468,0.9078
		c-0.1379,0.1878-0.3196,0.5007-0.1244,0.7653c0.1816,0.2482,0.7178,0.1103,0.9519,0.0143
		c0.4944-0.1996,1.0676-0.4336,1.2033-0.9829c0.0447-0.1776-0.0351-0.3331-0.0452-0.4693c0.051-0.0107,0.1033-0.0206,0.1547-0.0314
		v-0.0312c-0.064-0.0338-0.1447-0.0784-0.2029-0.1251C47.8883,39.8792,47.8888,39.7791,47.8578,39.7042z M47.5445,40.6277
		c-0.1343,0.3074-0.7595,0.6788-1.2196,0.6716c-0.0243-0.0239-0.063-0.0451-0.0928-0.0622c0.0009-0.232,0.1781-0.3212,0.3123-0.4232
		c0.1942-0.1442,0.3908-0.3181,0.6252-0.4205c0.1224-0.0541,0.2871-0.0644,0.3902-0.1415h0.0325
		C47.5941,40.3975,47.5904,40.5241,47.5445,40.6277z"/>
	<linearGradient id="SVGID_5_" gradientUnits="userSpaceOnUse" x1="39.756" y1="36.9144" x2="39.756" y2="42.6554">
		<stop  offset="0" style="stop-color:#007CBB"/>
		<stop  offset="0.1547" style="stop-color:#0072B0"/>
		<stop  offset="0.4298" style="stop-color:#005791"/>
		<stop  offset="0.7907" style="stop-color:#002C61"/>
		<stop  offset="1" style="stop-color:#001041"/>
	</linearGradient>
	<path class="st5" d="M39.5277,39.6736c-0.0648,0.042-0.1733,0.0212-0.25,0.0465c-0.0707,0.0235-0.1311,0.0753-0.1888,0.1099
		c-0.014,0.0523-0.051,0.1181-0.0154,0.1718c0.0253,0.0743,0.0763,0.0788,0.1245,0.1256c0.1641-0.0049,0.2122-0.0788,0.3452-0.1085
		c0.1297,0.0036,0.2591,0.009,0.3902,0.0154c0.3195,0.073,0.9235,0.1594,1.0154,0.4366h0.0152
		c-0.0049,0.0148-0.0095,0.0316-0.0152,0.047c-0.138-0.0123-0.2511-0.0586-0.3596-0.0935
		c-0.2034-0.0661-0.4215-0.0905-0.6247-0.1409c-0.0883-0.0055-0.1762-0.0108-0.2655-0.0153
		c-0.6111-0.1357-1.2366,0.1392-1.4543,0.4687c-0.0691,0.1065-0.233,0.407-0.1865,0.6102c0.0513,0.2266,0.2135,0.3051,0.4371,0.3583
		h0.2028c0.2091,0.0432,0.5657-0.0172,0.7662-0.0609c0.0883-0.0073,0.1775-0.0122,0.2658-0.0166
		c0.3147-0.0716,0.6684-0.0969,0.9676-0.1721c0.2356-0.059,0.5124,0.0148,0.6724-0.0775c0.0636-0.1556-0.023-0.2281-0.0928-0.3287
		c-0.2371-0.0527-0.4872-0.0261-0.7187,0.0308c-0.1831,0.0266-0.3659,0.0518-0.5472,0.0788
		c-0.4178,0.1068-1.0389,0.2487-1.4846,0.11c-0.1648-0.8379,1.345-0.6818,1.8903-0.517c0.1235,0.0375,0.2356,0.0635,0.3452,0.0937
		c0.1942,0.0564,0.5456,0.061,0.6402-0.078c0.1655-0.2443-0.0562-0.4803-0.1717-0.5944
		C40.8632,39.8116,40.2711,39.6561,39.5277,39.6736z"/>
	<linearGradient id="SVGID_6_" gradientUnits="userSpaceOnUse" x1="57.8812" y1="36.9144" x2="57.8812" y2="42.6554">
		<stop  offset="0" style="stop-color:#007CBB"/>
		<stop  offset="0.1547" style="stop-color:#0072B0"/>
		<stop  offset="0.4298" style="stop-color:#005791"/>
		<stop  offset="0.7907" style="stop-color:#002C61"/>
		<stop  offset="1" style="stop-color:#001041"/>
	</linearGradient>
	<path class="st6" d="M58.6595,39.9089c-0.0559-0.0153-0.078-0.031-0.1568-0.0324c-0.4296,0.3659-0.8045,0.8045-1.2025,1.2038
		c-0.1132,0.1122-0.3543,0.3069-0.2033,0.5318c0.1423,0.2127,0.366-0.0059,0.4683-0.1104c0.2695-0.2684,0.5353-0.5688,0.7666-0.874
		c0.1022-0.1366,0.3019-0.2489,0.3596-0.4227C58.7488,40.1167,58.6789,39.9751,58.6595,39.9089z"/>
	<linearGradient id="SVGID_7_" gradientUnits="userSpaceOnUse" x1="58.8475" y1="36.9144" x2="58.8475" y2="42.6554">
		<stop  offset="0" style="stop-color:#007CBB"/>
		<stop  offset="0.1547" style="stop-color:#0072B0"/>
		<stop  offset="0.4298" style="stop-color:#005791"/>
		<stop  offset="0.7907" style="stop-color:#002C61"/>
		<stop  offset="1" style="stop-color:#001041"/>
	</linearGradient>
	<path class="st7" d="M58.5506,39.2513c0.0604,0.0653,0.0748,0.1402,0.1721,0.1726c0.0505,0.0397,0.1546,0.0397,0.2033,0
		c0.1298-0.0424,0.2231-0.26,0.2185-0.4385c-0.1022-0.0991-0.1433-0.1618-0.3597-0.1563
		C58.6636,38.9435,58.5455,39.0067,58.5506,39.2513z"/>
	<linearGradient id="SVGID_8_" gradientUnits="userSpaceOnUse" x1="61.7343" y1="36.9144" x2="61.7343" y2="42.6554">
		<stop  offset="0" style="stop-color:#007CBB"/>
		<stop  offset="0.1547" style="stop-color:#0072B0"/>
		<stop  offset="0.4298" style="stop-color:#005791"/>
		<stop  offset="0.7907" style="stop-color:#002C61"/>
		<stop  offset="1" style="stop-color:#001041"/>
	</linearGradient>
	<path class="st8" d="M64.6939,40.0189c-0.1596-0.2371-0.5228-0.2295-0.8279-0.1267c-0.4367,0.1464-0.8415,0.3565-1.2044,0.5787
		c-0.1955,0.1195-0.4213,0.2015-0.5791,0.3597h-0.0153c0.0722-0.2848,0.279-0.7049,0.1253-1.0158
		c-0.279-0.0499-0.5076,0.0581-0.7026,0.1392c-0.416,0.1762-0.7961,0.3444-1.1575,0.564c-0.1763,0.1059-0.3983,0.1608-0.5471,0.296
		h-0.0473c0.0874-0.1659,0.2524-0.2762,0.3601-0.4205c0.0698-0.0942,0.1024-0.1997,0.1713-0.2973
		c-0.0096-0.0767-0.0357-0.1155-0.0627-0.1727c-0.2786-0.0729-0.4222-0.0035-0.6246,0.1253
		c0.0054,0.0107,0.0108,0.0215,0.016,0.0311c0.0403,0.018,0.065,0.0279,0.1241,0.0324v0.0461
		c-0.2871,0.2662-0.4872,0.6291-0.7658,0.9069c-0.1469,0.1468-0.3456,0.2356-0.3429,0.5304
		c0.0174,0.0194,0.0333,0.0409,0.0458,0.0644c0.238,0.0882,0.6328-0.0974,0.8135-0.1884c0.7338-0.3853,1.4699-0.772,2.2044-1.1569
		h0.0627c-0.1303,0.3519-0.188,0.7967-0.4224,1.0478c-0.0014,0.0947,0.005,0.1811,0.0461,0.2331
		c0.0211,0.0211,0.0423,0.0417,0.0631,0.0644c0.3056-0.0154,0.5201-0.2281,0.7192-0.3606c0.4048-0.2696,0.7951-0.5315,1.2364-0.7657
		c0.1162-0.0627,0.6539-0.3313,0.8265-0.2037c0.4398,0.0861,0.0914,0.9257,0.0162,1.1416
		c-0.0324,0.0911-0.0014,0.1438,0.0315,0.2028c0.0333,0.0076,0.0559,0.0139,0.0785,0.0311
		C64.9215,41.7127,64.9666,40.4214,64.6939,40.0189z"/>
	<linearGradient id="SVGID_9_" gradientUnits="userSpaceOnUse" x1="55.0261" y1="36.9144" x2="55.0261" y2="42.6554">
		<stop  offset="0" style="stop-color:#007CBB"/>
		<stop  offset="0.1547" style="stop-color:#0072B0"/>
		<stop  offset="0.4298" style="stop-color:#005791"/>
		<stop  offset="0.7907" style="stop-color:#002C61"/>
		<stop  offset="1" style="stop-color:#001041"/>
	</linearGradient>
	<path class="st9" d="M55.9085,39.2513c0.0618-0.0559,0.1259-0.1145,0.1875-0.1717c0.1798-0.2376,0.3993-0.4628,0.6103-0.672
		c0.0882-0.0838,0.1767-0.1676,0.2655-0.2501c0.1175-0.1547,0.2509-0.2899,0.407-0.4062c0.0779-0.0847,0.155-0.1667,0.2338-0.2505
		c0.0717-0.0541,0.155-0.0951,0.2191-0.1565c0.0636,0.0059,0.0581-0.0035,0.0784,0.0465c0.0997,0.1735-0.325,0.347-0.3912,0.4385
		c-0.0049,0.0049-0.0108,0.0104-0.0163,0.0148c0.0146,0.0149,0.0222,0.0284,0.0312,0.0473
		c0.2501,0.0509,0.4128-0.2208,0.5007-0.3907c0.0374-0.0713,0.1041-0.2069,0.0319-0.2974c-0.0585-0.0908-0.1563-0.1294-0.3127-0.124
		c-0.0621,0.02-0.1253,0.042-0.1883,0.0617c-0.1488,0.074-0.2917,0.1704-0.4215,0.2664c-0.1073,0.078-0.1926,0.2015-0.298,0.2803
		c-0.2758,0.2092-0.5408,0.4899-0.7499,0.7663c-0.0518,0.0472-0.1036,0.0946-0.1564,0.1409
		c-0.2101,0.2772-0.4808,0.5075-0.6882,0.782c-0.2421,0.3209-0.5239,0.6004-0.7661,0.9221
		c-0.0984,0.0983-0.1976,0.1973-0.2966,0.2975c-0.1123,0.1477-0.3389,0.4052-0.4846,0.5146
		c-0.2262,0.1726-0.4471,0.4169-0.75,0.5008c-0.2942,0.0815-0.4642-0.1799-0.5466-0.3282
		c-0.0315-0.0531-0.0991-0.1668-0.0631-0.2344c0.0541-0.1334,0.288-0.0733,0.3912-0.1555H52.75v-0.0324
		c-0.4196-0.1096-0.5756-0.0014-0.7964,0.2339c0.0014,0.4326,0.3521,0.6914,0.6711,0.814c0.0956,0.036,0.2617,0.0995,0.4227,0.0617
		c0.2687-0.0621,0.4791-0.2153,0.6716-0.3591c0.069-0.0681,0.137-0.1353,0.2043-0.2033c0.255-0.1925,0.4952-0.4481,0.6867-0.7032
		c0.0478-0.0424,0.0952-0.083,0.1401-0.1248c0.2251-0.2974,0.4967-0.5466,0.7208-0.8442
		C55.6002,39.5637,55.7765,39.4271,55.9085,39.2513z"/>
	<linearGradient id="SVGID_10_" gradientUnits="userSpaceOnUse" x1="49.4742" y1="36.9144" x2="49.4742" y2="42.6554">
		<stop  offset="0" style="stop-color:#007CBB"/>
		<stop  offset="0.1547" style="stop-color:#0072B0"/>
		<stop  offset="0.4298" style="stop-color:#005791"/>
		<stop  offset="0.7907" style="stop-color:#002C61"/>
		<stop  offset="1" style="stop-color:#001041"/>
	</linearGradient>
	<path class="st10" d="M50.1711,39.83c-0.0681,0.0461-0.1718,0.0451-0.2511,0.0789c-0.2051,0.088-0.4313,0.2848-0.5465,0.4678
		c-0.1835,0.2947-0.1821,0.7612-0.4373,0.9856c-0.2547-0.0198-0.4282-0.1997-0.5625-0.3438c-0.0542,0.0027-0.0802,0.0073-0.11,0.031
		c-0.0301,0.0218-0.0333,0.02-0.0478,0.0618c-0.0364,0.0513-0.0192,0.0856-0.0147,0.1578c0.1274,0.1245,0.2095,0.2686,0.3748,0.3588
		c0.0578,0.032,0.1401,0.0617,0.2038,0.0775c0.1266,0.0334,0.2681-0.0186,0.3438-0.0455c0.5669-0.2066,0.324-0.8834,0.6876-1.2516
		c0.0718-0.0731,0.4228-0.3398,0.5778-0.2501c0.0361,0.0122,0.0357,0.0157,0.064,0.0302c-0.0049,0.1049-0.0702,0.205-0.0323,0.2663
		v0.031c0.0636,0.0149,0.1257,0.0239,0.1721-0.0148c0.128-0.0428,0.2154-0.297,0.1253-0.452
		C50.6264,39.8598,50.4334,39.8179,50.1711,39.83z"/>
	<linearGradient id="SVGID_11_" gradientUnits="userSpaceOnUse" x1="57.4287" y1="36.9144" x2="57.4287" y2="42.6554">
		<stop  offset="0" style="stop-color:#007CBB"/>
		<stop  offset="0.1547" style="stop-color:#0072B0"/>
		<stop  offset="0.4298" style="stop-color:#005791"/>
		<stop  offset="0.7907" style="stop-color:#002C61"/>
		<stop  offset="1" style="stop-color:#001041"/>
	</linearGradient>
	<path class="st11" d="M57.7371,39.5171c0.0526-0.0468,0.105-0.0932,0.1564-0.1401c0.1847-0.2448,0.4105-0.4448,0.5939-0.6881
		c0.0487-0.0411,0.0942-0.0831,0.1419-0.1242c0.1579-0.2103,0.3412-0.3866,0.499-0.5958c0.0793-0.1032,0.2199-0.1799,0.2667-0.3114
		c0.0424-0.0568,0.0281-0.1682-0.0152-0.2195c-0.0216-0.0302-0.0208-0.0324-0.0635-0.0473
		c-0.0208-0.0139-0.051-0.0153-0.0948-0.0153c-0.2577,0.21-0.5002,0.4525-0.7017,0.7198c-0.0743,0.067-0.1464,0.1351-0.2199,0.2023
		c-0.1396,0.1853-0.3136,0.3313-0.4528,0.516c-0.1555,0.1564-0.3133,0.3128-0.4683,0.4692
		c-0.3331,0.4399-0.7789,0.7796-1.111,1.2196c-0.2186,0.2899-0.8798,0.7081-0.8281,1.1574h0.0157
		c0.0682,0.0514,0.2594,0.0681,0.343,0.0144c0.0915-0.058,0.1704-0.1938,0.2359-0.2807c0.1329-0.1755,0.3185-0.3377,0.4687-0.4995
		c0.2586-0.2798,0.5353-0.557,0.7648-0.8598C57.4066,39.8504,57.5959,39.7038,57.7371,39.5171z"/>
</g>
<g>
	<path class="st60" d="M16.6667,37.1789v-0.2841l-0.9054,0.1928v-0.1278c-0.0393,0.029-0.0829,0.0508-0.1293,0.0607
		c-0.0465,0.0099-0.09,0.0067-0.1293-0.0056v0.1278l-0.9054,0.1928v0.2841l0.6683-0.1423v0.0086l0.0916,0.2904l-0.4581,0.8208
		l0.388-0.0826v0.6629l0.2587-0.0551v-0.6629l0.1725-0.0367v0.6629l0.2587-0.0551v-0.6629l0.388-0.0826l-0.4581-0.6256
		l0.0706-0.3336L16.6667,37.1789z"/>
	<path class="st60" d="M15.7613,36.5194v0.4404c0.1017-0.075,0.1725-0.2031,0.1725-0.3351c0-0.1831-0.1351-0.3027-0.3018-0.2672
		c-0.1667,0.0355-0.3018,0.2127-0.3018,0.3957c0,0.132,0.0708,0.23,0.1725,0.2616v-0.4404L15.7613,36.5194z"/>
</g>
<g>
	<radialGradient id="SVGID_12_" cx="21.4212" cy="33.4736" r="10.0121" gradientUnits="userSpaceOnUse">
		<stop  offset="0" style="stop-color:#007CBB"/>
		<stop  offset="0.1547" style="stop-color:#0072B0"/>
		<stop  offset="0.4298" style="stop-color:#005791"/>
		<stop  offset="0.7907" style="stop-color:#002C61"/>
		<stop  offset="1" style="stop-color:#001041"/>
	</radialGradient>
	<ellipse class="st12" cx="21.5158" cy="40" rx="7.5768" ry="7.7283"/>
	<g>
		<ellipse class="st289" cx="21.5158" cy="40" rx="7.5768" ry="7.7283"/>
		<ellipse class="st289" cx="21.3643" cy="40" rx="4.0914" ry="7.7283"/>
		<ellipse class="st289" cx="21.3643" cy="40" rx="6.2129" ry="7.7283"/>
		<ellipse class="st289" cx="21.5158" cy="40" rx="1.5154" ry="7.7283"/>
		<path class="st289" d="M14.8768,36.3242c4.2144-1.931,9.5181-2.0825,13.6,0.5931"/>
		<path class="st289" d="M26.1894,33.971c-2.9286-1.5969-6.8343-1.4826-9.675,0.2603"/>
		<path class="st289" d="M13.9348,39.6949c2.1257-1.6649,4.8533-1.968,7.2779-1.968c2.7276,0,6.3645,0.3031,7.8931,2.2921"/>
		<path class="st289" d="M28.7019,42.3666c-3.2462-1.912-11.4291-1.912-14.3149-0.0443"/>
		<path class="st289" d="M27.0655,45.1333c-3.2118-2.309-7.9192-2.2035-11.2217-0.1424"/>
		<path class="st289" d="M24.4108,47.125c-1.6828-0.912-4.546-0.8208-5.7488-0.0042"/>
	</g>
	<path class="st60" d="M16.9703,37.6039c0.0169-0.0997,0.0258-0.1491,0.0442-0.2474c-0.2501,0.0636-0.3612,0.0986-0.6221,0.188
		c0.0081-0.0435,0.0122-0.0652,0.0207-0.1085c-0.0318,0.0273-0.0656,0.0489-0.1002,0.0611
		c-0.0346,0.0122-0.0656,0.0134-0.0926,0.007c-0.0084,0.043-0.0124,0.0646-0.0204,0.1078
		c-0.2787,0.0995-0.4299,0.1575-0.8222,0.3026c-0.0168,0.0929-0.0246,0.1393-0.039,0.2322
		c0.2893-0.1042,0.4101-0.1487,0.6311-0.2276c-0.0005,0.0029-0.0007,0.0043-0.0011,0.0072c0.0138,0.0937,0.021,0.1409,0.036,0.2366
		c-0.1789,0.2963-0.2683,0.4461-0.4559,0.7425c0.1449-0.0451,0.2106-0.0655,0.3344-0.1032
		c-0.0178,0.2297-0.0267,0.3234-0.0308,0.5819c0.0805-0.0199,0.1186-0.0292,0.1924-0.0465c0.0032-0.2642,0.0162-0.3608,0.036-0.5947
		c0.0505-0.0149,0.0751-0.0221,0.1235-0.0359c-0.021,0.2366-0.0368,0.3354-0.0393,0.6029c0.0705-0.0159,0.1045-0.0232,0.172-0.0372
		c0.0014-0.2715,0.0214-0.3741,0.0442-0.6147c0.104-0.0278,0.1542-0.0405,0.2568-0.0645c-0.0938-0.2399-0.1376-0.3515-0.2282-0.5642
		c0.0355-0.1172,0.0539-0.1756,0.0918-0.2918C16.692,37.677,16.7797,37.6514,16.9703,37.6039z"/>
	<path class="st60" d="M18.09,35.6999c0.0184-0.0828,0.0277-0.1242,0.0466-0.2073c-0.2495,0.0359-0.3549,0.0553-0.5641,0.1056
		c0.0111-0.0379,0.0166-0.0569,0.0279-0.0948c-0.027,0.0208-0.0547,0.0362-0.0811,0.043c-0.0265,0.0068-0.0483,0.0041-0.0657-0.0052
		c-0.0118,0.038-0.0176,0.057-0.0292,0.095c-0.206,0.0562-0.304,0.089-0.5274,0.1724c-0.0286,0.0842-0.0425,0.1263-0.0695,0.2104
		c0.1664-0.0612,0.2428-0.0872,0.3972-0.1333c-0.0008,0.0025-0.0011,0.0038-0.0019,0.0064
		c-0.0064,0.0856-0.0092,0.1283-0.0137,0.214c-0.1676,0.2448-0.2509,0.3688-0.4161,0.6208c0.0943-0.0309,0.1402-0.0452,0.2329-0.072
		c-0.0485,0.1978-0.0711,0.2971-0.1128,0.4981c0.0623-0.0176,0.0934-0.0261,0.1568-0.0424
		c0.0413-0.2014,0.0635-0.3007,0.1111-0.4984c0.0417-0.0109,0.0626-0.0161,0.1051-0.0264
		c-0.0467,0.1976-0.0686,0.2969-0.1094,0.4983c0.0648-0.0155,0.0978-0.023,0.1659-0.0376c0.0397-0.2015,0.061-0.3007,0.106-0.4979
		c0.0997-0.0214,0.1511-0.0315,0.2603-0.0511c-0.0837-0.191-0.1169-0.2857-0.1731-0.4742c0.0419-0.0978,0.063-0.1466,0.1055-0.2442
		C17.8083,35.7436,17.8946,35.7284,18.09,35.6999z"/>
	<path class="st60" d="M17.7,35.1746c-0.041,0.1322-0.0609,0.1978-0.0997,0.3286c0.0699-0.0536,0.135-0.1463,0.164-0.2449
		c0.0403-0.1367,0.0001-0.2323-0.0895-0.2081c-0.0897,0.0242-0.201,0.1591-0.2462,0.296c-0.0327,0.0987-0.0201,0.1709,0.025,0.1948
		c0.0406-0.131,0.0615-0.1967,0.1047-0.3289C17.6148,35.1962,17.643,35.1887,17.7,35.1746z"/>
	<g>
		<path class="st60" d="M20.5796,33.814c-0.0108-0.0771-0.0165-0.1161-0.0286-0.1952c-0.1973-0.0237-0.3038-0.0263-0.5555-0.0157
			c-0.0024-0.0364-0.0037-0.0546-0.0062-0.0914c-0.026,0.0159-0.0559,0.0264-0.0892,0.0283
			c-0.0333,0.0019-0.0657-0.005-0.0956-0.0178c0.0016,0.037,0.0024,0.0553,0.0039,0.0918
			c-0.2723,0.0198-0.5192,0.0575-0.7172,0.0724c-0.005,0.0817-0.0075,0.1219-0.0128,0.2014
			c0.1551-0.0112,0.3263-0.0364,0.5478-0.0576c0,0.0024,0,0.0036,0.0001,0.006c0.0312,0.0834,0.0468,0.1245,0.0778,0.2057
			c-0.1496,0.2092-0.2346,0.313-0.4253,0.5195c0.1539-0.0176,0.2262-0.0252,0.3635-0.038c-0.0028,0.1701-0.005,0.2531-0.0102,0.4172
			c0.0948-0.0087,0.1404-0.0125,0.2286-0.0192c0.0022-0.1639,0.0027-0.2467,0.002-0.4165c0.0566-0.0042,0.0842-0.006,0.1381-0.0092
			c0.003,0.1695,0.0036,0.2523,0.0033,0.4159c0.0841-0.0052,0.1246-0.0073,0.2031-0.0103
			c-0.0026-0.1631-0.0047-0.2457-0.0111-0.4146c0.1131-0.0036,0.1667-0.0041,0.2693-0.0021
			c-0.1337-0.1852-0.2021-0.2786-0.3423-0.469c0.0149-0.0863,0.0218-0.1298,0.034-0.218
			C20.3421,33.7945,20.4245,33.7976,20.5796,33.814z"/>
		<path class="st60" d="M19.9642,33.1876c0.0112,0.1326,0.0163,0.1974,0.0252,0.3242c0.0671-0.0412,0.1048-0.1229,0.0953-0.2205
			c-0.0132-0.1353-0.1065-0.2498-0.2177-0.2445c-0.1112,0.0054-0.2061,0.1298-0.2011,0.2666
			c0.0036,0.0986,0.0615,0.1757,0.1387,0.2088c-0.0057-0.1273-0.0091-0.1923-0.0169-0.3256
			C19.8612,33.1916,19.8964,33.1898,19.9642,33.1876z"/>
	</g>
	<g>
		<path class="st60" d="M22.425,33.3545c-0.0109-0.0918-0.0167-0.1383-0.0289-0.2325c-0.1991-0.0282-0.3067-0.0313-0.5607-0.0187
			c-0.0024-0.0433-0.0037-0.0651-0.0063-0.1089c-0.0262,0.019-0.0564,0.0314-0.09,0.0336
			c-0.0336,0.0023-0.0663-0.0059-0.0965-0.0212c0.0016,0.044,0.0025,0.0659,0.004,0.1093c-0.2749,0.0236-0.5241,0.0685-0.724,0.0863
			c-0.005,0.0973-0.0076,0.1452-0.013,0.2399c0.1566-0.0133,0.3293-0.0433,0.5529-0.0686c0,0.0029,0,0.0043,0.0001,0.0071
			c0.0315,0.0993,0.0472,0.1483,0.0785,0.245c-0.151,0.2491-0.2368,0.3728-0.4294,0.6187c0.1554-0.021,0.2284-0.0301,0.367-0.0453
			c-0.0028,0.2026-0.005,0.3015-0.0103,0.4969c0.0957-0.0104,0.1417-0.0149,0.2307-0.0228
			c0.0022-0.1951,0.0028-0.2939,0.0021-0.4961c0.0571-0.005,0.085-0.0072,0.1394-0.011c0.0031,0.2019,0.0036,0.3005,0.0034,0.4953
			c0.0849-0.0062,0.1257-0.0087,0.205-0.0122c-0.0026-0.1943-0.0047-0.2926-0.0112-0.4938
			c0.1142-0.0043,0.1682-0.0048,0.2719-0.0026c-0.1349-0.2206-0.204-0.3318-0.3455-0.5585c0.0151-0.1027,0.022-0.1546,0.0344-0.2597
			C22.1852,33.3313,22.2685,33.3349,22.425,33.3545z"/>
		<path class="st60" d="M21.8037,32.6083c0.0114,0.158,0.0164,0.2351,0.0254,0.3861c0.0677-0.0491,0.1058-0.1464,0.0962-0.2626
			c-0.0133-0.1612-0.1075-0.2975-0.2197-0.2912c-0.1123,0.0064-0.2081,0.1546-0.203,0.3175c0.0036,0.1175,0.0621,0.2093,0.14,0.2487
			c-0.0058-0.1516-0.0091-0.229-0.017-0.3878C21.6998,32.6132,21.7354,32.611,21.8037,32.6083z"/>
	</g>
	<g>
		<path class="st60" d="M19.9994,35.5305c0.0007-0.0933,0.0009-0.14,0.0011-0.2337c-0.2932,0.0162-0.4558,0.0349-0.847,0.0887
			c0.0021-0.0424,0.0031-0.0636,0.0052-0.1061c-0.0431,0.023-0.0914,0.0401-0.1436,0.0477
			c-0.0522,0.0076-0.083-0.0002-0.1151-0.0135c-0.0031,0.0427-0.0046,0.064-0.0077,0.1065
			c-0.3119,0.0372-0.4393,0.0542-0.6698,0.0948c-0.0158,0.0973-0.0237,0.1458-0.0391,0.2427
			c0.1797-0.0324,0.2774-0.047,0.5033-0.0774c-0.0375,0.3794-0.0561,0.5661-0.0905,0.9521c0.0016-0.0003,0.0024-0.0004,0.004-0.0006
			c-0.0171,0.193-0.0254,0.2903-0.0412,0.4892c0.1-0.0166,0.1524-0.025,0.263-0.0425c0.0111-0.1975,0.017-0.294,0.0291-0.4852
			c0.0702-0.0105,0.1131-0.0161,0.1924-0.0262c-0.0099,0.1908-0.0149,0.2872-0.024,0.4843c0.1204-0.015,0.178-0.0221,0.2887-0.0352
			c0.0132-0.3285,0.0205-0.4862,0.0343-0.8003c-0.0018,0.0002-0.0027,0.0003-0.0045,0.0005
			c0.0111-0.2512,0.0167-0.3751,0.0268-0.625C19.6476,35.5564,19.7715,35.5438,19.9994,35.5305z"/>
		<path class="st60" d="M19.2976,34.9646c-0.0072,0.1272-0.0111,0.1899-0.019,0.3147c0.125-0.0507,0.208-0.1385,0.2122-0.2331
			c0.0059-0.1313-0.1367-0.2252-0.3402-0.2016c-0.2035,0.0235-0.2795,0.1311-0.2955,0.2636
			c-0.0115,0.0955,0.0398,0.1708,0.133,0.2002c0.0119-0.1253,0.0178-0.1882,0.0293-0.3158
			C19.11,34.9851,19.1755,34.9779,19.2976,34.9646z"/>
	</g>
	<path class="st60" d="M18.2943,33.9777c0.0219-0.0771,0.0329-0.1159,0.0552-0.1944c-0.1355,0.0345-0.1987,0.0552-0.3322,0.1079
		c0.0129-0.0346,0.0194-0.052,0.0323-0.0868c-0.0195,0.0199-0.0386,0.0349-0.0556,0.0422
		c-0.0171,0.0072-0.0299,0.0058-0.0389-0.0017c-0.0138,0.0346-0.0206,0.0518-0.0341,0.0862
		c-0.1366,0.0589-0.2066,0.0935-0.3664,0.1775c-0.0352,0.0741-0.0525,0.111-0.0866,0.1846
		c0.1245-0.0618,0.1813-0.0887,0.2914-0.1361c-0.1222,0.3-0.1797,0.4461-0.2873,0.7349c0.0008-0.0003,0.0012-0.0004,0.002-0.0007
		c-0.0538,0.1444-0.0798,0.216-0.1299,0.3586c0.048-0.0162,0.0717-0.0239,0.1189-0.0385c0.0485-0.1427,0.0735-0.2144,0.1253-0.3592
		c0.0302-0.0099,0.0452-0.0146,0.0753-0.0239c-0.0503,0.1449-0.0747,0.2167-0.122,0.3595c0.0471-0.0137,0.0705-0.0201,0.1178-0.0324
		c0.0755-0.2379,0.1152-0.358,0.1982-0.6033c-0.0007,0.0002-0.0011,0.0003-0.0018,0.0005c0.0664-0.1963,0.1008-0.2957,0.1717-0.4989
		C18.1332,34.0182,18.1851,34.0033,18.2943,33.9777z"/>
	<path class="st60" d="M18.1638,33.5006c-0.0465,0.1231-0.0693,0.1837-0.1142,0.3038c0.0504-0.0514,0.1028-0.1387,0.1358-0.2306
		c0.0458-0.1275,0.0413-0.2132-0.0133-0.1846c-0.0546,0.0287-0.145,0.1583-0.1974,0.2832c-0.0378,0.09-0.0429,0.1533-0.0196,0.1725
		c0.0474-0.1191,0.0715-0.1793,0.1208-0.3012C18.1116,33.5256,18.1291,33.517,18.1638,33.5006z"/>
	<path class="st60" d="M18.9428,33.9662c0.0081-0.0769,0.0121-0.1158,0.02-0.1946c-0.1851,0.0161-0.2647,0.0254-0.4149,0.0509
		c0.0078-0.0353,0.0117-0.053,0.0196-0.0886c-0.0191,0.0172-0.0386,0.029-0.0572,0.0326c-0.0185,0.0035-0.0335-0.0017-0.0452-0.0128
		c-0.0089,0.0355-0.0133,0.0532-0.0221,0.0883c-0.1439,0.0292-0.2094,0.0467-0.344,0.092c-0.0264,0.077-0.0394,0.1152-0.0652,0.191
		c0.1063-0.0334,0.1587-0.0472,0.2699-0.0712c-0.0845,0.3062-0.1256,0.4532-0.2044,0.7421c0.0008-0.0001,0.0012-0.0002,0.002-0.0004
		c-0.0394,0.1445-0.0587,0.2158-0.0964,0.3575c0.0519-0.0091,0.0783-0.0135,0.1327-0.0218
		c0.0348-0.1413,0.0526-0.2124,0.0887-0.3567c0.0341-0.0053,0.0515-0.0079,0.0868-0.0128c-0.0337,0.144-0.0504,0.215-0.0831,0.356
		c0.0564-0.0079,0.0854-0.0117,0.1453-0.019c0.0487-0.2339,0.0737-0.3523,0.124-0.5964c-0.0009,0.0001-0.0013,0.0002-0.0022,0.0003
		c0.0404-0.1953,0.0608-0.2948,0.1018-0.4999C18.7255,33.9856,18.7927,33.9787,18.9428,33.9662z"/>
	<path class="st60" d="M18.6351,33.4218c-0.0272,0.1271-0.0407,0.1894-0.0677,0.3122c0.0493-0.0444,0.0939-0.1281,0.1123-0.2225
		c0.0254-0.1309-0.003-0.2309-0.0602-0.2168c-0.0572,0.0142-0.13,0.1356-0.1646,0.2651c-0.0249,0.0933-0.0201,0.1653,0.0101,0.194
		c0.0306-0.1223,0.046-0.1844,0.077-0.3108C18.5786,33.4339,18.5972,33.4297,18.6351,33.4218z"/>
	<path class="st60" d="M17.9949,38.3695c0.0085-0.1124,0.0131-0.1675,0.0228-0.2762c-0.4038,0.0539-0.556,0.0767-0.8344,0.1279
		c0.0058-0.0478,0.0087-0.0716,0.0148-0.1189c-0.0327,0.0248-0.0669,0.0426-0.1013,0.0495c-0.0344,0.0068-0.0643,0.0017-0.09-0.0113
		c-0.0061,0.047-0.0091,0.0705-0.0149,0.1179c-0.2587,0.0533-0.3667,0.0811-0.6132,0.1524
		c-0.0115,0.1013-0.0168,0.1523-0.0265,0.2551c0.1848-0.05,0.2694-0.0709,0.4562-0.1102c-0.0449,0.4271-0.0523,0.6584-0.0522,1.1421
		c0.0012-0.0002,0.0017-0.0002,0.0029-0.0004c0.0001,0.2419-0.0002,0.3638-0.0004,0.6087c0.0715-0.0081,0.1079-0.0121,0.1839-0.0203
		c-0.0008-0.2459-0.0011-0.3683-0.0021-0.6116c0.05-0.0061,0.0756-0.0091,0.1285-0.0152c0.0017,0.244,0.0023,0.3667,0.0037,0.6131
		c0.0802-0.0082,0.1218-0.0124,0.2099-0.021c-0.0036-0.4117-0.005-0.6164-0.01-1.0221c-0.0014,0.0002-0.0022,0.0003-0.0036,0.0004
		c-0.004-0.3245,0.0232-0.4733,0.0531-0.7666C17.5532,38.4268,17.681,38.4093,17.9949,38.3695z"/>
	<g>
		<path class="st60" d="M16.4921,37.0648c-0.034,0.1478-0.0498,0.222-0.079,0.3713c0.0822-0.0705,0.1505-0.1828,0.1749-0.2942
			c0.0338-0.1545-0.029-0.2469-0.1535-0.2014c-0.1245,0.0456-0.2661,0.2113-0.2994,0.364c-0.024,0.1101,0.0155,0.1831,0.0852,0.1997
			c0.0288-0.1483,0.0445-0.2221,0.0783-0.3693C16.3788,37.1053,16.4172,37.0913,16.4921,37.0648z"/>
		<path class="st60" d="M17.2545,37.7019c-0.0242,0.1575-0.0354,0.2374-0.0563,0.4004c0.0844-0.064,0.1558-0.1789,0.1727-0.2985
			c0.0235-0.1659-0.0639-0.2764-0.1862-0.2498c-0.1222,0.0266-0.2368,0.1797-0.2612,0.3435
			c-0.0176,0.1181,0.0171,0.2094,0.0834,0.243c0.0211-0.1617,0.0325-0.2412,0.0572-0.398
			C17.1379,37.7258,17.1756,37.7178,17.2545,37.7019z"/>
	</g>
	<path class="st60" d="M16.7226,35.996c0.0299-0.0896,0.0453-0.1344,0.077-0.2242c-0.2478,0.0972-0.3814,0.1547-0.7127,0.2975
		c0.0156-0.0398,0.0236-0.0597,0.0397-0.0994c-0.0423,0.0316-0.0868,0.059-0.1312,0.0783c-0.0445,0.0194-0.0833,0.0284-0.116,0.0297
		c-0.0166,0.0395-0.0249,0.0593-0.041,0.0988c-0.365,0.158-0.5744,0.2498-1.0919,0.4689c-0.041,0.0854-0.0607,0.1282-0.0985,0.2138
		c0.3967-0.1639,0.5669-0.2358,0.8707-0.3642c-0.136,0.3494-0.1926,0.5243-0.2862,0.8735c0.002-0.0008,0.0029-0.0011,0.0049-0.0019
		c-0.0468,0.1746-0.0676,0.2619-0.1044,0.4362c0.1184-0.0444,0.1744-0.0655,0.2809-0.1058c0.0365-0.176,0.057-0.264,0.1029-0.4399
		c0.0707-0.0278,0.1048-0.0412,0.171-0.0672c-0.0455,0.1767-0.0659,0.2651-0.1023,0.4421c0.0994-0.0377,0.1465-0.0556,0.2366-0.0896
		c0.0609-0.2975,0.097-0.4454,0.1821-0.7413c-0.0015,0.0006-0.0022,0.0009-0.0037,0.0015c0.068-0.2367,0.106-0.3548,0.1903-0.5914
		C16.4285,36.1121,16.5306,36.0699,16.7226,35.996z"/>
	<path class="st60" d="M16.2734,35.627c-0.0618,0.1373-0.0912,0.2058-0.1468,0.3429c0.1094-0.0818,0.2041-0.196,0.248-0.2993
		c0.0608-0.1432,0.0041-0.2088-0.1504-0.1368c-0.1545,0.0719-0.3545,0.2521-0.4203,0.3929
		c-0.0474,0.1015-0.0091,0.1547,0.0755,0.1512c0.0573-0.1362,0.0876-0.2043,0.1516-0.3404
		C16.1328,35.691,16.1811,35.669,16.2734,35.627z"/>
	<g>
		<path class="st60" d="M22.4801,39.2184v-0.2843h-0.9951v-0.1279c-0.0432,0.0206-0.0911,0.0331-0.1422,0.0331
			c-0.0511,0-0.0989-0.0125-0.1422-0.0331v0.1279h-0.9951v0.2843H20.94v0.0086l0.1007,0.3102l-0.5035,0.7237h0.4265v0.6634h0.2843
			v-0.6634h0.1895v0.6634h0.2843v-0.6634h0.4265l-0.5035-0.7237l0.0776-0.3188H22.4801z"/>
		<path class="st60" d="M21.4849,38.3654v0.4407c0.1118-0.0534,0.1895-0.1665,0.1895-0.2986c0-0.1832-0.1485-0.3317-0.3317-0.3317
			c-0.1832,0-0.3317,0.1485-0.3317,0.3317c0,0.1321,0.0778,0.2452,0.1895,0.2986v-0.4407H21.4849z"/>
	</g>
	<g>
		<path class="st60" d="M24.8968,39.2184v-0.2843h-0.9951v-0.1279c-0.0432,0.0206-0.0911,0.0331-0.1422,0.0331
			c-0.0511,0-0.0989-0.0125-0.1422-0.0331v0.1279h-0.9951v0.2843h0.7345v0.0086l0.1007,0.3102l-0.5035,0.7237h0.4265v0.6634h0.2843
			v-0.6634h0.1895v0.6634h0.2843v-0.6634h0.4265l-0.5035-0.7237l0.0776-0.3188H24.8968z"/>
		<path class="st60" d="M23.9017,38.3654v0.4407c0.1118-0.0534,0.1895-0.1665,0.1895-0.2986c0-0.1832-0.1485-0.3317-0.3317-0.3317
			c-0.1832,0-0.3317,0.1485-0.3317,0.3317c0,0.1321,0.0778,0.2452,0.1895,0.2986v-0.4407H23.9017z"/>
	</g>
	<g>
		<path class="st60" d="M20.0633,39.2184v-0.2843h-0.9951v-0.1279c-0.0432,0.0206-0.0911,0.0331-0.1422,0.0331
			c-0.0511,0-0.0989-0.0125-0.1422-0.0331v0.1279h-0.9951v0.2843h0.7535v1.1373h0.0047v0.5686h0.2843v-0.5686h0.1895v0.5686h0.2843
			v-0.9477h-0.0047v-0.7582H20.0633z"/>
		<path class="st60" d="M19.0682,38.3654v0.4407c0.1118-0.0534,0.1895-0.1665,0.1895-0.2986c0-0.1832-0.1485-0.3317-0.3317-0.3317
			c-0.1832,0-0.3317,0.1485-0.3317,0.3317c0,0.1321,0.0778,0.2452,0.1895,0.2986v-0.4407H19.0682z"/>
	</g>
	<g>
		<path class="st60" d="M23.1435,41.7586v-0.2843h-0.9951v-0.1279c-0.0432,0.0206-0.0911,0.0331-0.1422,0.0331
			c-0.0511,0-0.0989-0.0125-0.1422-0.0331v0.1279h-0.9951v0.2843h0.7345v0.0086l0.1007,0.3102l-0.5035,0.7237h0.4265v0.6634h0.2843
			v-0.6634h0.1895v0.6634h0.2843v-0.6634h0.4265l-0.5035-0.7237l0.0776-0.3188H23.1435z"/>
		<path class="st60" d="M22.1484,40.9056v0.4407c0.1118-0.0534,0.1895-0.1665,0.1895-0.2986c0-0.1832-0.1485-0.3317-0.3317-0.3317
			c-0.1832,0-0.3317,0.1485-0.3317,0.3317c0,0.1321,0.0778,0.2452,0.1895,0.2986v-0.4407H22.1484z"/>
	</g>
	<g>
		<path class="st60" d="M20.7267,41.7586v-0.2843h-0.9951v-0.1279c-0.0432,0.0206-0.0911,0.0331-0.1422,0.0331
			c-0.0511,0-0.0989-0.0125-0.1422-0.0331v0.1279h-0.9951v0.2843h0.7534v1.1373h0.0047v0.5686h0.2843v-0.5686h0.1895v0.5686h0.2843
			v-0.9477h-0.0047v-0.7582H20.7267z"/>
		<path class="st60" d="M19.7316,40.9056v0.4407c0.1118-0.0534,0.1895-0.1665,0.1895-0.2986c0-0.1832-0.1485-0.3317-0.3317-0.3317
			c-0.1832,0-0.3317,0.1485-0.3317,0.3317c0,0.1321,0.0778,0.2452,0.1895,0.2986v-0.4407H19.7316z"/>
	</g>
	<g>
		<path class="st60" d="M22.6222,44.8101v-0.2843h-0.9951v-0.1279c-0.0432,0.0206-0.0911,0.0331-0.1422,0.0331
			c-0.0511,0-0.0989-0.0125-0.1422-0.0331v0.1279h-0.9951v0.2843h0.7534v1.1373h0.0047v0.5686h0.2843v-0.5686h0.1895v0.5686h0.2843
			v-0.9477h-0.0047v-0.7582H22.6222z"/>
		<path class="st60" d="M21.6271,43.9571v0.4407c0.1118-0.0534,0.1895-0.1665,0.1895-0.2986c0-0.1832-0.1485-0.3317-0.3317-0.3317
			c-0.1832,0-0.3317,0.1485-0.3317,0.3317c0,0.1321,0.0778,0.2452,0.1895,0.2986v-0.4407H21.6271z"/>
	</g>
</g>
<g>
	<g>
		<path class="st290" d="M31.9193,33.5356v1.2239v1.2239h-0.1597h-0.1597v-1.2239v-1.2239h0.1597H31.9193z"/>
		<path class="st290" d="M33.4007,35.9834v-1.2239v-1.2239h0.1743h0.1743l0.3901,0.6191l0.3901,0.6191
			c0.0889,0.1436,0.1697,0.2798,0.2423,0.4114s0.1371,0.2587,0.1932,0.384l0.0059-0.0017l0.0059-0.0017
			c-0.0146-0.1636-0.0239-0.3198-0.0295-0.4828s-0.0076-0.3328-0.0076-0.5235v-0.512v-0.512h0.1489h0.1489v1.2239v1.2239H35.078
			h-0.1597l-0.3887-0.6211l-0.3887-0.6211c-0.0854-0.136-0.1689-0.2739-0.2461-0.411s-0.1479-0.2733-0.208-0.4059l-0.0054,0.0017
			l-0.0054,0.0017c0.0093,0.1545,0.0149,0.3053,0.0182,0.4683s0.0043,0.3381,0.0043,0.5415v0.5229v0.5229h-0.1489H33.4007z"/>
		<path class="st290" d="M36.681,35.5986c0.0708,0.0454,0.157,0.0853,0.2527,0.1139s0.2009,0.0458,0.3098,0.0458
			c0.1616,0,0.2896-0.0427,0.3771-0.1163s0.1346-0.1779,0.1346-0.3012c0-0.1128-0.0325-0.2028-0.1063-0.28
			s-0.1891-0.1417-0.3546-0.2034c-0.1997-0.0725-0.3613-0.1614-0.473-0.2748s-0.1735-0.2515-0.1735-0.4224
			c0-0.1907,0.0791-0.3568,0.2177-0.4753s0.3365-0.1893,0.5743-0.1893c0.1235,0,0.2314,0.0145,0.3217,0.0368
			s0.1627,0.0523,0.2155,0.0833l-0.0435,0.1289L37.89,33.8735c-0.0381-0.0237-0.0979-0.0527-0.1759-0.0759
			s-0.1742-0.0403-0.285-0.0403c-0.167,0-0.2825,0.0499-0.3562,0.1207s-0.1057,0.1625-0.1057,0.246
			c0,0.1145,0.0374,0.1998,0.1169,0.2729s0.2014,0.1339,0.3704,0.1993c0.207,0.0798,0.3623,0.1697,0.4658,0.2845
			s0.1553,0.2548,0.1553,0.4347c0,0.1887-0.0691,0.3657-0.2103,0.4955s-0.3546,0.2125-0.6432,0.2125
			c-0.1182,0-0.2417-0.0182-0.3521-0.0472s-0.2075-0.069-0.2729-0.1124l0.042-0.1326L36.681,35.5986z"/>
		<path class="st290" d="M39.9056,33.8047H39.533h-0.3726v-0.1345v-0.1345h0.9062h0.9062v0.1345v0.1345h-0.374h-0.374v1.0894v1.0894
			h-0.1597h-0.1597V34.894V33.8047z"/>
		<path class="st290" d="M42.4915,33.5356v1.2239v1.2239h-0.1597h-0.1597v-1.2239v-1.2239h0.1597H42.4915z"/>
		<path class="st290" d="M44.4378,33.8047h-0.3726h-0.3726v-0.1345v-0.1345h0.9062h0.9062v0.1345v0.1345h-0.374h-0.374v1.0894
			v1.0894h-0.1597h-0.1597V34.894V33.8047z"/>
		<path class="st290" d="M47.0228,33.5356v0.7263v0.7263c0,0.2725,0.0608,0.4668,0.1625,0.593s0.2443,0.1843,0.4078,0.1843
			c0.1797,0,0.3286-0.0599,0.4326-0.1871s0.1631-0.3215,0.1631-0.5903V34.262v-0.7263h0.1597h0.1597v0.7156v0.7156
			c0,0.3757-0.0989,0.6399-0.264,0.8101s-0.3966,0.2465-0.6617,0.2465c-0.2505,0-0.4702-0.0708-0.6273-0.2369
			s-0.2516-0.4276-0.2516-0.809v-0.7209v-0.7209h0.1597H47.0228z"/>
		<path class="st290" d="M50.4525,33.8047h-0.3726h-0.3726v-0.1345v-0.1345h0.9062h0.9062v0.1345v0.1345h-0.374h-0.374v1.0894
			v1.0894h-0.1597h-0.1597V34.894V33.8047z"/>
		<path class="st290" d="M54.7161,34.7344c0,0.4194-0.1282,0.7417-0.3344,0.9591s-0.4904,0.33-0.8024,0.33
			c-0.3252,0-0.6003-0.1262-0.7942-0.345s-0.3064-0.5302-0.3064-0.9006c0-0.3887,0.1199-0.7101,0.3214-0.9343
			s0.4847-0.3513,0.8114-0.3513c0.3359,0,0.6121,0.1281,0.8042,0.3474S54.7161,34.3694,54.7161,34.7344z M52.8128,34.7705
			c0,0.2632,0.0708,0.512,0.2042,0.6949s0.3295,0.3002,0.58,0.3002s0.4465-0.1154,0.58-0.3002s0.2042-0.4391,0.2042-0.7169
			c0-0.2451-0.0635-0.4948-0.1927-0.6831S53.8641,33.75,53.6009,33.75s-0.4602,0.1217-0.5914,0.3101
			S52.8128,34.5037,52.8128,34.7705z"/>
	</g>
</g>
<g>
	<g>
		<path class="st52" d="M40.3509,44.4131c0.0825-0.0149,0.1729-0.0272,0.2694-0.0358s0.1993-0.0135,0.3068-0.0135
			c0.1943,0,0.3608,0.0247,0.5017,0.0716s0.2561,0.1161,0.3479,0.2053c0.0952,0.0906,0.1699,0.2002,0.2208,0.332
			s0.078,0.2859,0.078,0.4653c0,0.1814-0.0271,0.3462-0.0784,0.4912s-0.1267,0.2703-0.2234,0.3726
			c-0.0996,0.1038-0.2305,0.1836-0.3873,0.2375s-0.3397,0.0818-0.5433,0.0818c-0.0981,0-0.1868-0.0024-0.2681-0.007
			s-0.1553-0.0111-0.2241-0.0194v-1.0908V44.4131z M40.6224,46.3774c0.0342,0.0049,0.0762,0.0082,0.1228,0.0103
			s0.0979,0.0029,0.1506,0.0029c0.291,0,0.5144-0.0857,0.665-0.2463s0.2285-0.3962,0.2285-0.696
			c0.0015-0.2622-0.0679-0.4766-0.2091-0.6254s-0.3544-0.2321-0.6405-0.2321c-0.0703,0-0.1318,0.0034-0.1847,0.0089
			s-0.097,0.0129-0.1327,0.0209v0.8784V46.3774z"/>
		<path class="st52" d="M44.305,45.5601h-0.4058h-0.4058v0.4004v0.4004h0.4541h0.4541v0.1204v0.1204h-0.5913h-0.5913v-1.1108
			v-1.1108h0.5684h0.5684v0.1204v0.1204h-0.4312h-0.4312v0.3511v0.3511h0.4058h0.4058v0.1187V45.5601z"/>
		<path class="st52" d="M47.0033,44.3799h0.1372h0.1372v0.9905v0.9905h0.4482h0.4482v0.1204v0.1204h-0.5854h-0.5854v-1.1108V44.3799
			z"/>
		<path class="st52" d="M49.6117,45.9028l-0.1089,0.3494l-0.1089,0.3494h-0.1401h-0.1401l0.3579-1.1108l0.3579-1.1108h0.1616h0.1616
			l0.3579,1.1108l0.3579,1.1108H50.724h-0.1445l-0.1118-0.3494l-0.1118-0.3494h-0.3721H49.6117z M50.3021,45.6787l-0.104-0.3198
			l-0.104-0.3198c-0.0234-0.0723-0.043-0.1414-0.0605-0.2085s-0.0332-0.1323-0.0488-0.1968h-0.0029h-0.0029
			c-0.0156,0.0645-0.0312,0.1312-0.0485,0.1988s-0.036,0.1359-0.058,0.2036l-0.1025,0.3213l-0.1025,0.3213h0.3174H50.3021z"/>
		<path class="st52" d="M53.3968,46.252c0.0605,0.0413,0.1345,0.0776,0.2167,0.1037s0.1725,0.0418,0.2657,0.0418
			c0.1387,0,0.2485-0.0388,0.3237-0.1057s0.1157-0.1617,0.1157-0.2737c0-0.1021-0.0281-0.1836-0.0916-0.2536
			s-0.1624-0.1285-0.304-0.1844c-0.1714-0.0659-0.3098-0.1467-0.4054-0.2498s-0.1483-0.2283-0.1483-0.3831
			c0-0.1731,0.0676-0.324,0.1862-0.4316s0.288-0.1719,0.4916-0.1719c0.106,0,0.1987,0.0132,0.2762,0.0334
			s0.1398,0.0474,0.1847,0.0755l-0.0371,0.1169l-0.0371,0.1169c-0.0327-0.0215-0.0842-0.0479-0.1512-0.0688
			s-0.1495-0.0366-0.2443-0.0366c-0.1431,0-0.2419,0.0454-0.3051,0.1097s-0.0905,0.1476-0.0905,0.2233
			c0,0.1038,0.032,0.1812,0.1001,0.2475s0.1724,0.1216,0.3169,0.1812c0.1772,0.0723,0.3103,0.1538,0.399,0.2581
			s0.1332,0.2312,0.1332,0.3943c0,0.1714-0.0591,0.332-0.1801,0.4498s-0.3038,0.1927-0.5514,0.1927
			c-0.1011,0-0.2068-0.0165-0.3013-0.0428s-0.1777-0.0626-0.2339-0.1022l0.0356-0.1204L53.3968,46.252z"/>
		<path class="st52" d="M56.1019,45.9028l-0.1089,0.3494l-0.1089,0.3494H55.744h-0.1401l0.3579-1.1108l0.3579-1.1108h0.1616h0.1616
			l0.3579,1.1108l0.3579,1.1108h-0.1445h-0.1445l-0.1118-0.3494l-0.1118-0.3494H56.474H56.1019z M56.7923,45.6787l-0.104-0.3198
			l-0.104-0.3198c-0.0234-0.0723-0.043-0.1414-0.0605-0.2085s-0.0332-0.1323-0.0488-0.1968H56.472h-0.0029
			c-0.0156,0.0645-0.0312,0.1312-0.0485,0.1988s-0.036,0.1359-0.058,0.2036l-0.1025,0.3213l-0.1025,0.3213h0.3174H56.7923z"/>
		<path class="st52" d="M58.4622,44.3799h0.1372h0.1372v0.9905v0.9905h0.4482h0.4482v0.1204v0.1204h-0.5854h-0.5854v-1.1108V44.3799
			z"/>
		<path class="st52" d="M60.89,44.3799v0.6592v0.6592c0,0.2473,0.052,0.4237,0.139,0.5383s0.2091,0.1673,0.3492,0.1673
			c0.1543,0,0.282-0.0543,0.3711-0.1697s0.1396-0.2917,0.1396-0.5359v-0.6592v-0.6592h0.1367h0.1367v0.6494v0.6494
			c0,0.3411-0.0847,0.5808-0.2263,0.7353s-0.3401,0.2237-0.5676,0.2237c-0.2144,0-0.4026-0.0642-0.5372-0.215
			s-0.2157-0.3881-0.2157-0.7343v-0.6543v-0.6543h0.1372H60.89z"/>
		<path class="st52" d="M63.43,44.4131c0.0825-0.0149,0.1729-0.0272,0.2694-0.0358s0.1993-0.0135,0.3068-0.0135
			c0.1943,0,0.3608,0.0247,0.5017,0.0716s0.2561,0.1161,0.3479,0.2053c0.0952,0.0906,0.1699,0.2002,0.2208,0.332
			s0.078,0.2859,0.078,0.4653c0,0.1814-0.0271,0.3462-0.0784,0.4912s-0.1267,0.2703-0.2234,0.3726
			c-0.0996,0.1038-0.2305,0.1836-0.3873,0.2375s-0.3397,0.0818-0.5433,0.0818c-0.0981,0-0.187-0.0024-0.2684-0.007
			s-0.1554-0.0111-0.2238-0.0194v-1.0908V44.4131z M63.7015,46.3774c0.0342,0.0049,0.0762,0.0082,0.1228,0.0103
			s0.0979,0.0029,0.1506,0.0029c0.291,0,0.5144-0.0857,0.665-0.2463s0.2285-0.3962,0.2285-0.696
			c0.0015-0.2622-0.0679-0.4766-0.2091-0.6254s-0.3544-0.2321-0.6405-0.2321c-0.0703,0-0.1318,0.0034-0.1847,0.0089
			s-0.097,0.0129-0.1327,0.0209v0.8784V46.3774z"/>
	</g>
</g>
<rect x="30.0018" y="43.1822" class="st290" width="35.1562" height="0.3031"/>
</svg>
