<?xml version="1.0" encoding="utf-8"?>
<!-- Generator: Adobe Illustrator 20.1.0, SVG Export Plug-In . SVG Version: 6.00 Build 0)  -->
<svg version="1.1" id="Layer_1" xmlns="http://www.w3.org/2000/svg" xmlns:xlink="http://www.w3.org/1999/xlink" x="0px" y="0px"
	 viewBox="0 0 60 58" style="enable-background:new 0 0 60 58;" xml:space="preserve">
<g id="Ayuda-a-personalizar-ADN" transform="translate(-419.000000, -789.000000)">
	<g id="calls">
		
			<image style="overflow:visible;enable-background:new    ;" width="512" height="512" xlink:href="FE9C7A93D31B3BC7.png"  transform="matrix(0.125 0 0 0.125 417 786)">
		</image>
	</g>
</g>
</svg>
