<?xml version="1.0" encoding="utf-8"?>
<!-- Generator: Adobe Illustrator 22.0.1, SVG Export Plug-In . SVG Version: 6.00 Build 0)  -->
<svg version="1.1" id="Layer_1" xmlns="http://www.w3.org/2000/svg" xmlns:xlink="http://www.w3.org/1999/xlink" x="0px" y="0px"
	 viewBox="0 0 175.9 175.9" style="enable-background:new 0 0 175.9 175.9;" xml:space="preserve">
<style type="text/css">
	.st0{fill:#58595B;}
	.st1{fill:#FFFFFF;}
	.st2{clip-path:url(#SVGID_2_);fill:#58595B;}
	.st3{clip-path:url(#SVGID_2_);fill:#FFFFFF;}
</style>
<g>
	<defs>
		<path id="SVGID_1_" d="M161,88c0,40.3-32.7,73-73,73s-73-32.7-73-73c0-40.3,32.7-73,73-73S161,47.6,161,88z"/>
	</defs>
	<clipPath id="SVGID_2_">
		<use xlink:href="#SVGID_1_"  style="overflow:visible;"/>
	</clipPath>
	<path class="st2" d="M161,88c0,40.3-32.7,73-73,73s-73-32.7-73-73c0-40.3,32.7-73,73-73S161,47.6,161,88z"/>
	<path class="st3" d="M100.7,82.7h-0.3H88.2H68v11.7h19.5c-2.8,8.3-10.6,14.3-19.8,14.3c-11.6,0-20.9-9.5-20.9-21.3
		c0-11.7,9.4-21.3,20.9-21.3c5.1,0,9.7,1.8,13.3,4.9h0.5l8.6-8.8c-5.9-5.5-13.8-8.8-22.5-8.8c-18.5,0-33.4,15.2-33.4,34
		c0,18.8,15,34,33.4,34c2.4,0,4.8-0.3,7.2-0.8c4.8-1.1,9.3-3.2,13.2-6.2c3.8-3,7-6.8,9.2-11.2c1.1-2.2,2-4.5,2.7-6.9
		c0.8-3,0.6-6,0.6-9.1C100.7,85.7,100.7,84.2,100.7,82.7z"/>
	<rect x="121.3" y="72.7" class="st3" width="9.8" height="29.3"/>
	<rect x="111.6" y="82.5" class="st3" width="29.3" height="9.8"/>
</g>
</svg>
