<?xml version="1.0" encoding="utf-8"?>
<!-- Generator: Adobe Illustrator 22.0.1, SVG Export Plug-In . SVG Version: 6.00 Build 0)  -->
<svg version="1.1" id="Layer_1" xmlns="http://www.w3.org/2000/svg" xmlns:xlink="http://www.w3.org/1999/xlink" x="0px" y="0px"
	 viewBox="0 0 175.9 175.9" style="enable-background:new 0 0 175.9 175.9;" xml:space="preserve">
<style type="text/css">
	.st0{fill:#8b6508;}
	.st1{fill:#FFFFFF;}
	.st2{clip-path:url(#SVGID_2_);fill:#8b6508;}
	.st3{clip-path:url(#SVGID_2_);fill:#FFFFFF;}
</style>
<path class="st0" d="M175.9,139.8c0,20-16.2,36.1-36.1,36.1H36.1c-20,0-36.1-16.2-36.1-36.1V36.1C0,16.2,16.2,0,36.1,0h103.7
	c20,0,36.1,16.2,36.1,36.1V139.8z"/>
<path class="st1" d="M135.3,48.4h16.2V22.8h-20.2l0,0h-4.2c0,0-15.3-0.4-25,12.3c0,0-6.6,6.3-6.7,24.6h0v19.1h-24v27.1h24v70h27.7
	v-70H147l3.3-27.1h-27.2V59.7h0C123.2,57.6,124.1,48.2,135.3,48.4z"/>
</svg>
