<?xml version="1.0" encoding="utf-8"?>
<!-- Generator: Adobe Illustrator 16.0.0, SVG Export Plug-In . SVG Version: 6.00 Build 0)  -->
<!DOCTYPE svg PUBLIC "-//W3C//DTD SVG 1.1//EN" "http://www.w3.org/Graphics/SVG/1.1/DTD/svg11.dtd">
<svg version="1.1" id="Capa_2" xmlns="http://www.w3.org/2000/svg" xmlns:xlink="http://www.w3.org/1999/xlink" x="0px" y="0px"
	 width="44px" height="32px" viewBox="0 0 44 32" enable-background="new 0 0 44 32" xml:space="preserve">
<g>
	<g>
		<path fill="#FFFFFF" d="M17.408,29.387l2.221-15.575l-6.521,15.575H8.354l0.694-15.645L3.256,29.387H0.479L9.291,5.555
			C5.857,6.7,3.775,9.406,3.775,13.361c0,1.839,0.451,2.082,0.484,2.393c-2.253,0-3.71-0.867-3.71-3.156
			c0-4.44,5.759-9.228,11.031-9.228c0.902,0,1.804,0.173,2.637,0.486L13.42,22.137l7.631-18.281h4.996l-3.643,25.531H17.408z"/>
		<path fill="#FFFFFF" d="M32.812,11.765l-2.498,12.072c-0.104,0.451-0.14,0.799-0.14,1.11c0,0.972,0.451,1.284,1.423,1.284
			c0.624,0,0.901-0.104,1.11-0.209c-0.174,2.463-1.942,3.573-3.816,3.573c-2.082,0-3.713-1.248-3.713-4.162
			c0-0.66,0.105-1.423,0.279-2.256l2.357-11.413H32.812z"/>
		<path fill="#FFFFFF" d="M36.662,29.387c-1.527,0-2.776-1.248-2.776-2.774s1.249-2.74,2.776-2.74c1.525,0,2.739,1.214,2.739,2.74
			S38.188,29.387,36.662,29.387z M36.107,21.375l2.462-16.271h4.995l-4.509,16.271H36.107z"/>
	</g>
	<path fill="#FFFFFF" d="M35.537,6.186c0-1.783-1.943-3.229-4.341-3.229s-4.341,1.446-4.341,3.229c0,1.7,1.766,3.093,4.01,3.219
		c0.545,1.077,1.472,1.05,1.609,1.055c0.234,0.009,0.209-0.174,0.121-0.248c-0.289-0.236-0.307-0.587-0.23-0.917
		C34.195,8.916,35.537,7.668,35.537,6.186z"/>
</g>
</svg>
