<?xml version="1.0" encoding="utf-8"?>
<!-- Generator: Adobe Illustrator 22.0.1, SVG Export Plug-In . SVG Version: 6.00 Build 0)  -->
<svg version="1.1" id="Layer_1" xmlns="http://www.w3.org/2000/svg" xmlns:xlink="http://www.w3.org/1999/xlink" x="0px" y="0px"
	 viewBox="0 0 148 66.3" style="enable-background:new 0 0 148 66.3;" xml:space="preserve">
<style type="text/css">
	.st0{fill:#F9E3DF;}
	.st1{fill:url(#SVGID_1_);}
	.st2{fill:url(#SVGID_2_);}
	.st3{fill:url(#SVGID_3_);}
	.st4{fill:url(#SVGID_4_);}
	.st5{opacity:0.56;fill:url(#SVGID_5_);}
	.st6{filter:url(#Adobe_OpacityMaskFilter);}
	.st7{opacity:0.65;mask:url(#SVGID_6_);}
	.st8{fill:#AFAEAE;}
	.st9{fill:url(#SVGID_7_);}
	.st10{opacity:0.33;fill:url(#SVGID_8_);}
	.st11{fill:#424242;}
	.st12{fill:#C10230;stroke:#C10230;stroke-width:2.43;stroke-miterlimit:10;}
	.st13{fill:#FFFFFF;}
	.st14{fill:#757575;}
	.st15{fill:#C10230;}
	.st16{fill:#666666;}
	.st17{fill:#888D8F;}
	.st18{fill:#F89C27;}
	.st19{fill:url(#SVGID_9_);}
	.st20{fill:url(#SVGID_10_);}
	.st21{fill:url(#SVGID_11_);}
	.st22{fill:url(#SVGID_12_);}
	.st23{fill:url(#SVGID_13_);}
	.st24{fill:url(#SVGID_14_);}
	.st25{fill:url(#SVGID_15_);}
	.st26{fill:url(#SVGID_16_);}
	.st27{fill:url(#SVGID_17_);}
	.st28{fill:url(#SVGID_18_);}
	.st29{fill:url(#SVGID_19_);}
	.st30{fill-rule:evenodd;clip-rule:evenodd;fill:#002F5D;}
	.st31{fill:#EC1C24;}
	.st32{fill-rule:evenodd;clip-rule:evenodd;fill:#ED1B23;}
	.st33{fill:#ED1B23;}
	.st34{fill:#18A94F;}
	.st35{fill:url(#SVGID_20_);}
	.st36{fill:#F8E837;}
	.st37{fill:#74B700;}
	.st38{fill:#0041AE;}
	.st39{fill:none;}
	.st40{fill:#FCB813;}
	.st41{fill:#F5A800;}
	.st42{fill:#0071CE;}
	.st43{fill:#231F20;}
	.st44{clip-path:url(#SVGID_22_);}
	.st45{fill:#2483C5;}
	.st46{fill:#00A551;}
	.st47{fill:#F6921E;}
	.st48{fill:#373535;}
</style>
<g>
	<g>
		<path class="st41" d="M82.4,26.2c0-0.4,0.1-0.7,0.1-1.1c0-4.5-3.7-8.2-8.2-8.2c-4.5,0-8.2,3.7-8.2,8.2c0,0.4,0,0.7,0.1,1.1H82.4z"
			/>
		<path class="st42" d="M113.4,29.8c-6.8-2.8-21.8-4.7-39.2-4.7c-17.4,0-32.3,1.9-39.2,4.7v0.7c6.5-1.9,21.6-3.2,39.2-3.2
			c17.6,0,32.6,1.3,39.2,3.2V29.8z"/>
		<path class="st42" d="M27.3,38.8c-1.2,2-2.8,3-5,3c-1.6,0-2.8-0.5-3.8-1.5c-1.1-1.1-1.6-2.6-1.6-4.4c0-1.7,0.5-3,1.6-4.2
			c0.9-1,2.2-1.5,3.9-1.5c1,0,2.1,0.2,3,0.7l0.1,0l0.1-0.1l0.3-0.4h0.2l0.6,3.5h-0.4c-0.8-1.4-2.1-2.2-3.6-2.2
			c-1.8,0-3.7,1.2-3.7,3.9c0,2.6,1.5,4.4,3.8,4.4c1.4,0,2.6-0.7,3.5-2L27.3,38.8z"/>
		<path class="st42" d="M33,37.9l-1.2-2.6l-1.1,2.6L30,39.4l-0.5,1c-0.1,0.1-0.1,0.3-0.1,0.5c0,0.2,0.1,0.4,0.4,0.4v0.3h-2.7l0-0.3
			c0.3-0.1,0.5-0.3,1-1.3l3.5-7.9h0.9l3.7,8.3c0.2,0.4,0.4,0.7,0.8,0.9v0.3h-3.1v-0.3c0.3,0,0.4-0.2,0.4-0.4c0-0.1-0.1-0.3-0.1-0.4
			l-0.5-1.1L33,37.9z"/>
		<path class="st42" d="M37.6,32.4h3v0.3c-0.3,0.1-0.5,0.3-0.5,0.9v6.4h3.1c0.7,0,1.1-0.4,1.2-0.8l0.4,0l-0.8,2.3h-6.5v-0.4
			c0.4-0.1,0.6-0.4,0.6-0.9v-6.9c0-0.4-0.2-0.6-0.5-0.8V32.4z"/>
		<path class="st42" d="M45.9,32.4h3v0.4c-0.3,0.1-0.5,0.3-0.5,0.6v6.9c0,0.4,0.1,0.8,0.5,0.9v0.4h-3v-0.4c0.4-0.1,0.5-0.4,0.5-0.7
			v-6.9c0-0.6-0.2-0.8-0.5-0.9V32.4z"/>
		<path class="st42" d="M51.1,32.4h2.5l5.1,5.7v-4.5c0-0.4-0.2-0.8-0.6-0.8v-0.4h2.7v0.4c-0.5,0.2-0.6,0.5-0.6,0.7v8.3h-0.9
			l-6.2-6.9v5.7c0,0.4,0.2,0.7,0.6,0.8v0.4h-2.7v-0.4c0.3,0,0.6-0.3,0.6-0.6v-7.1c0-0.5-0.2-0.7-0.6-0.8V32.4z"/>
		<path class="st42" d="M62.3,32.4h4c2.8,0,4.6,1.7,4.6,4.6c0,2.8-1.7,4.6-4.7,4.6h-3.9v-0.4c0.4-0.1,0.5-0.4,0.5-0.8v-7
			c0-0.4-0.2-0.7-0.5-0.8V32.4z M64.8,34v6.1h1c2,0,3.1-1,3.1-3.1c0-1.9-1.1-3.1-2.9-3.1H64.8z"/>
		<path class="st42" d="M77,37.9l-1.2-2.6l-1.1,2.6L74,39.4l-0.5,1c-0.1,0.1-0.1,0.3-0.1,0.5c0,0.2,0.1,0.4,0.4,0.4v0.3h-2.7l0-0.3
			c0.3-0.1,0.5-0.3,1-1.3l3.5-7.9h0.9l3.7,8.3c0.2,0.4,0.4,0.7,0.8,0.9v0.3h-3.1v-0.3c0.3,0,0.4-0.2,0.4-0.4c0-0.1,0-0.3-0.1-0.4
			l-0.5-1.1L77,37.9z"/>
		<path class="st41" d="M92,38.3c0,1.9-1.4,3.1-3.5,3.1h-5v-0.2c0.6-0.2,0.7-0.7,0.7-1.2v-8.4c0-0.5-0.2-0.7-0.6-0.9v-0.2H87l0.3,0
			c0.9,0,2.5,0,3.3,0.8c0.4,0.4,0.6,0.9,0.6,1.6c0,1.1-0.5,1.8-1.7,2.2l-0.5,0.2l0.5,0.1C91.1,35.8,92,36.8,92,38.3z M87,34.8h0.5
			c1.1,0,1.8-0.5,1.8-1.4c0-0.6-0.3-1.3-1.7-1.3h-1.3h-0.1v0.1v7.5v0.1h0.1h1.2c1.1,0,2.4-0.2,2.4-1.8c0-0.8-0.4-1.8-2.4-1.8H87l0,0
			V34.8"/>
		<path class="st41" d="M93.3,32.4h6.4l0.8,2.2h-0.5c-0.3-0.5-0.7-0.7-1.4-0.7h-2.9v2H99c0.5,0,0.8-0.2,0.9-0.5h0.3V38h-0.3
			c-0.1-0.4-0.3-0.5-0.7-0.5h-3.3v2.6H99c0.6,0,1-0.3,1.3-0.7h0.4l-0.8,2.2h-6.6v-0.4c0.3-0.1,0.5-0.3,0.5-0.8v-6.8
			c0-0.4-0.1-0.7-0.5-0.9V32.4z"/>
		<path class="st41" d="M107.1,37.9l-1.2-2.6l-1.1,2.6l-0.7,1.5l-0.5,1c-0.1,0.1-0.1,0.3-0.1,0.5c0,0.2,0.1,0.4,0.4,0.4v0.3h-2.7
			l0-0.3c0.3-0.1,0.5-0.3,1-1.3l3.5-7.9h0.9l3.7,8.3c0.2,0.4,0.4,0.7,0.8,0.9v0.3H108v-0.3c0.3,0,0.4-0.2,0.4-0.4
			c0-0.1,0-0.3-0.1-0.4l-0.5-1.1L107.1,37.9z"/>
		<path class="st41" d="M120.3,39.3c-1,1.8-2.4,2.6-4.3,2.6c-1.5,0-2.5-0.5-3.2-1.2c-1-1-1.4-2.3-1.4-3.7c0-1.4,0.5-2.6,1.4-3.5
			c0.6-0.6,1.6-1.3,3.3-1.3c0.9,0,1.7,0.2,2.5,0.6l0.3-0.4h0.3l0.5,3.1h-0.5c-0.7-1.3-1.9-1.8-3-1.8c-1.5,0-2.9,1-2.9,3.1
			c0,2,1.2,3.5,3,3.5c1.3,0,2.2-0.7,2.9-1.7L120.3,39.3z"/>
		<path class="st41" d="M121.1,32.4h3v0.4c-0.3,0.1-0.5,0.4-0.5,0.6v2.4h5.1v-2.3c0-0.4-0.2-0.7-0.5-0.8v-0.4h3v0.4
			c-0.3,0.1-0.5,0.4-0.5,0.7v7.1c0,0.3,0.1,0.7,0.5,0.8v0.4h-3v-0.3c0.3-0.1,0.5-0.4,0.5-0.7v-3.2h-5.1v3c0,0.6,0.1,0.8,0.5,1v0.3
			h-3v-0.3c0.3,0,0.5-0.2,0.5-0.6v-7.2c0-0.3-0.2-0.6-0.5-0.7V32.4z"/>
	</g>
	<g>
		<g>
			<path class="st42" d="M40,47.6h1.7l3,6.2h-1.7l-0.5-1.2h-3.2l-0.5,1.2H37L40,47.6z M41,49.5c0-0.1-0.1-0.2-0.1-0.2
				c0-0.1,0-0.2-0.1-0.2c0,0.1,0,0.1-0.1,0.2c0,0.1-0.1,0.2-0.1,0.2l-0.9,2.1h2.2L41,49.5z"/>
			<path class="st42" d="M54.3,51.7c-0.1,0.4-0.3,0.8-0.8,1.3c-0.5,0.5-1.3,1-2.9,1c-2.2,0-3.7-1.2-3.7-3.3c0-2.3,1.9-3.3,3.8-3.3
				c0.7,0,2.8,0.2,3.6,1.9l-1.7,0.2c-0.2-0.3-0.7-1-1.9-1c-1.4,0-2.2,1-2.2,2.2c0,1.4,1.1,2.2,2.2,2.2c1.3,0,1.8-0.8,2-1.2
				L54.3,51.7z"/>
			<path class="st42" d="M58.9,47.6h1.7l3,6.2h-1.7l-0.5-1.2h-3.2l-0.5,1.2h-1.7L58.9,47.6z M59.9,49.5c0-0.1-0.1-0.2-0.1-0.2
				c0-0.1,0-0.2-0.1-0.2c0,0.1,0,0.1-0.1,0.2c0,0.1-0.1,0.2-0.1,0.2l-0.9,2.1h2.2L59.9,49.5z"/>
			<path class="st42" d="M66.1,47.6h3.8c0.7,0,1.5,0,2,0.7c0.2,0.3,0.3,0.7,0.3,1.2c0,0.6-0.2,1-0.4,1.3c-0.5,0.6-1.3,0.7-2.1,0.7
				h-2.2v2.3h-1.5V47.6z M67.6,50.4h1.9c0.5,0,1.2,0,1.2-0.8c0-0.3-0.1-0.5-0.3-0.7c-0.2-0.2-0.4-0.2-1.1-0.2h-1.8V50.4z"/>
			<path class="st42" d="M75,47.6h1.5v3.7c0,0.6,0.1,1,0.7,1.3c0.5,0.2,1,0.2,1.4,0.2c0.6-0.1,1-0.2,1.2-0.5c0.1-0.2,0.3-0.4,0.3-1
				v-3.7h1.5v3.6c0,0.7,0,1.3-0.5,1.9c-0.6,0.7-1.8,1-2.8,1c-0.4,0-0.9,0-1.3-0.1c-0.3-0.1-0.7-0.2-1.1-0.4c-1-0.7-1-1.5-1-2.2V47.6
				z"/>
			<path class="st42" d="M85.2,47.6h1.6v5.1h3.5v1.1h-5V47.6z"/>
			<path class="st42" d="M99.6,51.7c-0.1,0.4-0.3,0.8-0.8,1.3c-0.5,0.5-1.3,1-2.9,1c-2.2,0-3.7-1.2-3.7-3.3c0-2.3,1.9-3.3,3.8-3.3
				c0.7,0,2.8,0.2,3.6,1.9l-1.7,0.2c-0.2-0.3-0.7-1-1.9-1c-1.4,0-2.2,1-2.2,2.2c0,1.4,1.1,2.2,2.2,2.2c1.3,0,1.8-0.8,2-1.2
				L99.6,51.7z"/>
			<path class="st42" d="M109,48.6c0.3,0.3,0.7,1,0.7,2c0,2-1.3,3.4-3.8,3.4c-2.5,0-3.8-1.4-3.8-3.3c0-2.1,1.5-3.2,3.6-3.3
				C106.8,47.4,108.2,47.7,109,48.6z M103.6,50.8c0,0.8,0.3,1.2,0.4,1.3c0.1,0.2,0.6,0.9,1.8,0.9c1.5,0,2.2-1,2.2-2.2
				c0-1.4-1-2.2-2.3-2.2C104.7,48.6,103.6,49.3,103.6,50.8z"/>
		</g>
	</g>
</g>
</svg>
