<?xml version="1.0" encoding="utf-8"?>
<!-- Generator: Adobe Illustrator 22.0.1, SVG Export Plug-In . SVG Version: 6.00 Build 0)  -->
<svg version="1.1" id="Layer_1" xmlns="http://www.w3.org/2000/svg" xmlns:xlink="http://www.w3.org/1999/xlink" x="0px" y="0px"
	 viewBox="0 0 148 66.3" style="enable-background:new 0 0 148 66.3;" xml:space="preserve">
<style type="text/css">
	.st0{fill:#F9E3DF;}
	.st1{fill:url(#SVGID_1_);}
	.st2{fill:url(#SVGID_2_);}
	.st3{fill:url(#SVGID_3_);}
	.st4{fill:url(#SVGID_4_);}
	.st5{opacity:0.56;fill:url(#SVGID_5_);}
	.st6{filter:url(#Adobe_OpacityMaskFilter);}
	.st7{opacity:0.65;mask:url(#SVGID_6_);}
	.st8{fill:#AFAEAE;}
	.st9{fill:url(#SVGID_7_);}
	.st10{opacity:0.33;fill:url(#SVGID_8_);}
	.st11{fill:#424242;}
	.st12{fill:#C10230;stroke:#C10230;stroke-width:2.43;stroke-miterlimit:10;}
	.st13{fill:#FFFFFF;}
	.st14{fill:#757575;}
	.st15{fill:#C10230;}
	.st16{fill:#666666;}
	.st17{fill:#888D8F;}
	.st18{fill:#F89C27;}
	.st19{fill:url(#SVGID_9_);}
	.st20{fill:url(#SVGID_10_);}
	.st21{fill:url(#SVGID_11_);}
	.st22{fill:url(#SVGID_12_);}
	.st23{fill:url(#SVGID_13_);}
	.st24{fill:url(#SVGID_14_);}
	.st25{fill:url(#SVGID_15_);}
	.st26{fill:url(#SVGID_16_);}
	.st27{fill:url(#SVGID_17_);}
	.st28{fill:url(#SVGID_18_);}
	.st29{fill:url(#SVGID_19_);}
	.st30{fill-rule:evenodd;clip-rule:evenodd;fill:#002F5D;}
	.st31{fill:#EC1C24;}
	.st32{fill-rule:evenodd;clip-rule:evenodd;fill:#ED1B23;}
	.st33{fill:#ED1B23;}
	.st34{fill:#18A94F;}
	.st35{fill:url(#SVGID_20_);}
	.st36{fill:#F8E837;}
	.st37{fill:#74B700;}
	.st38{fill:#0041AE;}
	.st39{fill:none;}
	.st40{fill:#FCB813;}
	.st41{fill:#F5A800;}
	.st42{fill:#0071CE;}
	.st43{fill:#231F20;}
	.st44{clip-path:url(#SVGID_22_);}
	.st45{fill:#2483C5;}
	.st46{fill:#00A551;}
	.st47{fill:#F6921E;}
	.st48{fill:#373535;}
</style>
<g>
	<g>
		<g>
			<linearGradient id="SVGID_1_" gradientUnits="userSpaceOnUse" x1="41.0285" y1="16.2971" x2="72.9027" y2="16.2971">
				<stop  offset="1.582532e-03" style="stop-color:#D09F16"/>
				<stop  offset="0.508" style="stop-color:#EFD98D"/>
				<stop  offset="1" style="stop-color:#C99616"/>
			</linearGradient>
			<path class="st1" d="M47.7,22.5c0.1,0,0.1,0,0.2,0c3.8,0,7.5,0,11.3,0c2.3,0,4.6,0,6.9,0c0.2,0,0.1,0,0.2-0.1c0-0.2,0-0.4,0-0.6
				c0-0.1,0-0.2,0-0.4c0-0.2,0.1-0.5,0.1-0.7c0-0.1,0-0.3,0.1-0.4c0-0.1,0-0.2,0.1-0.3c0-0.2,0.1-0.4,0.1-0.6c0-0.2,0.1-0.3,0.1-0.5
				c0-0.2,0.1-0.3,0.1-0.5c0-0.1,0.1-0.3,0.1-0.4c0.1-0.2,0.1-0.4,0.2-0.6c0.1-0.2,0.1-0.5,0.2-0.7c0.1-0.2,0.1-0.4,0.2-0.6
				c0.1-0.3,0.2-0.7,0.4-1c0.1-0.3,0.3-0.6,0.4-0.9c0.3-0.6,0.6-1.1,1.1-1.7c0.3-0.3,0.6-0.6,0.9-0.9c0,0,0,0,0-0.1
				c-0.3,0-0.5,0.1-0.8,0.1c-0.5,0-1.1,0-1.6,0c-0.3,0-0.5,0-0.8-0.1c-0.1,0-0.3,0-0.4,0c-0.2,0-0.5-0.1-0.7-0.1
				c-0.2,0-0.5-0.1-0.7-0.1c-0.1,0-0.2,0-0.3-0.1c-0.2,0-0.4-0.1-0.5-0.1c-0.1,0-0.3-0.1-0.4-0.1c-0.1,0-0.3-0.1-0.4-0.1
				c-0.1,0-0.2-0.1-0.4-0.1c-0.2-0.1-0.3-0.1-0.5-0.2c-0.2-0.1-0.4-0.2-0.6-0.2c-0.2-0.1-0.5-0.2-0.7-0.3C61.4,10.1,61.2,10,61,10
				c-0.3-0.2-0.7-0.4-1-0.6c-0.3-0.2-0.5-0.3-0.8-0.5c-0.2-0.2-0.5-0.3-0.7-0.5c-0.3-0.3-0.7-0.6-1-0.9C57.3,7.2,57.2,7,57,6.8
				c-0.1-0.1-0.1-0.1-0.2,0c-0.3,0.3-0.6,0.7-1,1c-0.3,0.3-0.7,0.6-1,0.8C54.4,9,54,9.2,53.6,9.5c-0.5,0.3-1,0.5-1.5,0.8
				c-0.2,0.1-0.4,0.2-0.6,0.2c-0.2,0.1-0.5,0.2-0.7,0.2c-0.3,0.1-0.5,0.2-0.8,0.3c-0.2,0.1-0.4,0.1-0.6,0.1
				c-0.2,0.1-0.4,0.1-0.7,0.2c-0.2,0.1-0.5,0.1-0.7,0.1c-0.3,0.1-0.6,0.1-0.9,0.1c-0.3,0-0.6,0.1-0.9,0.1c-0.4,0-0.8,0-1.1,0
				c-0.4,0-0.8,0-1.2,0c-0.2,0-0.4,0-0.6,0c0.1,0.1,0.1,0.1,0.2,0.2c0.3,0.3,0.6,0.6,0.9,1c0.3,0.4,0.6,0.8,0.8,1.2
				c0.2,0.3,0.3,0.7,0.5,1c0.1,0.2,0.2,0.4,0.2,0.6c0.1,0.2,0.1,0.4,0.2,0.5c0.1,0.2,0.2,0.4,0.2,0.6c0.1,0.2,0.1,0.3,0.2,0.5
				c0,0.1,0.1,0.2,0.1,0.4c0.1,0.2,0.1,0.4,0.2,0.6c0.1,0.2,0.1,0.4,0.2,0.7c0,0.1,0,0.2,0.1,0.3c0,0.2,0.1,0.3,0.1,0.5
				c0,0.1,0,0.2,0.1,0.3c0,0.2,0.1,0.4,0.1,0.6c0,0.2,0.1,0.5,0.1,0.7c0,0.1,0,0.2,0,0.3c0,0.2,0.1,0.3,0.1,0.5
				C47.7,22.2,47.7,22.3,47.7,22.5z M66.2,25.9c0-0.1,0-0.1,0-0.1c0-0.4,0-0.8,0-1.2c0-0.3,0-0.6,0-0.9c0-0.1,0-0.1-0.1-0.1
				c0,0-0.1,0-0.1,0c-3.3,0-6.5,0-9.8,0c-2.8,0-5.5,0-8.3,0c-0.1,0-0.1,0-0.2,0c0,0.8,0,1.6,0,2.4C53.9,25.9,60,25.9,66.2,25.9z
				 M56.9,26.8c0,0-0.1,0.1-0.1,0.1c-0.1,0.2-0.2,0.4-0.3,0.6c0,0.1-0.1,0.2-0.1,0.2c-0.1,0-0.2,0-0.3,0.1c-0.2,0-0.3,0-0.5,0.1
				c-0.1,0-0.2,0-0.3,0.1c0.2,0.2,0.5,0.5,0.7,0.7c0,0,0.1,0.1,0.1,0.1c0,0.1,0,0.2,0,0.3c0,0.2-0.1,0.4-0.1,0.6c0,0,0,0.1,0.1,0.1
				c0.3-0.1,0.5-0.3,0.8-0.4c0,0,0.1,0,0.2,0c0.2,0.1,0.4,0.2,0.6,0.3c0.1,0,0.2,0.1,0.3,0.1c-0.1-0.4-0.1-0.7-0.2-1.1
				c0.2-0.3,0.5-0.5,0.8-0.8c-0.1,0-0.1,0-0.2,0c-0.2,0-0.3,0-0.5-0.1c-0.1,0-0.2,0-0.3,0c0,0-0.1,0-0.1,0
				C57.2,27.4,57.1,27.1,56.9,26.8z M50.2,29.7C50.2,29.7,50.2,29.7,50.2,29.7c0-0.1,0-0.2,0-0.2c0-0.2-0.1-0.5-0.1-0.7
				c0,0,0-0.1,0-0.1c0.2-0.2,0.4-0.4,0.6-0.6c0,0,0.1-0.1,0.1-0.1c-0.1,0-0.2,0-0.3-0.1c-0.2,0-0.5-0.1-0.7-0.1
				c-0.1,0-0.1,0-0.2-0.1c-0.1-0.2-0.2-0.4-0.3-0.6c0-0.1-0.1-0.2-0.1-0.3c-0.2,0.3-0.3,0.6-0.4,0.9c0,0,0,0-0.1,0
				c-0.1,0-0.2,0-0.3,0c-0.2,0-0.3,0-0.5,0.1c-0.1,0-0.2,0-0.3,0.1c0.2,0.2,0.3,0.3,0.5,0.5c0.1,0.1,0.3,0.2,0.2,0.5
				c0,0.1-0.1,0.3-0.1,0.4c0,0.2,0,0.3-0.1,0.5c0,0,0,0,0.1,0c0.3-0.1,0.5-0.3,0.8-0.4c0,0,0.1,0,0.1,0c0.2,0.1,0.4,0.2,0.6,0.3
				C49.9,29.6,50.1,29.7,50.2,29.7z M60.8,26.8c0,0.1-0.1,0.1-0.1,0.2c-0.1,0.3-0.2,0.5-0.4,0.8c0,0,0,0.1-0.1,0.1
				c-0.1,0-0.2,0-0.3,0.1c-0.1,0-0.3,0-0.4,0.1c-0.1,0-0.2,0-0.3,0.1c0,0,0,0.1,0.1,0.1c0.2,0.2,0.4,0.4,0.6,0.6
				c0,0,0.1,0.1,0.1,0.1c0,0.2-0.1,0.4-0.1,0.5c0,0.2-0.1,0.3-0.1,0.5c0,0,0.1,0,0.1,0c0.3-0.1,0.5-0.3,0.8-0.4c0,0,0.1,0,0.2,0
				c0.2,0.1,0.5,0.3,0.7,0.4c0.1,0,0.1,0,0.2,0.1c-0.1-0.3-0.1-0.7-0.2-1c0,0,0-0.1,0.1-0.1c0.2-0.2,0.3-0.3,0.5-0.5
				c0.1-0.1,0.1-0.1,0.2-0.2c-0.1,0-0.2,0-0.3-0.1c-0.2,0-0.3,0-0.5-0.1c-0.1,0-0.1,0-0.2,0c0,0,0,0-0.1-0.1
				c-0.1-0.2-0.2-0.4-0.3-0.6C60.9,27.1,60.8,26.9,60.8,26.8z M66.2,27.9c-0.1,0-0.1,0-0.2,0c-0.2,0-0.4-0.1-0.6-0.1
				c-0.1,0-0.2,0-0.3,0c0,0-0.1,0-0.1-0.1c-0.1-0.1-0.1-0.3-0.2-0.4c-0.1-0.2-0.2-0.3-0.2-0.5c-0.2,0.3-0.3,0.6-0.4,0.9
				c0,0,0,0.1-0.1,0.1c-0.2,0-0.4,0.1-0.6,0.1c-0.1,0-0.3,0-0.4,0.1c0,0,0,0.1,0,0.1c0.2,0.2,0.4,0.4,0.6,0.6
				c0.1,0.1,0.1,0.1,0.1,0.2c0,0.1,0,0.2-0.1,0.4c0,0.2-0.1,0.4-0.1,0.6c0,0,0.1,0,0.1,0c0.3-0.1,0.5-0.3,0.8-0.4c0,0,0.1,0,0.1,0
				c0.3,0.1,0.5,0.3,0.8,0.4c0,0,0,0,0.1,0c0-0.1,0-0.2-0.1-0.4c0-0.2-0.1-0.3-0.1-0.5c0-0.1,0-0.2,0.1-0.3c0.2-0.2,0.4-0.3,0.6-0.5
				C66.1,28,66.1,28,66.2,27.9z M54,29.7C54,29.7,54,29.7,54,29.7C54,29.7,54,29.7,54,29.7c0-0.2,0-0.4-0.1-0.5
				c0-0.1-0.1-0.3-0.1-0.4c0-0.1,0-0.2,0.1-0.3c0.2-0.2,0.4-0.4,0.6-0.6c0,0,0,0,0-0.1c-0.3,0-0.5-0.1-0.8-0.1
				c-0.2,0-0.3-0.1-0.4-0.3c-0.1-0.3-0.2-0.5-0.4-0.7c0,0-0.1,0.1-0.1,0.1c-0.1,0.3-0.3,0.5-0.4,0.8c0,0-0.1,0.1-0.1,0.1
				c-0.2,0-0.4,0.1-0.6,0.1c-0.1,0-0.3,0-0.4,0.1c0,0,0,0.1,0.1,0.1c0.1,0.1,0.1,0.1,0.2,0.2c0.1,0.1,0.3,0.2,0.4,0.4
				c0.1,0.1,0.2,0.2,0.1,0.3c-0.1,0.3-0.1,0.5-0.1,0.8c0,0,0,0,0,0.1c0.1-0.1,0.2-0.1,0.3-0.2c0.2-0.1,0.4-0.2,0.6-0.3
				c0,0,0.1,0,0.1,0c0.2,0.1,0.5,0.3,0.7,0.4C53.9,29.7,54,29.7,54,29.7z M41.7,9.8c0.4,0,0.7-0.3,0.7-0.7c0-0.4-0.3-0.7-0.7-0.7
				c-0.4,0-0.7,0.3-0.7,0.7C41,9.5,41.3,9.8,41.7,9.8z M57.6,3.5c0-0.4-0.3-0.7-0.7-0.7c-0.4,0-0.7,0.3-0.7,0.7
				c0,0.4,0.3,0.7,0.7,0.7C57.2,4.2,57.6,4,57.6,3.5z M72.2,9.8c0.4,0,0.7-0.3,0.7-0.7c0-0.4-0.3-0.7-0.7-0.7
				c-0.4,0-0.7,0.3-0.7,0.7C71.5,9.5,71.9,9.8,72.2,9.8z"/>
			<linearGradient id="SVGID_2_" gradientUnits="userSpaceOnUse" x1="43.3997" y1="14.6052" x2="70.3679" y2="14.6052">
				<stop  offset="1.582532e-03" style="stop-color:#D09F16"/>
				<stop  offset="0.508" style="stop-color:#EFD98D"/>
				<stop  offset="1" style="stop-color:#C99616"/>
			</linearGradient>
			<path class="st2" d="M47.7,22.5c0-0.1,0-0.2,0-0.4c0-0.2-0.1-0.3-0.1-0.5c0-0.1,0-0.2,0-0.3c0-0.2-0.1-0.5-0.1-0.7
				c0-0.2-0.1-0.4-0.1-0.6c0-0.1,0-0.2-0.1-0.3c0-0.2-0.1-0.3-0.1-0.5c0-0.1,0-0.2-0.1-0.3c-0.1-0.2-0.1-0.4-0.2-0.7
				c-0.1-0.2-0.1-0.4-0.2-0.6c0-0.1-0.1-0.2-0.1-0.4c-0.1-0.2-0.1-0.3-0.2-0.5c-0.1-0.2-0.1-0.4-0.2-0.6c-0.1-0.2-0.1-0.4-0.2-0.5
				c-0.1-0.2-0.2-0.4-0.2-0.6c-0.2-0.3-0.3-0.7-0.5-1c-0.2-0.4-0.5-0.8-0.8-1.2c-0.3-0.4-0.6-0.7-0.9-1c-0.1-0.1-0.1-0.1-0.2-0.2
				c0.2,0,0.4,0,0.6,0c0.4,0,0.8,0,1.2,0c0.4,0,0.8,0,1.1,0c0.3,0,0.6,0,0.9-0.1c0.3,0,0.6-0.1,0.9-0.1c0.2,0,0.5-0.1,0.7-0.1
				c0.2-0.1,0.4-0.1,0.7-0.2c0.2,0,0.4-0.1,0.6-0.1c0.3-0.1,0.5-0.2,0.8-0.3c0.2-0.1,0.5-0.2,0.7-0.2c0.2-0.1,0.4-0.2,0.6-0.2
				c0.5-0.2,1-0.5,1.5-0.8C54,9.2,54.4,9,54.8,8.7c0.4-0.3,0.7-0.5,1-0.8c0.3-0.3,0.7-0.7,1-1c0.1-0.1,0.1-0.1,0.2,0
				c0.2,0.2,0.4,0.4,0.6,0.6c0.3,0.3,0.7,0.6,1,0.9c0.2,0.2,0.4,0.4,0.7,0.5c0.3,0.2,0.5,0.3,0.8,0.5c0.3,0.2,0.7,0.4,1,0.6
				c0.2,0.1,0.3,0.2,0.5,0.3c0.2,0.1,0.5,0.2,0.7,0.3c0.2,0.1,0.4,0.2,0.6,0.2c0.2,0.1,0.3,0.1,0.5,0.2c0.1,0,0.2,0.1,0.4,0.1
				c0.1,0,0.3,0.1,0.4,0.1c0.1,0,0.3,0.1,0.4,0.1c0.2,0,0.4,0.1,0.5,0.1c0.1,0,0.2,0,0.3,0.1c0.2,0,0.5,0.1,0.7,0.1
				c0.2,0,0.5,0.1,0.7,0.1c0.1,0,0.3,0,0.4,0c0.3,0,0.5,0,0.8,0.1c0.5,0.1,1.1,0,1.6,0c0.2,0,0.5,0,0.8-0.1c0,0,0,0.1,0,0.1
				c-0.3,0.3-0.6,0.6-0.9,0.9c-0.4,0.5-0.8,1.1-1.1,1.7c-0.1,0.3-0.3,0.6-0.4,0.9c-0.1,0.3-0.3,0.6-0.4,1c-0.1,0.2-0.2,0.4-0.2,0.6
				c-0.1,0.2-0.1,0.5-0.2,0.7C67.1,17.6,67,17.8,67,18c0,0.1-0.1,0.3-0.1,0.4c0,0.2-0.1,0.3-0.1,0.5c0,0.2-0.1,0.3-0.1,0.5
				c0,0.2-0.1,0.4-0.1,0.6c0,0.1,0,0.2-0.1,0.3c0,0.1,0,0.3-0.1,0.4c0,0.2-0.1,0.5-0.1,0.7c0,0.1,0,0.2,0,0.4c0,0.2,0,0.4,0,0.6
				c0,0.1,0,0.1-0.2,0.1c-2.3,0-4.6,0-6.9,0c-3.8,0-7.5,0-11.3,0C47.8,22.5,47.8,22.5,47.7,22.5z"/>
			<linearGradient id="SVGID_3_" gradientUnits="userSpaceOnUse" x1="47.7035" y1="24.6757" x2="66.1877" y2="24.6757">
				<stop  offset="1.582532e-03" style="stop-color:#D09F16"/>
				<stop  offset="0.508" style="stop-color:#EFD98D"/>
				<stop  offset="1" style="stop-color:#C99616"/>
			</linearGradient>
			<path class="st3" d="M66.2,25.9c-6.2,0-12.3,0-18.5,0c0-0.8,0-1.6,0-2.4c0.1,0,0.1,0,0.2,0c2.8,0,5.5,0,8.3,0c3.3,0,6.5,0,9.8,0
				c0,0,0.1,0,0.1,0c0.1,0,0.1,0,0.1,0.1c0,0.3,0,0.6,0,0.9c0,0.4,0,0.8,0,1.2C66.2,25.8,66.2,25.8,66.2,25.9z"/>
			<linearGradient id="SVGID_4_" gradientUnits="userSpaceOnUse" x1="55.4015" y1="28.2948" x2="58.4558" y2="28.2948">
				<stop  offset="1.582532e-03" style="stop-color:#D09F16"/>
				<stop  offset="0.508" style="stop-color:#EFD98D"/>
				<stop  offset="1" style="stop-color:#C99616"/>
			</linearGradient>
			<path class="st4" d="M56.9,26.8c0.2,0.3,0.3,0.6,0.4,0.9c0,0,0,0,0.1,0c0.1,0,0.2,0,0.3,0c0.2,0,0.3,0.1,0.5,0.1
				c0.1,0,0.1,0,0.2,0c-0.3,0.3-0.5,0.5-0.8,0.8c0.1,0.3,0.1,0.7,0.2,1.1c-0.1-0.1-0.2-0.1-0.3-0.1c-0.2-0.1-0.4-0.2-0.6-0.3
				c0,0-0.1,0-0.2,0c-0.3,0.1-0.5,0.3-0.8,0.4c-0.1,0-0.1,0-0.1-0.1c0-0.2,0.1-0.4,0.1-0.6c0-0.1,0-0.2,0-0.3c0,0,0-0.1-0.1-0.1
				c-0.2-0.2-0.5-0.5-0.7-0.7c0.1,0,0.2,0,0.3-0.1c0.2,0,0.3,0,0.5-0.1c0.1,0,0.2,0,0.3-0.1c0.1,0,0.1-0.1,0.1-0.2
				c0.1-0.2,0.2-0.4,0.3-0.6C56.9,26.9,56.9,26.9,56.9,26.8z"/>
			<linearGradient id="SVGID_5_" gradientUnits="userSpaceOnUse" x1="47.7046" y1="28.2855" x2="50.7715" y2="28.2855">
				<stop  offset="1.582532e-03" style="stop-color:#D09F16"/>
				<stop  offset="0.508" style="stop-color:#EFD98D"/>
				<stop  offset="1" style="stop-color:#C99616"/>
			</linearGradient>
			<path style="fill:url(#SVGID_5_);" d="M50.2,29.7c-0.1-0.1-0.2-0.1-0.3-0.2c-0.2-0.1-0.4-0.2-0.6-0.3c0,0-0.1,0-0.1,0
				c-0.3,0.1-0.5,0.3-0.8,0.4c0,0,0,0-0.1,0c0-0.2,0-0.3,0.1-0.5c0-0.1,0-0.3,0.1-0.4c0.1-0.2-0.1-0.3-0.2-0.5
				c-0.2-0.2-0.3-0.3-0.5-0.5c0.1,0,0.2,0,0.3-0.1c0.1,0,0.3,0,0.5-0.1c0.1,0,0.2,0,0.3,0c0,0,0.1,0,0.1,0c0.1-0.3,0.3-0.6,0.4-0.9
				c0.1,0.1,0.1,0.2,0.1,0.3c0.1,0.2,0.2,0.4,0.3,0.6c0,0.1,0.1,0.1,0.2,0.1c0.2,0,0.5,0.1,0.7,0.1c0.1,0,0.2,0,0.3,0.1
				c0,0-0.1,0.1-0.1,0.1c-0.2,0.2-0.4,0.4-0.6,0.6c0,0,0,0.1,0,0.1c0,0.2,0.1,0.5,0.1,0.7C50.2,29.6,50.2,29.7,50.2,29.7
				C50.2,29.7,50.2,29.7,50.2,29.7z"/>
			<linearGradient id="SVGID_6_" gradientUnits="userSpaceOnUse" x1="59.2334" y1="28.2839" x2="62.3164" y2="28.2839">
				<stop  offset="1.582532e-03" style="stop-color:#D09F16"/>
				<stop  offset="0.508" style="stop-color:#EFD98D"/>
				<stop  offset="1" style="stop-color:#C99616"/>
			</linearGradient>
			<path style="fill:url(#SVGID_6_);" d="M60.8,26.8c0.1,0.1,0.1,0.2,0.2,0.4c0.1,0.2,0.2,0.4,0.3,0.6c0,0,0,0,0.1,0.1
				c0.1,0,0.1,0,0.2,0c0.2,0,0.3,0,0.5,0.1c0.1,0,0.2,0,0.3,0.1c-0.1,0.1-0.1,0.1-0.2,0.2c-0.2,0.2-0.4,0.3-0.5,0.5
				c0,0-0.1,0.1-0.1,0.1c0.1,0.3,0.1,0.6,0.2,1c-0.1,0-0.1,0-0.2-0.1c-0.2-0.1-0.5-0.3-0.7-0.4c0,0-0.1,0-0.2,0
				c-0.3,0.1-0.5,0.3-0.8,0.4c0,0,0,0-0.1,0c0-0.2,0.1-0.3,0.1-0.5c0-0.2,0.1-0.4,0.1-0.5c0,0,0-0.1-0.1-0.1
				c-0.2-0.2-0.4-0.4-0.6-0.6c0,0,0-0.1-0.1-0.1c0.1,0,0.2,0,0.3-0.1c0.1,0,0.3,0,0.4-0.1c0.1,0,0.2,0,0.3-0.1c0,0,0.1,0,0.1-0.1
				c0.1-0.3,0.2-0.5,0.4-0.8C60.7,26.9,60.7,26.9,60.8,26.8z"/>
			<linearGradient id="SVGID_7_" gradientUnits="userSpaceOnUse" x1="63.0907" y1="28.2726" x2="66.1738" y2="28.2726">
				<stop  offset="1.582532e-03" style="stop-color:#D09F16"/>
				<stop  offset="0.508" style="stop-color:#EFD98D"/>
				<stop  offset="1" style="stop-color:#C99616"/>
			</linearGradient>
			<path class="st9" d="M66.2,27.9c0,0.1-0.1,0.1-0.1,0.1c-0.2,0.2-0.4,0.4-0.6,0.5c-0.1,0.1-0.1,0.2-0.1,0.3c0,0.2,0.1,0.3,0.1,0.5
				c0,0.1,0,0.2,0.1,0.4c0,0-0.1,0-0.1,0c-0.3-0.1-0.5-0.3-0.8-0.4c0,0-0.1,0-0.1,0c-0.3,0.1-0.5,0.3-0.8,0.4c0,0,0,0-0.1,0
				c0-0.2,0.1-0.4,0.1-0.6c0-0.1,0-0.2,0.1-0.4c0-0.1,0-0.2-0.1-0.2c-0.2-0.2-0.4-0.4-0.6-0.6c0,0,0,0,0-0.1c0.1,0,0.3,0,0.4-0.1
				c0.2,0,0.4-0.1,0.6-0.1c0,0,0.1-0.1,0.1-0.1c0.1-0.3,0.3-0.6,0.4-0.9c0.1,0.2,0.2,0.3,0.2,0.5c0.1,0.1,0.1,0.3,0.2,0.4
				c0,0,0,0.1,0.1,0.1c0.1,0,0.2,0,0.3,0c0.2,0,0.4,0.1,0.6,0.1C66,27.9,66.1,27.9,66.2,27.9z"/>
			<linearGradient id="SVGID_8_" gradientUnits="userSpaceOnUse" x1="51.5355" y1="28.2872" x2="54.6136" y2="28.2872">
				<stop  offset="1.582532e-03" style="stop-color:#D09F16"/>
				<stop  offset="0.508" style="stop-color:#EFD98D"/>
				<stop  offset="1" style="stop-color:#C99616"/>
			</linearGradient>
			<path style="fill:url(#SVGID_8_);" d="M54,29.7c-0.1,0-0.1,0-0.2-0.1c-0.2-0.1-0.5-0.3-0.7-0.4c0,0-0.1,0-0.1,0
				c-0.2,0.1-0.4,0.2-0.6,0.3c-0.1,0.1-0.2,0.1-0.3,0.2c0,0,0-0.1,0-0.1c0-0.3,0.1-0.5,0.1-0.8c0-0.1,0-0.2-0.1-0.3
				c-0.1-0.1-0.3-0.2-0.4-0.4c-0.1-0.1-0.1-0.1-0.2-0.2c0,0,0,0-0.1-0.1c0.2,0,0.3,0,0.4-0.1c0.2,0,0.4-0.1,0.6-0.1
				c0,0,0.1-0.1,0.1-0.1c0.1-0.3,0.3-0.5,0.4-0.8c0,0,0,0,0.1-0.1c0.1,0.3,0.3,0.5,0.4,0.7c0.1,0.2,0.2,0.2,0.4,0.3
				c0.3,0,0.5,0.1,0.8,0.1c0,0,0,0.1,0,0.1c-0.2,0.2-0.4,0.4-0.6,0.6c-0.1,0.1-0.1,0.2-0.1,0.3c0,0.1,0.1,0.3,0.1,0.4
				C54,29.4,54,29.5,54,29.7C54,29.7,54,29.7,54,29.7C54,29.7,54,29.7,54,29.7z"/>
			<linearGradient id="SVGID_9_" gradientUnits="userSpaceOnUse" x1="41.0285" y1="9.1129" x2="42.4092" y2="9.1129">
				<stop  offset="1.582532e-03" style="stop-color:#D09F16"/>
				<stop  offset="0.508" style="stop-color:#EFD98D"/>
				<stop  offset="1" style="stop-color:#C99616"/>
			</linearGradient>
			<path class="st19" d="M41.7,9.8c-0.4,0-0.7-0.3-0.7-0.7c0-0.4,0.3-0.7,0.7-0.7c0.4,0,0.7,0.3,0.7,0.7C42.4,9.5,42.1,9.8,41.7,9.8
				z"/>
			<linearGradient id="SVGID_10_" gradientUnits="userSpaceOnUse" x1="56.2012" y1="3.5082" x2="57.5618" y2="3.5082">
				<stop  offset="1.582532e-03" style="stop-color:#D09F16"/>
				<stop  offset="0.508" style="stop-color:#EFD98D"/>
				<stop  offset="1" style="stop-color:#C99616"/>
			</linearGradient>
			<path class="st20" d="M57.6,3.5c0,0.5-0.3,0.7-0.7,0.7c-0.4,0-0.7-0.3-0.7-0.7c0-0.3,0.3-0.7,0.7-0.7C57.2,2.8,57.6,3.2,57.6,3.5
				z"/>
			<linearGradient id="SVGID_11_" gradientUnits="userSpaceOnUse" x1="71.5454" y1="9.1137" x2="72.9027" y2="9.1137">
				<stop  offset="1.582532e-03" style="stop-color:#D09F16"/>
				<stop  offset="0.508" style="stop-color:#EFD98D"/>
				<stop  offset="1" style="stop-color:#C99616"/>
			</linearGradient>
			<path class="st21" d="M72.2,9.8c-0.3,0-0.7-0.3-0.7-0.7c0-0.4,0.3-0.7,0.7-0.7c0.4,0,0.7,0.3,0.7,0.7C72.9,9.5,72.6,9.8,72.2,9.8
				z"/>
		</g>
		<g id="kQMxXQ_2_">
			<g>
				<path d="M56.7,63.5c0-0.1-0.1-0.2-0.1-0.3c-1.2-1.4-1.2-1.6,0.2-3.1c0-8.1,0-16.3,0-24.5c1.7-1.5,3.8-2,5.9-2.1
					c2.7-0.1,5.1,0.6,7.1,2.4c3.2,2.8,3.3,7.2,0.1,10.1c-1.7,1.5-3.7,2.3-5.9,2.4c-1,0-2.1,0-3.3,0c0.2,0.4,0.3,0.6,0.4,0.8
					c1.4,1.6,2.9,3.1,4.4,4.7c13.7,0,27.3,0,41,0c0,0.6,0,1.1,0,1.7c-13.9,0-27.8,0-41.9,0c-1.8-1.8-3.8-3.7-5.9-5.8
					c-0.2,2.3-0.1,4.3-0.1,6.4c0,2.1,0,4.1,0,6.3c-0.4,0.4-0.9,0.7-1.3,1.1C57.1,63.5,56.9,63.5,56.7,63.5z M58.7,45.5
					c3,2,6.9,1.7,9.2-0.6c1.4-1.3,2.2-3,1.8-5c-0.9-4.6-7.3-6.7-11-3.6C58.7,39.4,58.7,42.4,58.7,45.5z"/>
				<path d="M45.4,32.4c3.1-1.1,5.8-0.4,8.3,1.5c0.2,0.2,0.4,0.3,0.8,0.6c0.4-0.4,0.9-0.7,1.3-1c0.4-0.3,0.8-0.8,1.6-0.2
					c-0.6,0.8-1.1,1.5-1.8,2.4c0,0.4,0,1.1,0,1.8c0,5.6,0,11.3,0,16.9c0,0.6,0,1.1-0.1,1.7c-0.2,0.9-0.8,1.5-1.7,1.6
					c-0.9,0.1-1.7-0.3-2.1-1.1c-0.4-0.8-0.2-1.4,0.6-2.2c0.2-0.2,0.4-0.3,0.7-0.6c0-0.5,0.1-1,0.1-1.5c0-4.6-0.1-9.3,0-13.9
					c0.1-2.5-1.4-3.8-3.1-4.4c-2.2-0.7-4.9,0-6.1,1.7c-1,1.4-0.8,3.2,0.4,4.4c1.4,1.4,4.2,1.8,5.9,0.8c0.7-0.4,0.7-0.4,1.6-0.3
					c0,0.3,0,0.7,0.1,1.2c-3.1,1.3-6.1,1.4-9-0.5c-0.7-0.5-1.4-1.2-1.7-2C40.1,35.4,43.4,33.1,45.4,32.4z"/>
				<path d="M84.7,43.4c-2.6,1.6-5.1,3.3-7.6,4.9c0.9,1.6,2.2,2.1,3.8,2.1c1.6,0,2.7-1.2,3.7-2.2c0.7,0.4,0.6,0.8,0.3,1.2
					c-1.3,1.9-4.4,2.8-6.8,2.1c-2.3-0.7-3.9-2.8-3.8-5.1c0.1-2.4,1.8-4.4,4.4-5.1C80.5,40.7,83.7,41.3,84.7,43.4z M82.8,43.2
					c-1.8-1.2-3.3-0.9-4.7,0c-1.2,0.8-2,2-1.6,3.9C78.6,45.7,80.5,44.5,82.8,43.2z"/>
				<path d="M95.9,42c1.3-0.2,2.5-0.4,3.7-0.6c0.3,1-0.7,1.3-1.4,1.9c0,2.3,0,4.6,0,7c0.6-0.1,1-0.1,1.5-0.2c0,0.2,0.1,0.3,0.1,0.5
					c-0.1,0.7-0.7,0.9-1.2,0.9c-0.6,0-1.2,0-1.9,0c-0.2-0.3-0.5-0.6-0.6-0.7c-1.4,0.3-2.5,0.7-3.7,0.7c-3.4,0-5.4-3.1-4.2-6.3
					c1-2.7,4-4.2,6.8-3.4C95.3,41.8,95.6,41.9,95.9,42z M96.2,43.3c-2-1.4-4.1-1.1-5.5,0.7c-1.4,1.8-1.3,4.1,0.2,5.5
					c1.5,1.4,3.4,1.3,5.3-0.4C96.2,47.2,96.2,45.3,96.2,43.3z"/>
				<path d="M104.2,51.5c-0.5,0.1-0.7,0.1-0.9,0.1c-0.2,0-0.4-0.1-0.8-0.1c-0.1-0.4-0.2-0.9-0.2-1.3c0-4.3,0-8.6,0-12.9
					c0-0.8,0.1-1.6,0.4-2.3c0.3-1,1.2-1.5,2.2-1.6c0.9-0.1,1.7,0.1,2,1c-0.3,1.2-1.3,0.4-2,0.7c-0.9,0.5-0.8,1.4-0.8,2.2
					c0,4.1,0,8.1,0,12.2C104.2,50.2,104.2,50.8,104.2,51.5z"/>
			</g>
		</g>
	</g>
	<g>
		<path d="M73.7,36.3v-2.3h-0.8v-0.3h2v0.3H74v2.3H73.7z"/>
		<path d="M75.8,36.3v-2.6h0.3v2.6H75.8z"/>
		<path d="M77.2,36.3v-2.6h0.3l1.3,2v-2h0.3v2.6h-0.3l-1.3-2v2H77.2z"/>
		<path d="M80.9,36.3v-2.3h-0.8v-0.3h2v0.3h-0.8v2.3H80.9z"/>
		<path d="M82.7,35.1c0-0.4,0.1-0.8,0.3-1c0.2-0.2,0.5-0.4,0.9-0.4c0.2,0,0.4,0.1,0.6,0.2c0.2,0.1,0.3,0.3,0.4,0.5
			c0.1,0.2,0.1,0.4,0.1,0.7c0,0.3-0.1,0.5-0.2,0.7c-0.1,0.2-0.2,0.4-0.4,0.5c-0.2,0.1-0.4,0.2-0.6,0.2c-0.2,0-0.4-0.1-0.6-0.2
			c-0.2-0.1-0.3-0.3-0.4-0.5C82.8,35.5,82.7,35.3,82.7,35.1z M83.1,35.1c0,0.3,0.1,0.6,0.2,0.7s0.4,0.3,0.6,0.3
			c0.2,0,0.5-0.1,0.6-0.3c0.2-0.2,0.2-0.4,0.2-0.8c0-0.2,0-0.4-0.1-0.5s-0.2-0.3-0.3-0.4C84.3,34,84.1,34,83.9,34
			c-0.2,0-0.4,0.1-0.6,0.2C83.2,34.4,83.1,34.7,83.1,35.1z"/>
		<path d="M86.1,36.3v-2.6h1.1c0.2,0,0.4,0,0.5,0.1c0.1,0,0.2,0.1,0.3,0.2c0.1,0.1,0.1,0.2,0.1,0.4c0,0.2-0.1,0.3-0.2,0.5
			c-0.1,0.1-0.3,0.2-0.5,0.2c0.1,0,0.2,0.1,0.2,0.1c0.1,0.1,0.2,0.2,0.3,0.3l0.4,0.7h-0.4l-0.3-0.5c-0.1-0.2-0.2-0.3-0.2-0.4
			c-0.1-0.1-0.1-0.1-0.2-0.2c0,0-0.1-0.1-0.2-0.1c0,0-0.1,0-0.2,0h-0.4v1.1H86.1z M86.4,34.9h0.7c0.2,0,0.3,0,0.4,0
			c0.1,0,0.1-0.1,0.2-0.2c0-0.1,0.1-0.1,0.1-0.2c0-0.1,0-0.2-0.1-0.3c-0.1-0.1-0.2-0.1-0.4-0.1h-0.8V34.9z"/>
		<path d="M89.1,36.3v-2.6h1.8v0.3h-1.5v0.8h1.4v0.3h-1.4V36H91v0.3H89.1z"/>
		<path d="M92,36.3v-2.6h1.1c0.2,0,0.4,0,0.5,0.1c0.1,0,0.2,0.1,0.3,0.2c0.1,0.1,0.1,0.2,0.1,0.4c0,0.2-0.1,0.3-0.2,0.5
			c-0.1,0.1-0.3,0.2-0.5,0.2c0.1,0,0.2,0.1,0.2,0.1c0.1,0.1,0.2,0.2,0.3,0.3l0.4,0.7h-0.4l-0.3-0.5c-0.1-0.2-0.2-0.3-0.2-0.4
			c-0.1-0.1-0.1-0.1-0.2-0.2c0,0-0.1-0.1-0.2-0.1c0,0-0.1,0-0.2,0h-0.4v1.1H92z M92.3,34.9H93c0.2,0,0.3,0,0.4,0
			c0.1,0,0.1-0.1,0.2-0.2c0-0.1,0.1-0.1,0.1-0.2c0-0.1,0-0.2-0.1-0.3c-0.1-0.1-0.2-0.1-0.4-0.1h-0.8V34.9z"/>
		<path d="M95,33.6l0.2-0.5h0.4l-0.4,0.5H95z M95.1,36.3v-2.6h0.3v2.6H95.1z"/>
		<path d="M96.3,36.3l1-2.6h0.4l1,2.6h-0.4l-0.3-0.8h-1l-0.3,0.8H96.3z M97,35.3h0.8l-0.3-0.7c-0.1-0.2-0.1-0.4-0.2-0.5
			c0,0.2-0.1,0.3-0.1,0.5L97,35.3z"/>
	</g>
</g>
</svg>
