<?xml version="1.0" encoding="utf-8"?>
<!-- Generator: Adobe Illustrator 22.0.1, SVG Export Plug-In . SVG Version: 6.00 Build 0)  -->
<svg version="1.1" id="Layer_1" xmlns="http://www.w3.org/2000/svg" xmlns:xlink="http://www.w3.org/1999/xlink" x="0px" y="0px"
	 viewBox="0 0 148 66.3" style="enable-background:new 0 0 148 66.3;" xml:space="preserve">
<style type="text/css">
	.st0{fill:#F9E3DF;}
	.st1{fill:url(#SVGID_1_);}
	.st2{fill:url(#SVGID_2_);}
	.st3{fill:url(#SVGID_3_);}
	.st4{fill:url(#SVGID_4_);}
	.st5{opacity:0.56;fill:url(#SVGID_5_);}
	.st6{filter:url(#Adobe_OpacityMaskFilter);}
	.st7{opacity:0.65;mask:url(#SVGID_6_);}
	.st8{fill:#AFAEAE;}
	.st9{fill:url(#SVGID_7_);}
	.st10{opacity:0.33;fill:url(#SVGID_8_);}
	.st11{fill:#424242;}
	.st12{fill:#C10230;stroke:#C10230;stroke-width:2.43;stroke-miterlimit:10;}
	.st13{fill:#FFFFFF;}
	.st14{fill:#757575;}
	.st15{fill:#C10230;}
	.st16{fill:#666666;}
	.st17{fill:#888D8F;}
	.st18{fill:#F89C27;}
	.st19{fill:url(#SVGID_9_);}
	.st20{fill:url(#SVGID_10_);}
	.st21{fill:url(#SVGID_11_);}
	.st22{fill:url(#SVGID_12_);}
	.st23{fill:url(#SVGID_13_);}
	.st24{fill:url(#SVGID_14_);}
	.st25{fill:url(#SVGID_15_);}
	.st26{fill:url(#SVGID_16_);}
	.st27{fill:url(#SVGID_17_);}
	.st28{fill:url(#SVGID_18_);}
	.st29{fill:url(#SVGID_19_);}
	.st30{fill-rule:evenodd;clip-rule:evenodd;fill:#002F5D;}
	.st31{fill:#EC1C24;}
	.st32{fill-rule:evenodd;clip-rule:evenodd;fill:#ED1B23;}
	.st33{fill:#ED1B23;}
	.st34{fill:#18A94F;}
	.st35{fill:url(#SVGID_20_);}
	.st36{fill:#F8E837;}
	.st37{fill:#74B700;}
	.st38{fill:#0041AE;}
	.st39{fill:none;}
	.st40{fill:#FCB813;}
	.st41{fill:#F5A800;}
	.st42{fill:#0071CE;}
	.st43{fill:#231F20;}
	.st44{clip-path:url(#SVGID_22_);}
	.st45{fill:#2483C5;}
	.st46{fill:#00A551;}
	.st47{fill:#F6921E;}
	.st48{fill:#373535;}
</style>
<g>
	<g>
		<g>
			<path class="st48" d="M15.9,20.4h10.2c1.5,0,2.8,0.2,4,0.6c1.2,0.4,2.2,1,3,1.8c0.8,0.8,1.5,1.7,1.9,2.7c0.4,1.1,0.7,2.2,0.7,3.5
				v0.1c0,1.5-0.3,2.7-0.8,3.8c-0.5,1.1-1.2,2-2.2,2.8c-0.9,0.7-2,1.3-3.2,1.7c-1.2,0.4-2.5,0.6-4,0.6h-4.2v7.5h-5.5V20.4z M25.7,33
				c1.4,0,2.5-0.4,3.2-1.1c0.8-0.7,1.1-1.6,1.1-2.7v-0.1c0-1.2-0.4-2.2-1.2-2.8c-0.8-0.6-1.9-1-3.3-1h-4.3V33H25.7z"/>
			<path class="st48" d="M46.8,45.9c-1.5,0-2.9-0.3-4.1-0.8c-1.3-0.5-2.4-1.2-3.3-2.1c-0.9-0.9-1.6-1.9-2.2-3.1
				c-0.5-1.2-0.8-2.5-0.8-3.9v-0.1c0-1.4,0.3-2.7,0.8-3.9c0.5-1.2,1.3-2.3,2.2-3.2c0.9-0.9,2-1.6,3.3-2.1c1.3-0.5,2.6-0.8,4.1-0.8
				c1.5,0,2.8,0.3,4.1,0.8c1.3,0.5,2.4,1.2,3.3,2.1c0.9,0.9,1.6,1.9,2.2,3.1c0.5,1.2,0.8,2.5,0.8,3.9v0.1c0,1.4-0.3,2.7-0.8,3.9
				C55.9,41,55.2,42,54.2,43c-0.9,0.9-2,1.6-3.3,2.1C49.7,45.6,48.3,45.9,46.8,45.9 M46.9,41.2c0.8,0,1.5-0.1,2.1-0.4
				c0.6-0.3,1.1-0.7,1.6-1.1c0.4-0.5,0.8-1,1-1.7c0.2-0.6,0.3-1.3,0.3-2v-0.1c0-0.7-0.1-1.4-0.4-2c-0.2-0.6-0.6-1.2-1-1.7
				c-0.5-0.5-1-0.9-1.6-1.2c-0.6-0.3-1.3-0.4-2-0.4c-0.8,0-1.5,0.1-2.1,0.4c-0.6,0.3-1.1,0.6-1.6,1.1c-0.4,0.5-0.8,1-1,1.7
				c-0.2,0.6-0.3,1.3-0.3,2l0,0.1c0,0.7,0.1,1.4,0.4,2c0.2,0.6,0.6,1.2,1,1.7c0.5,0.5,1,0.9,1.6,1.2C45.4,41.1,46.1,41.2,46.9,41.2"
				/>
			<path class="st48" d="M59.4,26.3h5.4v3.9c0.5-1.3,1.3-2.4,2.3-3.1c1-0.8,2.2-1.1,3.9-1.1v5.7h-0.3c-1.8,0-3.2,0.5-4.3,1.6
				c-1,1.1-1.6,2.8-1.6,5.1v7.1h-5.4L59.4,26.3z"/>
			<path class="st48" d="M72.5,26.3H78v3.9c0.5-1.3,1.3-2.4,2.3-3.1c1-0.8,2.2-1.1,3.9-1.1v5.7h-0.3c-1.8,0-3.2,0.5-4.3,1.6
				c-1,1.1-1.6,2.8-1.6,5.1v7.1h-5.4V26.3z"/>
			<path class="st48" d="M92.1,45.8c-2.1,0-3.7-0.6-4.8-1.9c-1.1-1.3-1.7-3-1.7-5.2V26.3H91V37c0,1.3,0.3,2.3,0.9,2.9
				c0.6,0.7,1.4,1,2.4,1c1,0,1.9-0.3,2.5-1c0.6-0.7,0.9-1.6,0.9-2.9V26.3l5.4,0l0,19.2h-5.4l0-2.7c-0.3,0.4-0.7,0.8-1,1.2
				c-0.4,0.4-0.8,0.7-1.2,1c-0.5,0.3-1,0.5-1.5,0.7C93.4,45.7,92.7,45.8,92.1,45.8"/>
			<path class="st48" d="M111.6,45.8c-0.9,0-1.8-0.1-2.6-0.4c-0.8-0.3-1.5-0.6-2.1-1.1c-0.6-0.5-1.1-1.1-1.4-1.8
				c-0.3-0.7-0.5-1.6-0.5-2.5v-0.1c0-1,0.2-2,0.6-2.7c0.4-0.8,0.9-1.4,1.6-1.9c0.7-0.5,1.5-0.9,2.4-1.1c0.9-0.3,2-0.4,3.1-0.4
				c1,0,1.8,0.1,2.6,0.2c0.7,0.1,1.4,0.3,2.1,0.6v-0.3c0-1.1-0.3-2-1-2.6c-0.7-0.6-1.7-0.9-3.1-0.9c-1,0-2,0.1-2.8,0.3
				c-0.8,0.2-1.6,0.4-2.5,0.8l-1.4-4.1c1-0.5,2.1-0.8,3.3-1.1c1.1-0.3,2.5-0.4,4.1-0.4c1.5,0,2.8,0.2,3.8,0.6
				c1.1,0.4,1.9,0.9,2.6,1.6c0.7,0.7,1.2,1.6,1.6,2.6c0.3,1,0.5,2.2,0.5,3.5l0,11.1h-5.3v-2.1c-0.7,0.7-1.5,1.3-2.4,1.8
				C114.1,45.6,113,45.8,111.6,45.8 M113.3,42.1c1.3,0,2.3-0.3,3.1-0.9c0.8-0.6,1.2-1.4,1.2-2.4v-1c-0.5-0.2-1-0.4-1.6-0.5
				c-0.6-0.1-1.2-0.2-1.9-0.2c-1.2,0-2.1,0.2-2.8,0.7c-0.7,0.5-1,1.1-1,2v0.1c0,0.7,0.3,1.3,0.8,1.7
				C111.7,41.9,112.4,42.1,113.3,42.1"/>
			<polygon class="st48" points="92.2,26.3 95.7,26.4 99.7,22.7 95.6,20.9 			"/>
			<path class="st48" d="M132.1,42.5c0,1.7-1.4,3.1-3.1,3.1c-1.8,0-3.2-1.4-3.2-3.1s1.4-3.1,3.2-3.1
				C130.8,39.4,132.1,40.7,132.1,42.5 M126.6,42.5c0,1.4,1,2.5,2.4,2.5c1.3,0,2.3-1.1,2.3-2.4c0-1.4-1-2.5-2.4-2.5
				C127.6,40,126.6,41.1,126.6,42.5 M128.5,44.1h-0.7V41c0.3,0,0.7-0.1,1.2-0.1c0.6,0,0.8,0.1,1.1,0.2c0.2,0.1,0.3,0.4,0.3,0.7
				c0,0.4-0.3,0.6-0.6,0.7v0c0.3,0.1,0.4,0.3,0.5,0.7c0.1,0.5,0.2,0.6,0.2,0.7h-0.7c-0.1-0.1-0.1-0.4-0.2-0.7
				c-0.1-0.3-0.2-0.5-0.6-0.5h-0.3V44.1z M128.5,42.3h0.3c0.4,0,0.7-0.1,0.7-0.5c0-0.3-0.2-0.5-0.7-0.5c-0.2,0-0.3,0-0.4,0V42.3z"/>
		</g>
	</g>
</g>
</svg>
