<?xml version="1.0" encoding="utf-8"?>
<!-- Generator: Adobe Illustrator 23.0.1, SVG Export Plug-In . SVG Version: 6.00 Build 0)  -->
<svg version="1.1" id="Layer_1" xmlns="http://www.w3.org/2000/svg" xmlns:xlink="http://www.w3.org/1999/xlink" x="0px" y="0px"
	 viewBox="0 0 60 60" style="enable-background:new 0 0 60 60;" xml:space="preserve">
<style type="text/css">
	.st0{fill-rule:evenodd;clip-rule:evenodd;fill:#C5C5C5;}
</style>
<g>
	<path class="st0" d="M36.7,22h-25c-0.6,0-1,0.4-1,1s0.4,1,1,1h25c0.6,0,1-0.4,1-1S37.3,22,36.7,22z M11.7,16h10c0.6,0,1-0.4,1-1
		s-0.4-1-1-1h-10c-0.6,0-1,0.4-1,1S11.2,16,11.7,16z M36.7,30h-25c-0.6,0-1,0.4-1,1s0.4,1,1,1h25c0.6,0,1-0.4,1-1S37.3,30,36.7,30z
		 M28.7,38h-17c-0.6,0-1,0.4-1,1s0.4,1,1,1h17c0.6,0,1-0.4,1-1S29.3,38,28.7,38z M25.7,48c0.6,0,1-0.4,1-1s-0.4-1-1-1h-14
		c-0.6,0-1,0.4-1,1s0.4,1,1,1H25.7z"/>
	<path class="st0" d="M2.7,2h29v14h14v18h2V14.6L33.1,0H0.7v60h29v-2h-27C2.7,58,2.7,2,2.7,2z M33.7,3.4L44.3,14H33.7V3.4z"/>
	<path class="st0" d="M58.4,37.2l-2.8-2.8c-1.1-1.1-3.1-1.1-4.2,0L35.9,49.7l-2.1,7.8L33.3,58c-0.4,0.4-0.4,1,0,1.4l0,0l0,0
		c0.4,0.4,1,0.4,1.4,0l0.5-0.5l7.8-2.1l15.4-15.4c0.6-0.6,0.9-1.3,0.9-2.1C59.3,38.5,59,37.7,58.4,37.2z M38.3,50.2L48.5,40l4.2,4.2
		L42.5,54.5L38.3,50.2z M37.4,52.1l3.2,3.2l-4.4,1.2C36.1,56.6,37.4,52.1,37.4,52.1z M57,40l-2.8,2.8L50,38.6l2.8-2.8
		c0.4-0.4,1-0.4,1.4,0l2.8,2.8C57.4,39,57.4,39.6,57,40L57,40z"/>
</g>
</svg>
