<?xml version="1.0" encoding="utf-8"?>
<!-- Generator: Adobe Illustrator 22.0.1, SVG Export Plug-In . SVG Version: 6.00 Build 0)  -->
<svg version="1.1" id="Layer_1" xmlns="http://www.w3.org/2000/svg" xmlns:xlink="http://www.w3.org/1999/xlink" x="0px" y="0px"
	 viewBox="0 0 36.3 36.3" style="enable-background:new 0 0 36.3 36.3;" xml:space="preserve">
<style type="text/css">
	.st0{fill:none;stroke:#231F20;stroke-width:1.05;stroke-linecap:round;stroke-linejoin:round;}
</style>
<title>ico_header</title>
<circle class="st0" cx="18.2" cy="18.2" r="14.5"/>
<path class="st0" d="M21.6,22.6c-0.3-0.5-0.5-1.1-0.5-1.6"/>
<path class="st0" d="M15.1,20.8c-0.1,0.6-0.2,1.3-0.5,1.9"/>
<path class="st0" d="M18.1,22L18.1,22c0.9,0.1,1.7-0.1,2.4-0.6c1.9-2.2,2.8-5.1,2.6-8c-0.3-3.3-2.4-4.8-5-4.8s-4.6,1.5-5,4.8
	c-0.2,2.9,0.7,5.8,2.6,8c0.7,0.4,1.5,0.7,2.4,0.6H18.1"/>
<path class="st0" d="M27.4,26.2c-0.5-2.1-5.8-3.6-5.8-3.6"/>
<path class="st0" d="M14.6,22.6c0,0-5.2,1.5-5.8,3.6"/>
</svg>
