<?xml version="1.0" encoding="utf-8"?>
<!-- Generator: Adobe Illustrator 22.0.1, SVG Export Plug-In . SVG Version: 6.00 Build 0)  -->
<svg version="1.1" id="Layer_1" xmlns="http://www.w3.org/2000/svg" xmlns:xlink="http://www.w3.org/1999/xlink" x="0px" y="0px"
	 viewBox="0 0 175.9 175.9" style="enable-background:new 0 0 175.9 175.9;" xml:space="preserve">
<style type="text/css">
	.st0{fill:#FF0000;}
	.st1{fill:#FFFFFF;}
	.st2{clip-path:url(#SVGID_2_);fill:#FF0000;}
	.st3{clip-path:url(#SVGID_2_);fill:#FFFFFF;}
</style>
<path class="st0" d="M164,106.3c0,19.2-6.6,34.7-25.7,34.7H39.7c-19.2,0-27.8-15.5-27.8-34.7V69.6c0-19.2,7.8-34.7,27-34.7h100.2
	c19.2,0,24.9,15.5,24.9,34.7V106.3z"/>
<polygon class="st1" points="74.7,69.9 110.7,88.7 74.7,107.5 "/>
</svg>
