<?xml version="1.0" encoding="utf-8"?>
<!-- Generator: Adobe Illustrator 22.0.1, SVG Export Plug-In . SVG Version: 6.00 Build 0)  -->
<svg version="1.1" id="Layer_1" xmlns="http://www.w3.org/2000/svg" xmlns:xlink="http://www.w3.org/1999/xlink" x="0px" y="0px"
	 viewBox="0 0 80 80" style="enable-background:new 0 0 80 80;" xml:space="preserve">
<style type="text/css">
	.st0{fill:#E5E5E5;}
	.st1{fill:url(#SVGID_1_);}
	.st2{fill:url(#SVGID_2_);}
	.st3{fill:url(#SVGID_3_);}
	.st4{fill:url(#SVGID_4_);}
	.st5{fill:url(#SVGID_5_);}
	.st6{fill:url(#SVGID_6_);}
	.st7{fill:url(#SVGID_7_);}
	.st8{fill:url(#SVGID_8_);}
	.st9{fill:url(#SVGID_9_);}
	.st10{fill:url(#SVGID_10_);}
	.st11{fill:url(#SVGID_11_);}
	.st12{fill:url(#SVGID_12_);}
	.st13{fill:url(#SVGID_13_);}
	.st14{fill:url(#SVGID_14_);}
	.st15{fill:url(#SVGID_15_);}
	.st16{fill:url(#SVGID_16_);}
	.st17{fill:url(#SVGID_17_);}
	.st18{fill:url(#SVGID_18_);}
	.st19{fill:url(#SVGID_19_);}
	.st20{fill:url(#SVGID_20_);}
	.st21{fill:url(#SVGID_21_);}
	.st22{fill:url(#SVGID_22_);}
	.st23{fill:url(#SVGID_23_);}
	.st24{fill:url(#SVGID_24_);}
	.st25{fill:url(#SVGID_25_);}
	.st26{fill:url(#SVGID_26_);}
	.st27{fill:url(#SVGID_27_);}
	.st28{fill:url(#SVGID_28_);}
	.st29{fill:url(#SVGID_29_);}
	.st30{fill:url(#SVGID_30_);}
	.st31{fill:url(#SVGID_31_);}
	.st32{fill:#4D4D4D;}
	.st33{fill:url(#SVGID_32_);}
	.st34{fill:url(#SVGID_33_);}
	.st35{fill:url(#SVGID_34_);}
	.st36{fill:url(#SVGID_35_);}
	.st37{fill:url(#SVGID_36_);}
	.st38{fill:url(#SVGID_37_);}
	.st39{fill:url(#SVGID_38_);}
	.st40{fill:url(#SVGID_39_);}
	.st41{fill:url(#SVGID_40_);}
	.st42{fill:url(#SVGID_41_);}
	.st43{fill:url(#SVGID_42_);}
	.st44{fill:url(#SVGID_43_);}
	.st45{fill:none;stroke:#30AFC4;stroke-miterlimit:10;}
	.st46{fill:#009CDE;}
	.st47{fill:none;stroke:#30AFC4;stroke-width:1.4179;stroke-miterlimit:10;}
	.st48{fill:#F15B29;}
	.st49{fill:#662D91;}
	.st50{fill:#009832;}
	.st51{fill:#F7931E;}
	.st52{fill:#9F1F63;}
	.st53{fill:#8CC63F;}
	.st54{fill:url(#SVGID_44_);}
	.st55{fill:url(#SVGID_45_);}
	.st56{fill:url(#SVGID_46_);}
	.st57{fill:url(#SVGID_47_);}
	.st58{fill:#EFA829;}
	.st59{fill:url(#SVGID_48_);}
	.st60{fill:#FFFFFF;}
	.st61{fill:url(#SVGID_49_);}
	.st62{fill:url(#SVGID_50_);}
	.st63{fill:url(#SVGID_51_);}
	.st64{fill:url(#SVGID_52_);}
	.st65{fill:url(#SVGID_53_);}
	.st66{fill:url(#SVGID_54_);}
	.st67{fill:url(#SVGID_55_);}
	.st68{fill:url(#SVGID_56_);}
	.st69{fill:url(#SVGID_57_);}
	.st70{fill:url(#SVGID_58_);}
	.st71{fill:url(#SVGID_59_);}
	.st72{fill:url(#SVGID_60_);}
	.st73{fill:url(#SVGID_61_);}
	.st74{fill:url(#SVGID_62_);}
	.st75{clip-path:url(#SVGID_65_);fill:url(#SVGID_66_);}
	.st76{clip-path:url(#SVGID_69_);fill:url(#SVGID_70_);}
	.st77{clip-path:url(#SVGID_73_);fill:url(#SVGID_74_);}
	.st78{clip-path:url(#SVGID_77_);fill:url(#SVGID_78_);}
	.st79{clip-path:url(#SVGID_81_);fill:url(#SVGID_82_);}
	.st80{clip-path:url(#SVGID_84_);fill:#EFA829;}
	.st81{clip-path:url(#SVGID_86_);fill:#EFA829;}
	.st82{clip-path:url(#SVGID_88_);fill:#EFA829;}
	.st83{clip-path:url(#SVGID_90_);fill:#EFA829;}
	.st84{clip-path:url(#SVGID_92_);fill:#EFA829;}
	.st85{fill:url(#SVGID_93_);}
	.st86{fill:url(#SVGID_94_);}
	.st87{fill:url(#SVGID_95_);}
	.st88{fill-rule:evenodd;clip-rule:evenodd;fill:#EFA829;}
	.st89{fill:#FDCF85;}
	.st90{clip-path:url(#SVGID_97_);fill:#EFA829;}
	.st91{clip-path:url(#SVGID_99_);fill:#EFA829;}
	.st92{clip-path:url(#SVGID_101_);fill:#EFA829;}
	.st93{clip-path:url(#SVGID_103_);fill:#EFA829;}
	.st94{fill:url(#SVGID_104_);}
	.st95{fill:url(#SVGID_105_);}
	.st96{fill:url(#SVGID_106_);}
	.st97{fill:url(#SVGID_107_);}
	.st98{fill:url(#SVGID_108_);}
	.st99{fill:url(#SVGID_109_);}
	.st100{fill:url(#SVGID_110_);}
	.st101{fill:url(#SVGID_111_);}
	.st102{fill:url(#SVGID_112_);}
	.st103{fill:url(#SVGID_113_);}
	.st104{fill:url(#SVGID_114_);}
	.st105{fill:url(#SVGID_115_);}
	.st106{fill:url(#SVGID_116_);}
	.st107{fill:url(#SVGID_117_);}
	.st108{fill:url(#SVGID_118_);}
	.st109{fill:url(#SVGID_119_);}
	.st110{fill:url(#SVGID_120_);}
	.st111{fill:url(#SVGID_121_);}
	.st112{fill:url(#SVGID_122_);}
	.st113{fill:url(#SVGID_123_);}
	.st114{fill:url(#SVGID_124_);}
	.st115{fill:url(#SVGID_125_);}
	.st116{fill:url(#SVGID_126_);}
	.st117{fill:url(#SVGID_127_);}
	.st118{fill:url(#SVGID_128_);}
	.st119{fill-rule:evenodd;clip-rule:evenodd;fill:url(#SVGID_129_);}
	.st120{fill-rule:evenodd;clip-rule:evenodd;fill:url(#SVGID_130_);}
	.st121{fill-rule:evenodd;clip-rule:evenodd;fill:url(#SVGID_131_);}
	.st122{fill-rule:evenodd;clip-rule:evenodd;fill:url(#SVGID_132_);}
	.st123{fill-rule:evenodd;clip-rule:evenodd;fill:url(#SVGID_133_);}
	.st124{fill-rule:evenodd;clip-rule:evenodd;fill:url(#SVGID_134_);}
	.st125{fill-rule:evenodd;clip-rule:evenodd;fill:url(#SVGID_135_);}
	.st126{fill-rule:evenodd;clip-rule:evenodd;fill:url(#SVGID_136_);}
	.st127{fill-rule:evenodd;clip-rule:evenodd;fill:url(#SVGID_137_);}
	.st128{fill-rule:evenodd;clip-rule:evenodd;fill:url(#SVGID_138_);}
	.st129{fill-rule:evenodd;clip-rule:evenodd;fill:url(#SVGID_139_);}
	.st130{fill-rule:evenodd;clip-rule:evenodd;fill:url(#SVGID_140_);}
	.st131{fill-rule:evenodd;clip-rule:evenodd;fill:url(#SVGID_141_);}
	.st132{fill-rule:evenodd;clip-rule:evenodd;fill:url(#SVGID_142_);}
	.st133{fill-rule:evenodd;clip-rule:evenodd;fill:url(#SVGID_143_);}
	.st134{fill-rule:evenodd;clip-rule:evenodd;fill:url(#SVGID_144_);}
	.st135{fill-rule:evenodd;clip-rule:evenodd;fill:url(#SVGID_145_);}
	.st136{fill-rule:evenodd;clip-rule:evenodd;fill:url(#SVGID_146_);}
	.st137{fill-rule:evenodd;clip-rule:evenodd;fill:url(#SVGID_147_);}
	.st138{fill-rule:evenodd;clip-rule:evenodd;fill:url(#SVGID_148_);}
	.st139{fill-rule:evenodd;clip-rule:evenodd;fill:url(#SVGID_149_);}
	.st140{fill-rule:evenodd;clip-rule:evenodd;fill:url(#SVGID_150_);}
	.st141{fill-rule:evenodd;clip-rule:evenodd;fill:url(#SVGID_151_);}
	.st142{fill-rule:evenodd;clip-rule:evenodd;fill:url(#SVGID_152_);}
	.st143{fill-rule:evenodd;clip-rule:evenodd;fill:url(#SVGID_153_);}
	.st144{fill-rule:evenodd;clip-rule:evenodd;fill:url(#SVGID_154_);}
	.st145{fill-rule:evenodd;clip-rule:evenodd;fill:url(#SVGID_155_);}
	.st146{fill-rule:evenodd;clip-rule:evenodd;fill:url(#SVGID_156_);}
	.st147{fill-rule:evenodd;clip-rule:evenodd;fill:url(#SVGID_157_);}
	.st148{fill-rule:evenodd;clip-rule:evenodd;fill:url(#SVGID_158_);}
	.st149{fill-rule:evenodd;clip-rule:evenodd;fill:url(#SVGID_159_);}
	.st150{fill-rule:evenodd;clip-rule:evenodd;fill:url(#SVGID_160_);}
	.st151{fill-rule:evenodd;clip-rule:evenodd;fill:url(#SVGID_161_);}
	.st152{fill-rule:evenodd;clip-rule:evenodd;fill:url(#SVGID_162_);}
	.st153{fill-rule:evenodd;clip-rule:evenodd;fill:url(#SVGID_163_);}
	.st154{fill-rule:evenodd;clip-rule:evenodd;fill:url(#SVGID_164_);}
	.st155{fill-rule:evenodd;clip-rule:evenodd;fill:url(#SVGID_165_);}
	.st156{fill-rule:evenodd;clip-rule:evenodd;fill:url(#SVGID_166_);}
	.st157{fill-rule:evenodd;clip-rule:evenodd;fill:url(#SVGID_167_);}
	.st158{fill-rule:evenodd;clip-rule:evenodd;fill:url(#SVGID_168_);}
	.st159{fill-rule:evenodd;clip-rule:evenodd;fill:url(#SVGID_169_);}
	.st160{fill-rule:evenodd;clip-rule:evenodd;fill:url(#SVGID_170_);}
	.st161{fill-rule:evenodd;clip-rule:evenodd;fill:url(#SVGID_171_);}
	.st162{fill-rule:evenodd;clip-rule:evenodd;fill:url(#SVGID_172_);}
	.st163{fill-rule:evenodd;clip-rule:evenodd;fill:url(#SVGID_173_);}
	.st164{fill-rule:evenodd;clip-rule:evenodd;fill:url(#SVGID_174_);}
	.st165{fill-rule:evenodd;clip-rule:evenodd;fill:url(#SVGID_175_);}
	.st166{fill-rule:evenodd;clip-rule:evenodd;fill:url(#SVGID_176_);}
	.st167{fill-rule:evenodd;clip-rule:evenodd;fill:url(#SVGID_177_);}
	.st168{fill-rule:evenodd;clip-rule:evenodd;fill:url(#SVGID_178_);}
	.st169{fill-rule:evenodd;clip-rule:evenodd;fill:url(#SVGID_179_);}
	.st170{fill-rule:evenodd;clip-rule:evenodd;fill:url(#SVGID_180_);}
	.st171{fill-rule:evenodd;clip-rule:evenodd;fill:url(#SVGID_181_);}
	.st172{fill-rule:evenodd;clip-rule:evenodd;fill:url(#SVGID_182_);}
	.st173{fill-rule:evenodd;clip-rule:evenodd;fill:url(#SVGID_183_);}
	.st174{fill-rule:evenodd;clip-rule:evenodd;fill:url(#SVGID_184_);}
	.st175{fill-rule:evenodd;clip-rule:evenodd;fill:url(#SVGID_185_);}
	.st176{fill-rule:evenodd;clip-rule:evenodd;fill:url(#SVGID_186_);}
	.st177{fill-rule:evenodd;clip-rule:evenodd;fill:url(#SVGID_187_);}
	.st178{fill-rule:evenodd;clip-rule:evenodd;fill:url(#SVGID_188_);}
	.st179{fill-rule:evenodd;clip-rule:evenodd;fill:url(#SVGID_189_);}
	.st180{fill-rule:evenodd;clip-rule:evenodd;fill:url(#SVGID_190_);}
	.st181{fill-rule:evenodd;clip-rule:evenodd;fill:url(#SVGID_191_);}
	.st182{fill-rule:evenodd;clip-rule:evenodd;fill:url(#SVGID_192_);}
	.st183{fill-rule:evenodd;clip-rule:evenodd;fill:url(#SVGID_193_);}
	.st184{fill-rule:evenodd;clip-rule:evenodd;fill:url(#SVGID_194_);}
	.st185{fill-rule:evenodd;clip-rule:evenodd;fill:url(#SVGID_195_);}
	.st186{fill-rule:evenodd;clip-rule:evenodd;fill:url(#SVGID_196_);}
	.st187{fill-rule:evenodd;clip-rule:evenodd;fill:url(#SVGID_197_);}
	.st188{fill-rule:evenodd;clip-rule:evenodd;fill:url(#SVGID_198_);}
	.st189{fill-rule:evenodd;clip-rule:evenodd;fill:url(#SVGID_199_);}
	.st190{fill-rule:evenodd;clip-rule:evenodd;fill:url(#SVGID_200_);}
	.st191{fill-rule:evenodd;clip-rule:evenodd;fill:url(#SVGID_201_);}
	.st192{fill-rule:evenodd;clip-rule:evenodd;fill:url(#SVGID_202_);}
	.st193{fill-rule:evenodd;clip-rule:evenodd;fill:url(#SVGID_203_);}
	.st194{fill-rule:evenodd;clip-rule:evenodd;fill:url(#SVGID_204_);}
	.st195{fill-rule:evenodd;clip-rule:evenodd;fill:url(#SVGID_205_);}
	.st196{fill-rule:evenodd;clip-rule:evenodd;fill:url(#SVGID_206_);}
	.st197{fill-rule:evenodd;clip-rule:evenodd;fill:url(#SVGID_207_);}
	.st198{fill-rule:evenodd;clip-rule:evenodd;fill:url(#SVGID_208_);}
	.st199{fill-rule:evenodd;clip-rule:evenodd;fill:url(#SVGID_209_);}
	.st200{fill-rule:evenodd;clip-rule:evenodd;fill:url(#SVGID_210_);}
	.st201{fill-rule:evenodd;clip-rule:evenodd;fill:url(#SVGID_211_);}
	.st202{fill-rule:evenodd;clip-rule:evenodd;fill:url(#SVGID_212_);}
	.st203{fill-rule:evenodd;clip-rule:evenodd;fill:url(#SVGID_213_);}
	.st204{fill-rule:evenodd;clip-rule:evenodd;fill:url(#SVGID_214_);}
	.st205{fill-rule:evenodd;clip-rule:evenodd;fill:url(#SVGID_215_);}
	.st206{fill-rule:evenodd;clip-rule:evenodd;fill:url(#SVGID_216_);}
	.st207{fill-rule:evenodd;clip-rule:evenodd;fill:url(#SVGID_217_);}
	.st208{fill-rule:evenodd;clip-rule:evenodd;fill:url(#SVGID_218_);}
	.st209{fill-rule:evenodd;clip-rule:evenodd;fill:url(#SVGID_219_);}
	.st210{fill-rule:evenodd;clip-rule:evenodd;fill:url(#SVGID_220_);}
	.st211{fill-rule:evenodd;clip-rule:evenodd;fill:url(#SVGID_221_);}
	.st212{fill-rule:evenodd;clip-rule:evenodd;fill:url(#SVGID_222_);}
	.st213{fill-rule:evenodd;clip-rule:evenodd;fill:url(#SVGID_223_);}
	.st214{fill-rule:evenodd;clip-rule:evenodd;fill:url(#SVGID_224_);}
	.st215{fill-rule:evenodd;clip-rule:evenodd;fill:url(#SVGID_225_);}
	.st216{fill-rule:evenodd;clip-rule:evenodd;fill:url(#SVGID_226_);}
	.st217{fill-rule:evenodd;clip-rule:evenodd;fill:url(#SVGID_227_);}
	.st218{fill-rule:evenodd;clip-rule:evenodd;fill:url(#SVGID_228_);}
	.st219{fill-rule:evenodd;clip-rule:evenodd;fill:url(#SVGID_229_);}
	.st220{fill-rule:evenodd;clip-rule:evenodd;fill:url(#SVGID_230_);}
	.st221{fill-rule:evenodd;clip-rule:evenodd;fill:url(#SVGID_231_);}
	.st222{fill-rule:evenodd;clip-rule:evenodd;fill:url(#SVGID_232_);}
	.st223{fill-rule:evenodd;clip-rule:evenodd;fill:url(#SVGID_233_);}
	.st224{fill-rule:evenodd;clip-rule:evenodd;fill:url(#SVGID_234_);}
	.st225{fill-rule:evenodd;clip-rule:evenodd;fill:url(#SVGID_235_);}
	.st226{fill-rule:evenodd;clip-rule:evenodd;fill:url(#SVGID_236_);}
	.st227{fill-rule:evenodd;clip-rule:evenodd;fill:url(#SVGID_237_);}
	.st228{fill-rule:evenodd;clip-rule:evenodd;fill:url(#SVGID_238_);}
	.st229{fill-rule:evenodd;clip-rule:evenodd;fill:url(#SVGID_239_);}
	.st230{fill-rule:evenodd;clip-rule:evenodd;fill:url(#SVGID_240_);}
	.st231{fill-rule:evenodd;clip-rule:evenodd;fill:url(#SVGID_241_);}
	.st232{fill-rule:evenodd;clip-rule:evenodd;fill:url(#SVGID_242_);}
	.st233{fill-rule:evenodd;clip-rule:evenodd;fill:url(#SVGID_243_);}
	.st234{fill-rule:evenodd;clip-rule:evenodd;fill:url(#SVGID_244_);}
	.st235{fill-rule:evenodd;clip-rule:evenodd;fill:url(#SVGID_245_);}
	.st236{fill-rule:evenodd;clip-rule:evenodd;fill:url(#SVGID_246_);}
	.st237{fill-rule:evenodd;clip-rule:evenodd;fill:url(#SVGID_247_);}
	.st238{fill-rule:evenodd;clip-rule:evenodd;fill:url(#SVGID_248_);}
	.st239{fill-rule:evenodd;clip-rule:evenodd;fill:url(#SVGID_249_);}
	.st240{fill-rule:evenodd;clip-rule:evenodd;fill:url(#SVGID_250_);}
	.st241{fill-rule:evenodd;clip-rule:evenodd;fill:url(#SVGID_251_);}
	.st242{fill-rule:evenodd;clip-rule:evenodd;fill:url(#SVGID_252_);}
	.st243{fill-rule:evenodd;clip-rule:evenodd;fill:url(#SVGID_253_);}
	.st244{fill-rule:evenodd;clip-rule:evenodd;fill:url(#SVGID_254_);}
	.st245{fill-rule:evenodd;clip-rule:evenodd;fill:url(#SVGID_255_);}
	.st246{fill-rule:evenodd;clip-rule:evenodd;fill:url(#SVGID_256_);}
	.st247{fill-rule:evenodd;clip-rule:evenodd;fill:url(#SVGID_257_);}
	.st248{fill-rule:evenodd;clip-rule:evenodd;fill:url(#SVGID_258_);}
	.st249{fill-rule:evenodd;clip-rule:evenodd;fill:url(#SVGID_259_);}
	.st250{fill-rule:evenodd;clip-rule:evenodd;fill:url(#SVGID_260_);}
	.st251{fill-rule:evenodd;clip-rule:evenodd;fill:url(#SVGID_261_);}
	.st252{fill-rule:evenodd;clip-rule:evenodd;fill:url(#SVGID_262_);}
	.st253{fill-rule:evenodd;clip-rule:evenodd;fill:url(#SVGID_263_);}
	.st254{fill-rule:evenodd;clip-rule:evenodd;fill:url(#SVGID_264_);}
	.st255{fill-rule:evenodd;clip-rule:evenodd;fill:url(#SVGID_265_);}
	.st256{fill-rule:evenodd;clip-rule:evenodd;fill:url(#SVGID_266_);}
	.st257{fill-rule:evenodd;clip-rule:evenodd;fill:url(#SVGID_267_);}
	.st258{fill-rule:evenodd;clip-rule:evenodd;fill:url(#SVGID_268_);}
	.st259{fill-rule:evenodd;clip-rule:evenodd;fill:url(#SVGID_269_);}
	.st260{fill-rule:evenodd;clip-rule:evenodd;fill:url(#SVGID_270_);}
	.st261{fill-rule:evenodd;clip-rule:evenodd;fill:url(#SVGID_271_);}
	.st262{fill-rule:evenodd;clip-rule:evenodd;fill:url(#SVGID_272_);}
	.st263{fill-rule:evenodd;clip-rule:evenodd;fill:url(#SVGID_273_);}
	.st264{fill-rule:evenodd;clip-rule:evenodd;fill:url(#SVGID_274_);}
	.st265{fill-rule:evenodd;clip-rule:evenodd;fill:url(#SVGID_275_);}
	.st266{fill-rule:evenodd;clip-rule:evenodd;fill:url(#SVGID_276_);}
	.st267{fill-rule:evenodd;clip-rule:evenodd;fill:url(#SVGID_277_);}
	.st268{fill-rule:evenodd;clip-rule:evenodd;fill:url(#SVGID_278_);}
	.st269{fill-rule:evenodd;clip-rule:evenodd;fill:url(#SVGID_279_);}
	.st270{fill-rule:evenodd;clip-rule:evenodd;fill:url(#SVGID_280_);}
	.st271{fill-rule:evenodd;clip-rule:evenodd;fill:url(#SVGID_281_);}
	.st272{fill-rule:evenodd;clip-rule:evenodd;fill:url(#SVGID_282_);}
	.st273{fill-rule:evenodd;clip-rule:evenodd;fill:url(#SVGID_283_);}
	.st274{fill-rule:evenodd;clip-rule:evenodd;fill:url(#SVGID_284_);}
	.st275{fill-rule:evenodd;clip-rule:evenodd;fill:url(#SVGID_285_);}
	.st276{fill-rule:evenodd;clip-rule:evenodd;fill:url(#SVGID_286_);}
	.st277{fill-rule:evenodd;clip-rule:evenodd;fill:url(#SVGID_287_);}
	.st278{fill-rule:evenodd;clip-rule:evenodd;fill:url(#SVGID_288_);}
	.st279{fill-rule:evenodd;clip-rule:evenodd;fill:url(#SVGID_289_);}
	.st280{fill-rule:evenodd;clip-rule:evenodd;fill:url(#SVGID_290_);}
	.st281{fill-rule:evenodd;clip-rule:evenodd;fill:url(#SVGID_291_);}
	.st282{fill-rule:evenodd;clip-rule:evenodd;fill:url(#SVGID_292_);}
	.st283{fill-rule:evenodd;clip-rule:evenodd;fill:url(#SVGID_293_);}
	.st284{fill-rule:evenodd;clip-rule:evenodd;fill:url(#SVGID_294_);}
	.st285{fill-rule:evenodd;clip-rule:evenodd;fill:url(#SVGID_295_);}
	.st286{fill-rule:evenodd;clip-rule:evenodd;fill:url(#SVGID_296_);}
	.st287{fill-rule:evenodd;clip-rule:evenodd;fill:url(#SVGID_297_);}
	.st288{fill-rule:evenodd;clip-rule:evenodd;fill:url(#SVGID_298_);}
	.st289{fill-rule:evenodd;clip-rule:evenodd;fill:url(#SVGID_299_);}
	.st290{fill-rule:evenodd;clip-rule:evenodd;fill:url(#SVGID_300_);}
	.st291{fill-rule:evenodd;clip-rule:evenodd;fill:url(#SVGID_301_);}
	.st292{fill-rule:evenodd;clip-rule:evenodd;fill:url(#SVGID_302_);}
	.st293{fill-rule:evenodd;clip-rule:evenodd;fill:url(#SVGID_303_);}
	.st294{fill-rule:evenodd;clip-rule:evenodd;fill:url(#SVGID_304_);}
	.st295{fill-rule:evenodd;clip-rule:evenodd;fill:url(#SVGID_305_);}
	.st296{fill-rule:evenodd;clip-rule:evenodd;fill:url(#SVGID_306_);}
	.st297{fill-rule:evenodd;clip-rule:evenodd;fill:url(#SVGID_307_);}
	.st298{fill-rule:evenodd;clip-rule:evenodd;fill:url(#SVGID_308_);}
	.st299{fill-rule:evenodd;clip-rule:evenodd;fill:url(#SVGID_309_);}
	.st300{fill-rule:evenodd;clip-rule:evenodd;fill:url(#SVGID_310_);}
	.st301{fill-rule:evenodd;clip-rule:evenodd;fill:url(#SVGID_311_);}
	.st302{fill-rule:evenodd;clip-rule:evenodd;fill:url(#SVGID_312_);}
	.st303{fill-rule:evenodd;clip-rule:evenodd;fill:url(#SVGID_313_);}
	.st304{fill-rule:evenodd;clip-rule:evenodd;fill:url(#SVGID_314_);}
	.st305{fill-rule:evenodd;clip-rule:evenodd;fill:url(#SVGID_315_);}
	.st306{fill-rule:evenodd;clip-rule:evenodd;fill:url(#SVGID_316_);}
	.st307{fill-rule:evenodd;clip-rule:evenodd;fill:url(#SVGID_317_);}
	.st308{fill-rule:evenodd;clip-rule:evenodd;fill:url(#SVGID_318_);}
	.st309{fill-rule:evenodd;clip-rule:evenodd;fill:url(#SVGID_319_);}
	.st310{fill-rule:evenodd;clip-rule:evenodd;fill:url(#SVGID_320_);}
	.st311{fill-rule:evenodd;clip-rule:evenodd;fill:url(#SVGID_321_);}
	.st312{fill-rule:evenodd;clip-rule:evenodd;fill:url(#SVGID_322_);}
	.st313{fill-rule:evenodd;clip-rule:evenodd;fill:url(#SVGID_323_);}
	.st314{fill-rule:evenodd;clip-rule:evenodd;fill:url(#SVGID_324_);}
	.st315{fill-rule:evenodd;clip-rule:evenodd;fill:url(#SVGID_325_);}
	.st316{fill-rule:evenodd;clip-rule:evenodd;fill:url(#SVGID_326_);}
	.st317{fill-rule:evenodd;clip-rule:evenodd;fill:url(#SVGID_327_);}
	.st318{fill-rule:evenodd;clip-rule:evenodd;fill:url(#SVGID_328_);}
	.st319{fill-rule:evenodd;clip-rule:evenodd;fill:url(#SVGID_329_);}
	.st320{fill-rule:evenodd;clip-rule:evenodd;fill:url(#SVGID_330_);}
	.st321{fill-rule:evenodd;clip-rule:evenodd;fill:url(#SVGID_331_);}
	.st322{fill-rule:evenodd;clip-rule:evenodd;fill:url(#SVGID_332_);}
	.st323{fill-rule:evenodd;clip-rule:evenodd;fill:url(#SVGID_333_);}
	.st324{fill-rule:evenodd;clip-rule:evenodd;fill:url(#SVGID_334_);}
	.st325{fill-rule:evenodd;clip-rule:evenodd;fill:url(#SVGID_335_);}
	.st326{fill-rule:evenodd;clip-rule:evenodd;fill:url(#SVGID_336_);}
	.st327{fill-rule:evenodd;clip-rule:evenodd;fill:url(#SVGID_337_);}
	.st328{fill-rule:evenodd;clip-rule:evenodd;fill:url(#SVGID_338_);}
	.st329{fill-rule:evenodd;clip-rule:evenodd;fill:url(#SVGID_339_);}
	.st330{fill-rule:evenodd;clip-rule:evenodd;fill:url(#SVGID_340_);}
	.st331{fill-rule:evenodd;clip-rule:evenodd;fill:url(#SVGID_341_);}
	.st332{fill-rule:evenodd;clip-rule:evenodd;fill:url(#SVGID_342_);}
	.st333{fill-rule:evenodd;clip-rule:evenodd;fill:url(#SVGID_343_);}
	.st334{fill-rule:evenodd;clip-rule:evenodd;fill:url(#SVGID_344_);}
	.st335{fill-rule:evenodd;clip-rule:evenodd;fill:url(#SVGID_345_);}
	.st336{fill-rule:evenodd;clip-rule:evenodd;fill:url(#SVGID_346_);}
	.st337{fill-rule:evenodd;clip-rule:evenodd;fill:url(#SVGID_347_);}
	.st338{fill-rule:evenodd;clip-rule:evenodd;fill:url(#SVGID_348_);}
	.st339{fill-rule:evenodd;clip-rule:evenodd;fill:url(#SVGID_349_);}
	.st340{fill-rule:evenodd;clip-rule:evenodd;fill:url(#SVGID_350_);}
	.st341{fill-rule:evenodd;clip-rule:evenodd;fill:url(#SVGID_351_);}
	.st342{fill-rule:evenodd;clip-rule:evenodd;fill:url(#SVGID_352_);}
	.st343{fill-rule:evenodd;clip-rule:evenodd;fill:url(#SVGID_353_);}
	.st344{fill-rule:evenodd;clip-rule:evenodd;fill:url(#SVGID_354_);}
	.st345{fill-rule:evenodd;clip-rule:evenodd;fill:url(#SVGID_355_);}
	.st346{fill-rule:evenodd;clip-rule:evenodd;fill:url(#SVGID_356_);}
	.st347{fill-rule:evenodd;clip-rule:evenodd;fill:url(#SVGID_357_);}
	.st348{fill-rule:evenodd;clip-rule:evenodd;fill:url(#SVGID_358_);}
	.st349{fill-rule:evenodd;clip-rule:evenodd;fill:url(#SVGID_359_);}
	.st350{fill-rule:evenodd;clip-rule:evenodd;fill:url(#SVGID_360_);}
	.st351{fill-rule:evenodd;clip-rule:evenodd;fill:url(#SVGID_361_);}
	.st352{fill-rule:evenodd;clip-rule:evenodd;fill:url(#SVGID_362_);}
	.st353{fill-rule:evenodd;clip-rule:evenodd;fill:url(#SVGID_363_);}
	.st354{fill-rule:evenodd;clip-rule:evenodd;fill:url(#SVGID_364_);}
	.st355{fill-rule:evenodd;clip-rule:evenodd;fill:url(#SVGID_365_);}
	.st356{fill-rule:evenodd;clip-rule:evenodd;fill:url(#SVGID_366_);}
	.st357{fill-rule:evenodd;clip-rule:evenodd;fill:url(#SVGID_367_);}
	.st358{fill-rule:evenodd;clip-rule:evenodd;fill:url(#SVGID_368_);}
	.st359{fill-rule:evenodd;clip-rule:evenodd;fill:url(#SVGID_369_);}
	.st360{fill-rule:evenodd;clip-rule:evenodd;fill:url(#SVGID_370_);}
	.st361{fill-rule:evenodd;clip-rule:evenodd;fill:url(#SVGID_371_);}
	.st362{fill-rule:evenodd;clip-rule:evenodd;fill:url(#SVGID_372_);}
	.st363{fill-rule:evenodd;clip-rule:evenodd;fill:url(#SVGID_373_);}
	.st364{fill-rule:evenodd;clip-rule:evenodd;fill:url(#SVGID_374_);}
	.st365{fill-rule:evenodd;clip-rule:evenodd;fill:url(#SVGID_375_);}
	.st366{fill-rule:evenodd;clip-rule:evenodd;fill:url(#SVGID_376_);}
	.st367{fill-rule:evenodd;clip-rule:evenodd;fill:url(#SVGID_377_);}
	.st368{fill-rule:evenodd;clip-rule:evenodd;fill:url(#SVGID_378_);}
	.st369{fill-rule:evenodd;clip-rule:evenodd;fill:url(#SVGID_379_);}
	.st370{fill-rule:evenodd;clip-rule:evenodd;fill:url(#SVGID_380_);}
	.st371{fill-rule:evenodd;clip-rule:evenodd;fill:url(#SVGID_381_);}
	.st372{fill-rule:evenodd;clip-rule:evenodd;fill:url(#SVGID_382_);}
	.st373{fill-rule:evenodd;clip-rule:evenodd;fill:url(#SVGID_383_);}
	.st374{fill-rule:evenodd;clip-rule:evenodd;fill:url(#SVGID_384_);}
	.st375{fill-rule:evenodd;clip-rule:evenodd;fill:url(#SVGID_385_);}
	.st376{fill-rule:evenodd;clip-rule:evenodd;fill:url(#SVGID_386_);}
	.st377{fill-rule:evenodd;clip-rule:evenodd;fill:url(#SVGID_387_);}
	.st378{fill-rule:evenodd;clip-rule:evenodd;fill:url(#SVGID_388_);}
	.st379{fill-rule:evenodd;clip-rule:evenodd;fill:url(#SVGID_389_);}
	.st380{fill-rule:evenodd;clip-rule:evenodd;fill:url(#SVGID_390_);}
	.st381{fill-rule:evenodd;clip-rule:evenodd;fill:url(#SVGID_391_);}
	.st382{fill-rule:evenodd;clip-rule:evenodd;fill:url(#SVGID_392_);}
	.st383{fill-rule:evenodd;clip-rule:evenodd;fill:url(#SVGID_393_);}
	.st384{fill-rule:evenodd;clip-rule:evenodd;fill:url(#SVGID_394_);}
	.st385{fill-rule:evenodd;clip-rule:evenodd;fill:url(#SVGID_395_);}
	.st386{fill-rule:evenodd;clip-rule:evenodd;fill:url(#SVGID_396_);}
	.st387{fill-rule:evenodd;clip-rule:evenodd;fill:url(#SVGID_397_);}
	.st388{fill-rule:evenodd;clip-rule:evenodd;fill:url(#SVGID_398_);}
	.st389{fill-rule:evenodd;clip-rule:evenodd;fill:url(#SVGID_399_);}
	.st390{fill-rule:evenodd;clip-rule:evenodd;fill:url(#SVGID_400_);}
	.st391{fill-rule:evenodd;clip-rule:evenodd;fill:url(#SVGID_401_);}
	.st392{fill-rule:evenodd;clip-rule:evenodd;fill:url(#SVGID_402_);}
	.st393{fill-rule:evenodd;clip-rule:evenodd;fill:url(#SVGID_403_);}
	.st394{fill-rule:evenodd;clip-rule:evenodd;fill:url(#SVGID_404_);}
	.st395{fill-rule:evenodd;clip-rule:evenodd;fill:url(#SVGID_405_);}
	.st396{fill-rule:evenodd;clip-rule:evenodd;fill:url(#SVGID_406_);}
	.st397{fill-rule:evenodd;clip-rule:evenodd;fill:url(#SVGID_407_);}
	.st398{fill-rule:evenodd;clip-rule:evenodd;fill:url(#SVGID_408_);}
	.st399{fill-rule:evenodd;clip-rule:evenodd;fill:url(#SVGID_409_);}
	.st400{fill-rule:evenodd;clip-rule:evenodd;fill:url(#SVGID_410_);}
	.st401{fill-rule:evenodd;clip-rule:evenodd;fill:url(#SVGID_411_);}
	.st402{fill-rule:evenodd;clip-rule:evenodd;fill:url(#SVGID_412_);}
	.st403{fill-rule:evenodd;clip-rule:evenodd;fill:url(#SVGID_413_);}
	.st404{fill-rule:evenodd;clip-rule:evenodd;fill:url(#SVGID_414_);}
	.st405{fill-rule:evenodd;clip-rule:evenodd;fill:url(#SVGID_415_);}
	.st406{fill-rule:evenodd;clip-rule:evenodd;fill:url(#SVGID_416_);}
	.st407{fill-rule:evenodd;clip-rule:evenodd;fill:url(#SVGID_417_);}
	.st408{fill-rule:evenodd;clip-rule:evenodd;fill:url(#SVGID_418_);}
	.st409{fill-rule:evenodd;clip-rule:evenodd;fill:url(#SVGID_419_);}
	.st410{fill-rule:evenodd;clip-rule:evenodd;fill:url(#SVGID_420_);}
	.st411{fill-rule:evenodd;clip-rule:evenodd;fill:url(#SVGID_421_);}
	.st412{fill-rule:evenodd;clip-rule:evenodd;fill:url(#SVGID_422_);}
	.st413{fill-rule:evenodd;clip-rule:evenodd;fill:url(#SVGID_423_);}
	.st414{fill-rule:evenodd;clip-rule:evenodd;fill:url(#SVGID_424_);}
	.st415{fill-rule:evenodd;clip-rule:evenodd;fill:url(#SVGID_425_);}
	.st416{fill-rule:evenodd;clip-rule:evenodd;fill:url(#SVGID_426_);}
	.st417{fill-rule:evenodd;clip-rule:evenodd;fill:url(#SVGID_427_);}
	.st418{fill-rule:evenodd;clip-rule:evenodd;fill:url(#SVGID_428_);}
	.st419{fill-rule:evenodd;clip-rule:evenodd;fill:url(#SVGID_429_);}
	.st420{fill-rule:evenodd;clip-rule:evenodd;fill:url(#SVGID_430_);}
	.st421{fill-rule:evenodd;clip-rule:evenodd;fill:url(#SVGID_431_);}
	.st422{fill-rule:evenodd;clip-rule:evenodd;fill:url(#SVGID_432_);}
	.st423{fill-rule:evenodd;clip-rule:evenodd;fill:url(#SVGID_433_);}
	.st424{fill-rule:evenodd;clip-rule:evenodd;fill:url(#SVGID_434_);}
	.st425{fill-rule:evenodd;clip-rule:evenodd;fill:url(#SVGID_435_);}
	.st426{fill-rule:evenodd;clip-rule:evenodd;fill:url(#SVGID_436_);}
	.st427{fill-rule:evenodd;clip-rule:evenodd;fill:url(#SVGID_437_);}
	.st428{fill-rule:evenodd;clip-rule:evenodd;fill:url(#SVGID_438_);}
	.st429{fill-rule:evenodd;clip-rule:evenodd;fill:url(#SVGID_439_);}
	.st430{fill-rule:evenodd;clip-rule:evenodd;fill:url(#SVGID_440_);}
	.st431{fill-rule:evenodd;clip-rule:evenodd;fill:url(#SVGID_441_);}
	.st432{fill-rule:evenodd;clip-rule:evenodd;fill:url(#SVGID_442_);}
	.st433{fill-rule:evenodd;clip-rule:evenodd;fill:url(#SVGID_443_);}
	.st434{fill-rule:evenodd;clip-rule:evenodd;fill:url(#SVGID_444_);}
	.st435{fill-rule:evenodd;clip-rule:evenodd;fill:url(#SVGID_445_);}
	.st436{fill-rule:evenodd;clip-rule:evenodd;fill:url(#SVGID_446_);}
	.st437{fill-rule:evenodd;clip-rule:evenodd;fill:url(#SVGID_447_);}
	.st438{fill-rule:evenodd;clip-rule:evenodd;fill:url(#SVGID_448_);}
	.st439{fill-rule:evenodd;clip-rule:evenodd;fill:url(#SVGID_449_);}
	.st440{fill-rule:evenodd;clip-rule:evenodd;fill:url(#SVGID_450_);}
	.st441{fill-rule:evenodd;clip-rule:evenodd;fill:url(#SVGID_451_);}
	.st442{fill-rule:evenodd;clip-rule:evenodd;fill:url(#SVGID_452_);}
	.st443{fill-rule:evenodd;clip-rule:evenodd;fill:url(#SVGID_453_);}
	.st444{fill-rule:evenodd;clip-rule:evenodd;fill:url(#SVGID_454_);}
	.st445{fill-rule:evenodd;clip-rule:evenodd;fill:url(#SVGID_455_);}
	.st446{fill-rule:evenodd;clip-rule:evenodd;fill:url(#SVGID_456_);}
	.st447{fill-rule:evenodd;clip-rule:evenodd;fill:url(#SVGID_457_);}
	.st448{fill-rule:evenodd;clip-rule:evenodd;fill:url(#SVGID_458_);}
	.st449{fill-rule:evenodd;clip-rule:evenodd;fill:url(#SVGID_459_);}
	.st450{fill-rule:evenodd;clip-rule:evenodd;fill:url(#SVGID_460_);}
	.st451{fill-rule:evenodd;clip-rule:evenodd;fill:url(#SVGID_461_);}
	.st452{fill-rule:evenodd;clip-rule:evenodd;fill:url(#SVGID_462_);}
	.st453{fill-rule:evenodd;clip-rule:evenodd;fill:url(#SVGID_463_);}
	.st454{fill-rule:evenodd;clip-rule:evenodd;fill:url(#SVGID_464_);}
	.st455{fill-rule:evenodd;clip-rule:evenodd;fill:url(#SVGID_465_);}
	.st456{fill-rule:evenodd;clip-rule:evenodd;fill:url(#SVGID_466_);}
	.st457{fill-rule:evenodd;clip-rule:evenodd;fill:url(#SVGID_467_);}
	.st458{fill-rule:evenodd;clip-rule:evenodd;fill:url(#SVGID_468_);}
	.st459{fill-rule:evenodd;clip-rule:evenodd;fill:url(#SVGID_469_);}
	.st460{fill-rule:evenodd;clip-rule:evenodd;fill:url(#SVGID_470_);}
	.st461{fill-rule:evenodd;clip-rule:evenodd;fill:url(#SVGID_471_);}
	.st462{fill-rule:evenodd;clip-rule:evenodd;fill:url(#SVGID_472_);}
	.st463{fill-rule:evenodd;clip-rule:evenodd;fill:url(#SVGID_473_);}
	.st464{fill-rule:evenodd;clip-rule:evenodd;fill:url(#SVGID_474_);}
	.st465{fill-rule:evenodd;clip-rule:evenodd;fill:url(#SVGID_475_);}
	.st466{fill-rule:evenodd;clip-rule:evenodd;fill:url(#SVGID_476_);}
	.st467{fill-rule:evenodd;clip-rule:evenodd;fill:url(#SVGID_477_);}
	.st468{fill-rule:evenodd;clip-rule:evenodd;fill:url(#SVGID_478_);}
	.st469{fill-rule:evenodd;clip-rule:evenodd;fill:url(#SVGID_479_);}
	.st470{fill-rule:evenodd;clip-rule:evenodd;fill:url(#SVGID_480_);}
	.st471{fill-rule:evenodd;clip-rule:evenodd;fill:url(#SVGID_481_);}
	.st472{fill-rule:evenodd;clip-rule:evenodd;fill:url(#SVGID_482_);}
	.st473{fill-rule:evenodd;clip-rule:evenodd;fill:url(#SVGID_483_);}
	.st474{fill-rule:evenodd;clip-rule:evenodd;fill:url(#SVGID_484_);}
	.st475{fill-rule:evenodd;clip-rule:evenodd;fill:url(#SVGID_485_);}
	.st476{fill-rule:evenodd;clip-rule:evenodd;fill:url(#SVGID_486_);}
	.st477{fill-rule:evenodd;clip-rule:evenodd;fill:url(#SVGID_487_);}
	.st478{fill-rule:evenodd;clip-rule:evenodd;fill:url(#SVGID_488_);}
	.st479{fill-rule:evenodd;clip-rule:evenodd;fill:url(#SVGID_489_);}
	.st480{fill-rule:evenodd;clip-rule:evenodd;fill:url(#SVGID_490_);}
	.st481{fill-rule:evenodd;clip-rule:evenodd;fill:url(#SVGID_491_);}
	.st482{fill-rule:evenodd;clip-rule:evenodd;fill:url(#SVGID_492_);}
	.st483{fill-rule:evenodd;clip-rule:evenodd;fill:url(#SVGID_493_);}
	.st484{fill-rule:evenodd;clip-rule:evenodd;fill:url(#SVGID_494_);}
	.st485{fill-rule:evenodd;clip-rule:evenodd;fill:url(#SVGID_495_);}
	.st486{fill-rule:evenodd;clip-rule:evenodd;fill:url(#SVGID_496_);}
	.st487{fill-rule:evenodd;clip-rule:evenodd;fill:url(#SVGID_497_);}
	.st488{fill-rule:evenodd;clip-rule:evenodd;fill:url(#SVGID_498_);}
	.st489{fill-rule:evenodd;clip-rule:evenodd;fill:url(#SVGID_499_);}
	.st490{fill-rule:evenodd;clip-rule:evenodd;fill:url(#SVGID_500_);}
	.st491{fill-rule:evenodd;clip-rule:evenodd;fill:url(#SVGID_501_);}
	.st492{fill-rule:evenodd;clip-rule:evenodd;fill:url(#SVGID_502_);}
	.st493{fill-rule:evenodd;clip-rule:evenodd;fill:url(#SVGID_503_);}
	.st494{fill-rule:evenodd;clip-rule:evenodd;fill:url(#SVGID_504_);}
	.st495{fill-rule:evenodd;clip-rule:evenodd;fill:url(#SVGID_505_);}
	.st496{fill-rule:evenodd;clip-rule:evenodd;fill:url(#SVGID_506_);}
	.st497{fill-rule:evenodd;clip-rule:evenodd;fill:url(#SVGID_507_);}
	.st498{fill-rule:evenodd;clip-rule:evenodd;fill:url(#SVGID_508_);}
	.st499{fill-rule:evenodd;clip-rule:evenodd;fill:url(#SVGID_509_);}
	.st500{fill-rule:evenodd;clip-rule:evenodd;fill:url(#SVGID_510_);}
	.st501{fill-rule:evenodd;clip-rule:evenodd;fill:url(#SVGID_511_);}
	.st502{fill-rule:evenodd;clip-rule:evenodd;fill:url(#SVGID_512_);}
	.st503{fill-rule:evenodd;clip-rule:evenodd;fill:url(#SVGID_513_);}
	.st504{fill-rule:evenodd;clip-rule:evenodd;fill:url(#SVGID_514_);}
	.st505{fill-rule:evenodd;clip-rule:evenodd;fill:url(#SVGID_515_);}
	.st506{fill-rule:evenodd;clip-rule:evenodd;fill:url(#SVGID_516_);}
	.st507{fill-rule:evenodd;clip-rule:evenodd;fill:url(#SVGID_517_);}
	.st508{fill-rule:evenodd;clip-rule:evenodd;fill:url(#SVGID_518_);}
	.st509{fill-rule:evenodd;clip-rule:evenodd;fill:url(#SVGID_519_);}
	.st510{fill-rule:evenodd;clip-rule:evenodd;fill:url(#SVGID_520_);}
	.st511{fill-rule:evenodd;clip-rule:evenodd;fill:url(#SVGID_521_);}
	.st512{fill-rule:evenodd;clip-rule:evenodd;fill:url(#SVGID_522_);}
	.st513{fill-rule:evenodd;clip-rule:evenodd;fill:url(#SVGID_523_);}
	.st514{fill-rule:evenodd;clip-rule:evenodd;fill:url(#SVGID_524_);}
	.st515{fill-rule:evenodd;clip-rule:evenodd;fill:url(#SVGID_525_);}
	.st516{fill-rule:evenodd;clip-rule:evenodd;fill:url(#SVGID_526_);}
	.st517{fill-rule:evenodd;clip-rule:evenodd;fill:url(#SVGID_527_);}
	.st518{fill-rule:evenodd;clip-rule:evenodd;fill:url(#SVGID_528_);}
	.st519{fill-rule:evenodd;clip-rule:evenodd;fill:url(#SVGID_529_);}
	.st520{fill-rule:evenodd;clip-rule:evenodd;fill:url(#SVGID_530_);}
	.st521{fill-rule:evenodd;clip-rule:evenodd;fill:url(#SVGID_531_);}
	.st522{fill-rule:evenodd;clip-rule:evenodd;fill:url(#SVGID_532_);}
	.st523{fill-rule:evenodd;clip-rule:evenodd;fill:url(#SVGID_533_);}
	.st524{fill-rule:evenodd;clip-rule:evenodd;fill:url(#SVGID_534_);}
	.st525{fill-rule:evenodd;clip-rule:evenodd;fill:url(#SVGID_535_);}
	.st526{fill-rule:evenodd;clip-rule:evenodd;fill:url(#SVGID_536_);}
	.st527{fill-rule:evenodd;clip-rule:evenodd;fill:url(#SVGID_537_);}
	.st528{fill-rule:evenodd;clip-rule:evenodd;fill:url(#SVGID_538_);}
	.st529{fill-rule:evenodd;clip-rule:evenodd;fill:url(#SVGID_539_);}
	.st530{fill-rule:evenodd;clip-rule:evenodd;fill:url(#SVGID_540_);}
	.st531{fill-rule:evenodd;clip-rule:evenodd;fill:url(#SVGID_541_);}
	.st532{fill-rule:evenodd;clip-rule:evenodd;fill:url(#SVGID_542_);}
	.st533{fill-rule:evenodd;clip-rule:evenodd;fill:url(#SVGID_543_);}
	.st534{fill-rule:evenodd;clip-rule:evenodd;fill:url(#SVGID_544_);}
	.st535{fill-rule:evenodd;clip-rule:evenodd;fill:url(#SVGID_545_);}
	.st536{fill-rule:evenodd;clip-rule:evenodd;fill:url(#SVGID_546_);}
	.st537{fill-rule:evenodd;clip-rule:evenodd;fill:url(#SVGID_547_);}
	.st538{fill-rule:evenodd;clip-rule:evenodd;fill:url(#SVGID_548_);}
	.st539{fill-rule:evenodd;clip-rule:evenodd;fill:url(#SVGID_549_);}
	.st540{fill-rule:evenodd;clip-rule:evenodd;fill:url(#SVGID_550_);}
	.st541{fill-rule:evenodd;clip-rule:evenodd;fill:url(#SVGID_551_);}
	.st542{fill-rule:evenodd;clip-rule:evenodd;fill:url(#SVGID_552_);}
	.st543{fill-rule:evenodd;clip-rule:evenodd;fill:url(#SVGID_553_);}
	.st544{fill-rule:evenodd;clip-rule:evenodd;fill:url(#SVGID_554_);}
	.st545{fill-rule:evenodd;clip-rule:evenodd;fill:url(#SVGID_555_);}
	.st546{fill-rule:evenodd;clip-rule:evenodd;fill:url(#SVGID_556_);}
	.st547{fill-rule:evenodd;clip-rule:evenodd;fill:url(#SVGID_557_);}
	.st548{fill-rule:evenodd;clip-rule:evenodd;fill:url(#SVGID_558_);}
	.st549{fill-rule:evenodd;clip-rule:evenodd;fill:url(#SVGID_559_);}
	.st550{fill-rule:evenodd;clip-rule:evenodd;fill:url(#SVGID_560_);}
	.st551{fill-rule:evenodd;clip-rule:evenodd;fill:url(#SVGID_561_);}
	.st552{fill-rule:evenodd;clip-rule:evenodd;fill:url(#SVGID_562_);}
	.st553{fill-rule:evenodd;clip-rule:evenodd;fill:url(#SVGID_563_);}
	.st554{fill-rule:evenodd;clip-rule:evenodd;fill:url(#SVGID_564_);}
	.st555{fill-rule:evenodd;clip-rule:evenodd;fill:url(#SVGID_565_);}
	.st556{fill-rule:evenodd;clip-rule:evenodd;fill:url(#SVGID_566_);}
	.st557{fill-rule:evenodd;clip-rule:evenodd;fill:url(#SVGID_567_);}
	.st558{fill-rule:evenodd;clip-rule:evenodd;fill:url(#SVGID_568_);}
	.st559{fill-rule:evenodd;clip-rule:evenodd;fill:url(#SVGID_569_);}
	.st560{fill-rule:evenodd;clip-rule:evenodd;fill:url(#SVGID_570_);}
	.st561{fill-rule:evenodd;clip-rule:evenodd;fill:url(#SVGID_571_);}
	.st562{fill-rule:evenodd;clip-rule:evenodd;fill:url(#SVGID_572_);}
	.st563{fill-rule:evenodd;clip-rule:evenodd;fill:url(#SVGID_573_);}
	.st564{fill-rule:evenodd;clip-rule:evenodd;fill:url(#SVGID_574_);}
	.st565{fill-rule:evenodd;clip-rule:evenodd;fill:url(#SVGID_575_);}
	.st566{fill-rule:evenodd;clip-rule:evenodd;fill:url(#SVGID_576_);}
	.st567{fill-rule:evenodd;clip-rule:evenodd;fill:url(#SVGID_577_);}
	.st568{fill-rule:evenodd;clip-rule:evenodd;fill:url(#SVGID_578_);}
	.st569{fill-rule:evenodd;clip-rule:evenodd;fill:url(#SVGID_579_);}
	.st570{fill-rule:evenodd;clip-rule:evenodd;fill:url(#SVGID_580_);}
	.st571{fill-rule:evenodd;clip-rule:evenodd;fill:url(#SVGID_581_);}
	.st572{fill-rule:evenodd;clip-rule:evenodd;fill:url(#SVGID_582_);}
	.st573{fill-rule:evenodd;clip-rule:evenodd;fill:url(#SVGID_583_);}
	.st574{fill-rule:evenodd;clip-rule:evenodd;fill:url(#SVGID_584_);}
	.st575{fill-rule:evenodd;clip-rule:evenodd;fill:url(#SVGID_585_);}
	.st576{fill-rule:evenodd;clip-rule:evenodd;fill:url(#SVGID_586_);}
	.st577{fill-rule:evenodd;clip-rule:evenodd;fill:url(#SVGID_587_);}
	.st578{fill-rule:evenodd;clip-rule:evenodd;fill:url(#SVGID_588_);}
	.st579{fill-rule:evenodd;clip-rule:evenodd;fill:url(#SVGID_589_);}
	.st580{fill-rule:evenodd;clip-rule:evenodd;fill:url(#SVGID_590_);}
	.st581{fill-rule:evenodd;clip-rule:evenodd;fill:url(#SVGID_591_);}
	.st582{fill-rule:evenodd;clip-rule:evenodd;fill:url(#SVGID_592_);}
	.st583{fill-rule:evenodd;clip-rule:evenodd;fill:url(#SVGID_593_);}
	.st584{fill-rule:evenodd;clip-rule:evenodd;fill:url(#SVGID_594_);}
	.st585{fill-rule:evenodd;clip-rule:evenodd;fill:url(#SVGID_595_);}
	.st586{fill-rule:evenodd;clip-rule:evenodd;fill:url(#SVGID_596_);}
	.st587{fill-rule:evenodd;clip-rule:evenodd;fill:url(#SVGID_597_);}
	.st588{fill-rule:evenodd;clip-rule:evenodd;fill:url(#SVGID_598_);}
	.st589{fill-rule:evenodd;clip-rule:evenodd;fill:url(#SVGID_599_);}
	.st590{fill-rule:evenodd;clip-rule:evenodd;fill:url(#SVGID_600_);}
	.st591{fill-rule:evenodd;clip-rule:evenodd;fill:url(#SVGID_601_);}
	.st592{fill-rule:evenodd;clip-rule:evenodd;fill:url(#SVGID_602_);}
	.st593{fill-rule:evenodd;clip-rule:evenodd;fill:url(#SVGID_603_);}
	.st594{fill-rule:evenodd;clip-rule:evenodd;fill:url(#SVGID_604_);}
	.st595{fill-rule:evenodd;clip-rule:evenodd;fill:url(#SVGID_605_);}
	.st596{fill-rule:evenodd;clip-rule:evenodd;fill:url(#SVGID_606_);}
	.st597{fill-rule:evenodd;clip-rule:evenodd;fill:url(#SVGID_607_);}
	.st598{fill-rule:evenodd;clip-rule:evenodd;fill:url(#SVGID_608_);}
	.st599{fill-rule:evenodd;clip-rule:evenodd;fill:url(#SVGID_609_);}
	.st600{fill-rule:evenodd;clip-rule:evenodd;fill:url(#SVGID_610_);}
	.st601{fill-rule:evenodd;clip-rule:evenodd;fill:url(#SVGID_611_);}
	.st602{fill-rule:evenodd;clip-rule:evenodd;fill:url(#SVGID_612_);}
	.st603{fill-rule:evenodd;clip-rule:evenodd;fill:url(#SVGID_613_);}
	.st604{fill-rule:evenodd;clip-rule:evenodd;fill:url(#SVGID_614_);}
	.st605{fill-rule:evenodd;clip-rule:evenodd;fill:url(#SVGID_615_);}
	.st606{fill-rule:evenodd;clip-rule:evenodd;fill:url(#SVGID_616_);}
	.st607{fill-rule:evenodd;clip-rule:evenodd;fill:url(#SVGID_617_);}
	.st608{fill-rule:evenodd;clip-rule:evenodd;fill:url(#SVGID_618_);}
	.st609{fill-rule:evenodd;clip-rule:evenodd;fill:url(#SVGID_619_);}
	.st610{fill-rule:evenodd;clip-rule:evenodd;fill:url(#SVGID_620_);}
	.st611{fill-rule:evenodd;clip-rule:evenodd;fill:url(#SVGID_621_);}
	.st612{fill-rule:evenodd;clip-rule:evenodd;fill:url(#SVGID_622_);}
	.st613{fill-rule:evenodd;clip-rule:evenodd;fill:url(#SVGID_623_);}
	.st614{fill-rule:evenodd;clip-rule:evenodd;fill:url(#SVGID_624_);}
	.st615{fill-rule:evenodd;clip-rule:evenodd;fill:url(#SVGID_625_);}
	.st616{fill-rule:evenodd;clip-rule:evenodd;fill:url(#SVGID_626_);}
	.st617{fill-rule:evenodd;clip-rule:evenodd;fill:url(#SVGID_627_);}
	.st618{fill-rule:evenodd;clip-rule:evenodd;fill:url(#SVGID_628_);}
	.st619{fill-rule:evenodd;clip-rule:evenodd;fill:url(#SVGID_629_);}
	.st620{fill-rule:evenodd;clip-rule:evenodd;fill:url(#SVGID_630_);}
	.st621{fill-rule:evenodd;clip-rule:evenodd;fill:url(#SVGID_631_);}
	.st622{fill-rule:evenodd;clip-rule:evenodd;fill:url(#SVGID_632_);}
	.st623{fill-rule:evenodd;clip-rule:evenodd;fill:url(#SVGID_633_);}
	.st624{fill-rule:evenodd;clip-rule:evenodd;fill:url(#SVGID_634_);}
	.st625{fill-rule:evenodd;clip-rule:evenodd;fill:url(#SVGID_635_);}
	.st626{fill-rule:evenodd;clip-rule:evenodd;fill:url(#SVGID_636_);}
	.st627{fill-rule:evenodd;clip-rule:evenodd;fill:url(#SVGID_637_);}
	.st628{fill-rule:evenodd;clip-rule:evenodd;fill:url(#SVGID_638_);}
	.st629{fill-rule:evenodd;clip-rule:evenodd;fill:url(#SVGID_639_);}
	.st630{fill-rule:evenodd;clip-rule:evenodd;fill:url(#SVGID_640_);}
	.st631{fill-rule:evenodd;clip-rule:evenodd;fill:url(#SVGID_641_);}
	.st632{fill-rule:evenodd;clip-rule:evenodd;fill:url(#SVGID_642_);}
	.st633{fill-rule:evenodd;clip-rule:evenodd;fill:url(#SVGID_643_);}
	.st634{fill-rule:evenodd;clip-rule:evenodd;fill:url(#SVGID_644_);}
	.st635{fill-rule:evenodd;clip-rule:evenodd;fill:url(#SVGID_645_);}
	.st636{fill-rule:evenodd;clip-rule:evenodd;fill:url(#SVGID_646_);}
	.st637{fill-rule:evenodd;clip-rule:evenodd;fill:url(#SVGID_647_);}
	.st638{fill-rule:evenodd;clip-rule:evenodd;fill:url(#SVGID_648_);}
	.st639{fill-rule:evenodd;clip-rule:evenodd;fill:url(#SVGID_649_);}
	.st640{fill-rule:evenodd;clip-rule:evenodd;fill:url(#SVGID_650_);}
	.st641{fill-rule:evenodd;clip-rule:evenodd;fill:url(#SVGID_651_);}
	.st642{fill-rule:evenodd;clip-rule:evenodd;fill:url(#SVGID_652_);}
	.st643{fill-rule:evenodd;clip-rule:evenodd;fill:url(#SVGID_653_);}
	.st644{fill-rule:evenodd;clip-rule:evenodd;fill:url(#SVGID_654_);}
	.st645{fill-rule:evenodd;clip-rule:evenodd;fill:url(#SVGID_655_);}
	.st646{fill-rule:evenodd;clip-rule:evenodd;fill:url(#SVGID_656_);}
	.st647{fill-rule:evenodd;clip-rule:evenodd;fill:url(#SVGID_657_);}
	.st648{fill-rule:evenodd;clip-rule:evenodd;fill:url(#SVGID_658_);}
	.st649{fill-rule:evenodd;clip-rule:evenodd;fill:url(#SVGID_659_);}
	.st650{fill-rule:evenodd;clip-rule:evenodd;fill:url(#SVGID_660_);}
	.st651{fill-rule:evenodd;clip-rule:evenodd;fill:url(#SVGID_661_);}
	.st652{fill-rule:evenodd;clip-rule:evenodd;fill:url(#SVGID_662_);}
	.st653{fill-rule:evenodd;clip-rule:evenodd;fill:url(#SVGID_663_);}
	.st654{fill-rule:evenodd;clip-rule:evenodd;fill:url(#SVGID_664_);}
	.st655{fill-rule:evenodd;clip-rule:evenodd;fill:url(#SVGID_665_);}
	.st656{fill-rule:evenodd;clip-rule:evenodd;fill:url(#SVGID_666_);}
	.st657{fill-rule:evenodd;clip-rule:evenodd;fill:url(#SVGID_667_);}
	.st658{fill-rule:evenodd;clip-rule:evenodd;fill:url(#SVGID_668_);}
	.st659{fill-rule:evenodd;clip-rule:evenodd;fill:url(#SVGID_669_);}
	.st660{fill-rule:evenodd;clip-rule:evenodd;fill:url(#SVGID_670_);}
	.st661{fill-rule:evenodd;clip-rule:evenodd;fill:url(#SVGID_671_);}
	.st662{fill-rule:evenodd;clip-rule:evenodd;fill:url(#SVGID_672_);}
	.st663{fill-rule:evenodd;clip-rule:evenodd;fill:url(#SVGID_673_);}
	.st664{fill-rule:evenodd;clip-rule:evenodd;fill:url(#SVGID_674_);}
	.st665{fill-rule:evenodd;clip-rule:evenodd;fill:url(#SVGID_675_);}
	.st666{fill-rule:evenodd;clip-rule:evenodd;fill:url(#SVGID_676_);}
	.st667{fill-rule:evenodd;clip-rule:evenodd;fill:url(#SVGID_677_);}
	.st668{fill-rule:evenodd;clip-rule:evenodd;fill:url(#SVGID_678_);}
	.st669{fill-rule:evenodd;clip-rule:evenodd;fill:url(#SVGID_679_);}
	.st670{fill-rule:evenodd;clip-rule:evenodd;fill:url(#SVGID_680_);}
	.st671{fill-rule:evenodd;clip-rule:evenodd;fill:url(#SVGID_681_);}
	.st672{fill-rule:evenodd;clip-rule:evenodd;fill:url(#SVGID_682_);}
	.st673{fill-rule:evenodd;clip-rule:evenodd;fill:url(#SVGID_683_);}
	.st674{fill-rule:evenodd;clip-rule:evenodd;fill:url(#SVGID_684_);}
	.st675{fill-rule:evenodd;clip-rule:evenodd;fill:url(#SVGID_685_);}
	.st676{fill-rule:evenodd;clip-rule:evenodd;fill:url(#SVGID_686_);}
	.st677{fill-rule:evenodd;clip-rule:evenodd;fill:url(#SVGID_687_);}
	.st678{fill-rule:evenodd;clip-rule:evenodd;fill:url(#SVGID_688_);}
	.st679{fill-rule:evenodd;clip-rule:evenodd;fill:url(#SVGID_689_);}
	.st680{fill-rule:evenodd;clip-rule:evenodd;fill:url(#SVGID_690_);}
	.st681{fill-rule:evenodd;clip-rule:evenodd;fill:url(#SVGID_691_);}
	.st682{fill-rule:evenodd;clip-rule:evenodd;fill:url(#SVGID_692_);}
	.st683{fill-rule:evenodd;clip-rule:evenodd;fill:url(#SVGID_693_);}
	.st684{fill-rule:evenodd;clip-rule:evenodd;fill:url(#SVGID_694_);}
	.st685{fill-rule:evenodd;clip-rule:evenodd;fill:url(#SVGID_695_);}
	.st686{fill-rule:evenodd;clip-rule:evenodd;fill:url(#SVGID_696_);}
	.st687{fill-rule:evenodd;clip-rule:evenodd;fill:url(#SVGID_697_);}
	.st688{fill-rule:evenodd;clip-rule:evenodd;fill:url(#SVGID_698_);}
	.st689{fill-rule:evenodd;clip-rule:evenodd;fill:url(#SVGID_699_);}
	.st690{fill-rule:evenodd;clip-rule:evenodd;fill:url(#SVGID_700_);}
	.st691{fill-rule:evenodd;clip-rule:evenodd;fill:url(#SVGID_701_);}
	.st692{fill-rule:evenodd;clip-rule:evenodd;fill:url(#SVGID_702_);}
	.st693{fill-rule:evenodd;clip-rule:evenodd;fill:url(#SVGID_703_);}
	.st694{fill-rule:evenodd;clip-rule:evenodd;fill:url(#SVGID_704_);}
	.st695{fill-rule:evenodd;clip-rule:evenodd;fill:url(#SVGID_705_);}
	.st696{fill-rule:evenodd;clip-rule:evenodd;fill:url(#SVGID_706_);}
	.st697{fill-rule:evenodd;clip-rule:evenodd;fill:url(#SVGID_707_);}
	.st698{fill-rule:evenodd;clip-rule:evenodd;fill:url(#SVGID_708_);}
	.st699{fill-rule:evenodd;clip-rule:evenodd;fill:url(#SVGID_709_);}
	.st700{fill-rule:evenodd;clip-rule:evenodd;fill:url(#SVGID_710_);}
	.st701{fill-rule:evenodd;clip-rule:evenodd;fill:url(#SVGID_711_);}
	.st702{fill-rule:evenodd;clip-rule:evenodd;fill:url(#SVGID_712_);}
	.st703{fill-rule:evenodd;clip-rule:evenodd;fill:url(#SVGID_713_);}
	.st704{fill-rule:evenodd;clip-rule:evenodd;fill:url(#SVGID_714_);}
	.st705{fill-rule:evenodd;clip-rule:evenodd;fill:url(#SVGID_715_);}
	.st706{fill-rule:evenodd;clip-rule:evenodd;fill:url(#SVGID_716_);}
	.st707{fill-rule:evenodd;clip-rule:evenodd;fill:url(#SVGID_717_);}
	.st708{fill-rule:evenodd;clip-rule:evenodd;fill:url(#SVGID_718_);}
	.st709{fill-rule:evenodd;clip-rule:evenodd;fill:url(#SVGID_719_);}
	.st710{fill-rule:evenodd;clip-rule:evenodd;fill:url(#SVGID_720_);}
	.st711{fill-rule:evenodd;clip-rule:evenodd;fill:url(#SVGID_721_);}
	.st712{fill-rule:evenodd;clip-rule:evenodd;fill:url(#SVGID_722_);}
	.st713{fill-rule:evenodd;clip-rule:evenodd;fill:url(#SVGID_723_);}
	.st714{fill-rule:evenodd;clip-rule:evenodd;fill:url(#SVGID_724_);}
	.st715{fill-rule:evenodd;clip-rule:evenodd;fill:url(#SVGID_725_);}
	.st716{fill-rule:evenodd;clip-rule:evenodd;fill:url(#SVGID_726_);}
	.st717{fill-rule:evenodd;clip-rule:evenodd;fill:url(#SVGID_727_);}
	.st718{fill-rule:evenodd;clip-rule:evenodd;fill:url(#SVGID_728_);}
	.st719{fill-rule:evenodd;clip-rule:evenodd;fill:url(#SVGID_729_);}
	.st720{fill-rule:evenodd;clip-rule:evenodd;fill:url(#SVGID_730_);}
	.st721{fill-rule:evenodd;clip-rule:evenodd;fill:url(#SVGID_731_);}
	.st722{fill-rule:evenodd;clip-rule:evenodd;fill:url(#SVGID_732_);}
	.st723{fill-rule:evenodd;clip-rule:evenodd;fill:url(#SVGID_733_);}
	.st724{fill-rule:evenodd;clip-rule:evenodd;fill:url(#SVGID_734_);}
	.st725{fill-rule:evenodd;clip-rule:evenodd;fill:url(#SVGID_735_);}
	.st726{fill-rule:evenodd;clip-rule:evenodd;fill:url(#SVGID_736_);}
	.st727{fill-rule:evenodd;clip-rule:evenodd;fill:url(#SVGID_737_);}
	.st728{fill-rule:evenodd;clip-rule:evenodd;fill:url(#SVGID_738_);}
	.st729{fill-rule:evenodd;clip-rule:evenodd;fill:url(#SVGID_739_);}
	.st730{fill-rule:evenodd;clip-rule:evenodd;fill:url(#SVGID_740_);}
	.st731{fill-rule:evenodd;clip-rule:evenodd;fill:url(#SVGID_741_);}
	.st732{fill-rule:evenodd;clip-rule:evenodd;fill:url(#SVGID_742_);}
	.st733{fill-rule:evenodd;clip-rule:evenodd;fill:url(#SVGID_743_);}
	.st734{fill-rule:evenodd;clip-rule:evenodd;fill:url(#SVGID_744_);}
	.st735{fill-rule:evenodd;clip-rule:evenodd;fill:url(#SVGID_745_);}
	.st736{fill-rule:evenodd;clip-rule:evenodd;fill:url(#SVGID_746_);}
	.st737{fill-rule:evenodd;clip-rule:evenodd;fill:url(#SVGID_747_);}
	.st738{fill-rule:evenodd;clip-rule:evenodd;fill:url(#SVGID_748_);}
	.st739{fill-rule:evenodd;clip-rule:evenodd;fill:url(#SVGID_749_);}
	.st740{fill-rule:evenodd;clip-rule:evenodd;fill:url(#SVGID_750_);}
	.st741{fill-rule:evenodd;clip-rule:evenodd;fill:url(#SVGID_751_);}
	.st742{fill-rule:evenodd;clip-rule:evenodd;fill:url(#SVGID_752_);}
	.st743{fill-rule:evenodd;clip-rule:evenodd;fill:url(#SVGID_753_);}
	.st744{fill-rule:evenodd;clip-rule:evenodd;fill:url(#SVGID_754_);}
	.st745{fill-rule:evenodd;clip-rule:evenodd;fill:url(#SVGID_755_);}
	.st746{fill-rule:evenodd;clip-rule:evenodd;fill:url(#SVGID_756_);}
	.st747{fill-rule:evenodd;clip-rule:evenodd;fill:url(#SVGID_757_);}
	.st748{fill-rule:evenodd;clip-rule:evenodd;fill:url(#SVGID_758_);}
	.st749{fill-rule:evenodd;clip-rule:evenodd;fill:url(#SVGID_759_);}
	.st750{fill-rule:evenodd;clip-rule:evenodd;fill:url(#SVGID_760_);}
	.st751{fill-rule:evenodd;clip-rule:evenodd;fill:url(#SVGID_761_);}
	.st752{fill-rule:evenodd;clip-rule:evenodd;fill:url(#SVGID_762_);}
	.st753{fill-rule:evenodd;clip-rule:evenodd;fill:url(#SVGID_763_);}
	.st754{fill-rule:evenodd;clip-rule:evenodd;fill:url(#SVGID_764_);}
	.st755{fill-rule:evenodd;clip-rule:evenodd;fill:url(#SVGID_765_);}
	.st756{fill-rule:evenodd;clip-rule:evenodd;fill:url(#SVGID_766_);}
	.st757{fill-rule:evenodd;clip-rule:evenodd;fill:url(#SVGID_767_);}
	.st758{fill-rule:evenodd;clip-rule:evenodd;fill:url(#SVGID_768_);}
	.st759{fill-rule:evenodd;clip-rule:evenodd;fill:url(#SVGID_769_);}
	.st760{fill-rule:evenodd;clip-rule:evenodd;fill:url(#SVGID_770_);}
	.st761{fill-rule:evenodd;clip-rule:evenodd;fill:url(#SVGID_771_);}
	.st762{fill-rule:evenodd;clip-rule:evenodd;fill:url(#SVGID_772_);}
	.st763{fill-rule:evenodd;clip-rule:evenodd;fill:url(#SVGID_773_);}
	.st764{fill-rule:evenodd;clip-rule:evenodd;fill:url(#SVGID_774_);}
	.st765{fill-rule:evenodd;clip-rule:evenodd;fill:url(#SVGID_775_);}
	.st766{fill-rule:evenodd;clip-rule:evenodd;fill:url(#SVGID_776_);}
	.st767{fill-rule:evenodd;clip-rule:evenodd;fill:url(#SVGID_777_);}
	.st768{fill-rule:evenodd;clip-rule:evenodd;fill:url(#SVGID_778_);}
	.st769{fill-rule:evenodd;clip-rule:evenodd;fill:url(#SVGID_779_);}
	.st770{fill-rule:evenodd;clip-rule:evenodd;fill:url(#SVGID_780_);}
	.st771{fill-rule:evenodd;clip-rule:evenodd;fill:url(#SVGID_781_);}
	.st772{fill-rule:evenodd;clip-rule:evenodd;fill:url(#SVGID_782_);}
	.st773{fill-rule:evenodd;clip-rule:evenodd;fill:url(#SVGID_783_);}
	.st774{fill-rule:evenodd;clip-rule:evenodd;fill:url(#SVGID_784_);}
	.st775{fill-rule:evenodd;clip-rule:evenodd;fill:url(#SVGID_785_);}
	.st776{fill-rule:evenodd;clip-rule:evenodd;fill:url(#SVGID_786_);}
	.st777{fill-rule:evenodd;clip-rule:evenodd;fill:url(#SVGID_787_);}
	.st778{fill-rule:evenodd;clip-rule:evenodd;fill:url(#SVGID_788_);}
	.st779{fill-rule:evenodd;clip-rule:evenodd;fill:url(#SVGID_789_);}
	.st780{fill-rule:evenodd;clip-rule:evenodd;fill:url(#SVGID_790_);}
	.st781{fill-rule:evenodd;clip-rule:evenodd;fill:url(#SVGID_791_);}
	.st782{fill-rule:evenodd;clip-rule:evenodd;fill:url(#SVGID_792_);}
	.st783{fill-rule:evenodd;clip-rule:evenodd;fill:url(#SVGID_793_);}
	.st784{fill-rule:evenodd;clip-rule:evenodd;fill:url(#SVGID_794_);}
	.st785{fill-rule:evenodd;clip-rule:evenodd;fill:url(#SVGID_795_);}
	.st786{fill-rule:evenodd;clip-rule:evenodd;fill:url(#SVGID_796_);}
	.st787{fill-rule:evenodd;clip-rule:evenodd;fill:url(#SVGID_797_);}
	.st788{fill-rule:evenodd;clip-rule:evenodd;fill:url(#SVGID_798_);}
	.st789{fill-rule:evenodd;clip-rule:evenodd;fill:url(#SVGID_799_);}
	.st790{fill-rule:evenodd;clip-rule:evenodd;fill:url(#SVGID_800_);}
	.st791{fill-rule:evenodd;clip-rule:evenodd;fill:url(#SVGID_801_);}
	.st792{fill-rule:evenodd;clip-rule:evenodd;fill:url(#SVGID_802_);}
	.st793{fill-rule:evenodd;clip-rule:evenodd;fill:url(#SVGID_803_);}
	.st794{fill-rule:evenodd;clip-rule:evenodd;fill:url(#SVGID_804_);}
	.st795{fill-rule:evenodd;clip-rule:evenodd;fill:url(#SVGID_805_);}
	.st796{fill-rule:evenodd;clip-rule:evenodd;fill:url(#SVGID_806_);}
	.st797{fill-rule:evenodd;clip-rule:evenodd;fill:url(#SVGID_807_);}
	.st798{fill-rule:evenodd;clip-rule:evenodd;fill:url(#SVGID_808_);}
	.st799{fill-rule:evenodd;clip-rule:evenodd;fill:url(#SVGID_809_);}
	.st800{fill-rule:evenodd;clip-rule:evenodd;fill:url(#SVGID_810_);}
	.st801{fill-rule:evenodd;clip-rule:evenodd;fill:url(#SVGID_811_);}
	.st802{fill-rule:evenodd;clip-rule:evenodd;fill:url(#SVGID_812_);}
	.st803{fill-rule:evenodd;clip-rule:evenodd;fill:url(#SVGID_813_);}
	.st804{fill-rule:evenodd;clip-rule:evenodd;fill:url(#SVGID_814_);}
	.st805{fill-rule:evenodd;clip-rule:evenodd;fill:url(#SVGID_815_);}
	.st806{fill-rule:evenodd;clip-rule:evenodd;fill:url(#SVGID_816_);}
	.st807{fill-rule:evenodd;clip-rule:evenodd;fill:url(#SVGID_817_);}
	.st808{fill-rule:evenodd;clip-rule:evenodd;fill:url(#SVGID_818_);}
	.st809{fill-rule:evenodd;clip-rule:evenodd;fill:url(#SVGID_819_);}
	.st810{fill-rule:evenodd;clip-rule:evenodd;fill:url(#SVGID_820_);}
	.st811{fill-rule:evenodd;clip-rule:evenodd;fill:url(#SVGID_821_);}
	.st812{fill-rule:evenodd;clip-rule:evenodd;fill:url(#SVGID_822_);}
	.st813{fill-rule:evenodd;clip-rule:evenodd;fill:url(#SVGID_823_);}
	.st814{fill-rule:evenodd;clip-rule:evenodd;fill:url(#SVGID_824_);}
	.st815{fill-rule:evenodd;clip-rule:evenodd;fill:url(#SVGID_825_);}
	.st816{fill-rule:evenodd;clip-rule:evenodd;fill:url(#SVGID_826_);}
	.st817{fill-rule:evenodd;clip-rule:evenodd;fill:url(#SVGID_827_);}
	.st818{fill-rule:evenodd;clip-rule:evenodd;fill:url(#SVGID_828_);}
	.st819{fill-rule:evenodd;clip-rule:evenodd;fill:url(#SVGID_829_);}
	.st820{fill-rule:evenodd;clip-rule:evenodd;fill:url(#SVGID_830_);}
	.st821{fill-rule:evenodd;clip-rule:evenodd;fill:url(#SVGID_831_);}
	.st822{fill-rule:evenodd;clip-rule:evenodd;fill:url(#SVGID_832_);}
	.st823{fill-rule:evenodd;clip-rule:evenodd;fill:url(#SVGID_833_);}
	.st824{fill-rule:evenodd;clip-rule:evenodd;fill:url(#SVGID_834_);}
	.st825{fill-rule:evenodd;clip-rule:evenodd;fill:url(#SVGID_835_);}
	.st826{fill-rule:evenodd;clip-rule:evenodd;fill:url(#SVGID_836_);}
	.st827{fill-rule:evenodd;clip-rule:evenodd;fill:url(#SVGID_837_);}
	.st828{fill-rule:evenodd;clip-rule:evenodd;fill:url(#SVGID_838_);}
	.st829{fill-rule:evenodd;clip-rule:evenodd;fill:url(#SVGID_839_);}
	.st830{fill-rule:evenodd;clip-rule:evenodd;fill:url(#SVGID_840_);}
	.st831{fill-rule:evenodd;clip-rule:evenodd;fill:url(#SVGID_841_);}
	.st832{fill-rule:evenodd;clip-rule:evenodd;fill:url(#SVGID_842_);}
	.st833{fill-rule:evenodd;clip-rule:evenodd;fill:url(#SVGID_843_);}
	.st834{fill-rule:evenodd;clip-rule:evenodd;fill:url(#SVGID_844_);}
	.st835{fill-rule:evenodd;clip-rule:evenodd;fill:url(#SVGID_845_);}
	.st836{fill-rule:evenodd;clip-rule:evenodd;fill:url(#SVGID_846_);}
	.st837{fill-rule:evenodd;clip-rule:evenodd;fill:url(#SVGID_847_);}
	.st838{fill-rule:evenodd;clip-rule:evenodd;fill:url(#SVGID_848_);}
	.st839{fill-rule:evenodd;clip-rule:evenodd;fill:url(#SVGID_849_);}
	.st840{fill-rule:evenodd;clip-rule:evenodd;fill:url(#SVGID_850_);}
	.st841{fill-rule:evenodd;clip-rule:evenodd;fill:url(#SVGID_851_);}
	.st842{fill-rule:evenodd;clip-rule:evenodd;fill:url(#SVGID_852_);}
	.st843{fill-rule:evenodd;clip-rule:evenodd;fill:url(#SVGID_853_);}
	.st844{fill-rule:evenodd;clip-rule:evenodd;fill:url(#SVGID_854_);}
	.st845{fill-rule:evenodd;clip-rule:evenodd;fill:url(#SVGID_855_);}
	.st846{fill-rule:evenodd;clip-rule:evenodd;fill:url(#SVGID_856_);}
	.st847{fill-rule:evenodd;clip-rule:evenodd;fill:url(#SVGID_857_);}
	.st848{fill-rule:evenodd;clip-rule:evenodd;fill:url(#SVGID_858_);}
	.st849{fill-rule:evenodd;clip-rule:evenodd;fill:url(#SVGID_859_);}
	.st850{fill-rule:evenodd;clip-rule:evenodd;fill:url(#SVGID_860_);}
	.st851{fill-rule:evenodd;clip-rule:evenodd;fill:url(#SVGID_861_);}
	.st852{fill-rule:evenodd;clip-rule:evenodd;fill:url(#SVGID_862_);}
	.st853{fill-rule:evenodd;clip-rule:evenodd;fill:url(#SVGID_863_);}
	.st854{fill-rule:evenodd;clip-rule:evenodd;fill:url(#SVGID_864_);}
	.st855{fill-rule:evenodd;clip-rule:evenodd;fill:url(#SVGID_865_);}
	.st856{fill-rule:evenodd;clip-rule:evenodd;fill:url(#SVGID_866_);}
	.st857{fill-rule:evenodd;clip-rule:evenodd;fill:url(#SVGID_867_);}
	.st858{fill-rule:evenodd;clip-rule:evenodd;fill:url(#SVGID_868_);}
	.st859{fill-rule:evenodd;clip-rule:evenodd;fill:url(#SVGID_869_);}
	.st860{fill-rule:evenodd;clip-rule:evenodd;fill:url(#SVGID_870_);}
	.st861{fill-rule:evenodd;clip-rule:evenodd;fill:url(#SVGID_871_);}
	.st862{fill-rule:evenodd;clip-rule:evenodd;fill:url(#SVGID_872_);}
	.st863{fill-rule:evenodd;clip-rule:evenodd;fill:url(#SVGID_873_);}
	.st864{fill-rule:evenodd;clip-rule:evenodd;fill:url(#SVGID_874_);}
	.st865{fill-rule:evenodd;clip-rule:evenodd;fill:url(#SVGID_875_);}
	.st866{fill-rule:evenodd;clip-rule:evenodd;fill:url(#SVGID_876_);}
	.st867{fill-rule:evenodd;clip-rule:evenodd;fill:url(#SVGID_877_);}
	.st868{fill-rule:evenodd;clip-rule:evenodd;fill:url(#SVGID_878_);}
	.st869{fill-rule:evenodd;clip-rule:evenodd;fill:url(#SVGID_879_);}
	.st870{fill-rule:evenodd;clip-rule:evenodd;fill:url(#SVGID_880_);}
	.st871{fill-rule:evenodd;clip-rule:evenodd;fill:url(#SVGID_881_);}
	.st872{fill-rule:evenodd;clip-rule:evenodd;fill:url(#SVGID_882_);}
	.st873{fill-rule:evenodd;clip-rule:evenodd;fill:url(#SVGID_883_);}
	.st874{fill-rule:evenodd;clip-rule:evenodd;fill:url(#SVGID_884_);}
	.st875{fill-rule:evenodd;clip-rule:evenodd;fill:url(#SVGID_885_);}
	.st876{fill-rule:evenodd;clip-rule:evenodd;fill:url(#SVGID_886_);}
	.st877{fill-rule:evenodd;clip-rule:evenodd;fill:url(#SVGID_887_);}
	.st878{fill-rule:evenodd;clip-rule:evenodd;fill:url(#SVGID_888_);}
	.st879{fill-rule:evenodd;clip-rule:evenodd;fill:url(#SVGID_889_);}
	.st880{fill-rule:evenodd;clip-rule:evenodd;fill:url(#SVGID_890_);}
	.st881{fill-rule:evenodd;clip-rule:evenodd;fill:url(#SVGID_891_);}
	.st882{fill-rule:evenodd;clip-rule:evenodd;fill:url(#SVGID_892_);}
	.st883{fill-rule:evenodd;clip-rule:evenodd;fill:url(#SVGID_893_);}
	.st884{fill-rule:evenodd;clip-rule:evenodd;fill:url(#SVGID_894_);}
	.st885{fill-rule:evenodd;clip-rule:evenodd;fill:url(#SVGID_895_);}
	.st886{fill-rule:evenodd;clip-rule:evenodd;fill:url(#SVGID_896_);}
	.st887{fill-rule:evenodd;clip-rule:evenodd;fill:url(#SVGID_897_);}
	.st888{fill-rule:evenodd;clip-rule:evenodd;fill:url(#SVGID_898_);}
	.st889{fill-rule:evenodd;clip-rule:evenodd;fill:url(#SVGID_899_);}
	.st890{fill-rule:evenodd;clip-rule:evenodd;fill:url(#SVGID_900_);}
	.st891{fill-rule:evenodd;clip-rule:evenodd;fill:url(#SVGID_901_);}
	.st892{fill-rule:evenodd;clip-rule:evenodd;fill:url(#SVGID_902_);}
	.st893{fill-rule:evenodd;clip-rule:evenodd;fill:url(#SVGID_903_);}
	.st894{fill-rule:evenodd;clip-rule:evenodd;fill:url(#SVGID_904_);}
	.st895{fill-rule:evenodd;clip-rule:evenodd;fill:url(#SVGID_905_);}
	.st896{fill-rule:evenodd;clip-rule:evenodd;fill:url(#SVGID_906_);}
	.st897{fill-rule:evenodd;clip-rule:evenodd;fill:url(#SVGID_907_);}
	.st898{fill-rule:evenodd;clip-rule:evenodd;fill:url(#SVGID_908_);}
	.st899{fill-rule:evenodd;clip-rule:evenodd;fill:url(#SVGID_909_);}
	.st900{fill-rule:evenodd;clip-rule:evenodd;fill:url(#SVGID_910_);}
	.st901{fill-rule:evenodd;clip-rule:evenodd;fill:url(#SVGID_911_);}
	.st902{fill-rule:evenodd;clip-rule:evenodd;fill:url(#SVGID_912_);}
	.st903{fill-rule:evenodd;clip-rule:evenodd;fill:url(#SVGID_913_);}
	.st904{fill-rule:evenodd;clip-rule:evenodd;fill:url(#SVGID_914_);}
	.st905{fill-rule:evenodd;clip-rule:evenodd;fill:url(#SVGID_915_);}
	.st906{fill-rule:evenodd;clip-rule:evenodd;fill:url(#SVGID_916_);}
	.st907{fill-rule:evenodd;clip-rule:evenodd;fill:url(#SVGID_917_);}
	.st908{fill-rule:evenodd;clip-rule:evenodd;fill:url(#SVGID_918_);}
	.st909{fill-rule:evenodd;clip-rule:evenodd;fill:url(#SVGID_919_);}
	.st910{fill-rule:evenodd;clip-rule:evenodd;fill:url(#SVGID_920_);}
	.st911{fill-rule:evenodd;clip-rule:evenodd;fill:url(#SVGID_921_);}
	.st912{fill-rule:evenodd;clip-rule:evenodd;fill:url(#SVGID_922_);}
	.st913{fill-rule:evenodd;clip-rule:evenodd;fill:url(#SVGID_923_);}
	.st914{fill-rule:evenodd;clip-rule:evenodd;fill:url(#SVGID_924_);}
	.st915{fill-rule:evenodd;clip-rule:evenodd;fill:url(#SVGID_925_);}
	.st916{fill-rule:evenodd;clip-rule:evenodd;fill:url(#SVGID_926_);}
	.st917{fill-rule:evenodd;clip-rule:evenodd;fill:url(#SVGID_927_);}
	.st918{fill-rule:evenodd;clip-rule:evenodd;fill:url(#SVGID_928_);}
	.st919{fill-rule:evenodd;clip-rule:evenodd;fill:url(#SVGID_929_);}
	.st920{fill-rule:evenodd;clip-rule:evenodd;fill:url(#SVGID_930_);}
	.st921{fill-rule:evenodd;clip-rule:evenodd;fill:url(#SVGID_931_);}
	.st922{fill-rule:evenodd;clip-rule:evenodd;fill:url(#SVGID_932_);}
	.st923{fill-rule:evenodd;clip-rule:evenodd;fill:url(#SVGID_933_);}
	.st924{fill-rule:evenodd;clip-rule:evenodd;fill:url(#SVGID_934_);}
	.st925{fill-rule:evenodd;clip-rule:evenodd;fill:url(#SVGID_935_);}
	.st926{fill-rule:evenodd;clip-rule:evenodd;fill:url(#SVGID_936_);}
	.st927{fill-rule:evenodd;clip-rule:evenodd;fill:url(#SVGID_937_);}
	.st928{fill-rule:evenodd;clip-rule:evenodd;fill:url(#SVGID_938_);}
	.st929{fill:url(#SVGID_939_);}
	.st930{fill:url(#SVGID_940_);}
	.st931{fill:url(#SVGID_941_);}
	.st932{fill:url(#SVGID_942_);}
	.st933{fill:url(#SVGID_943_);}
	.st934{fill:url(#SVGID_944_);}
	.st935{fill:url(#SVGID_945_);}
	.st936{fill:url(#SVGID_946_);}
	.st937{fill:url(#SVGID_947_);}
	.st938{fill:url(#SVGID_948_);}
	.st939{fill:url(#SVGID_949_);}
	.st940{fill:url(#SVGID_950_);}
	.st941{fill:url(#SVGID_951_);}
	.st942{fill:url(#SVGID_952_);}
	.st943{fill:url(#SVGID_953_);}
	.st944{fill:url(#SVGID_954_);}
	.st945{fill:url(#SVGID_955_);}
	.st946{fill:url(#SVGID_956_);}
	.st947{fill:url(#SVGID_957_);}
	.st948{fill:url(#SVGID_958_);}
	.st949{fill:url(#SVGID_959_);}
	.st950{fill:url(#SVGID_960_);}
	.st951{fill:url(#SVGID_961_);}
	.st952{fill:url(#SVGID_962_);}
	.st953{fill:url(#SVGID_963_);}
	.st954{fill:url(#SVGID_964_);}
	.st955{fill-rule:evenodd;clip-rule:evenodd;fill:url(#SVGID_965_);}
	.st956{fill-rule:evenodd;clip-rule:evenodd;fill:url(#SVGID_966_);}
	.st957{fill:url(#SVGID_967_);}
	.st958{fill:url(#SVGID_968_);}
	.st959{fill:url(#SVGID_969_);}
	.st960{fill:url(#SVGID_970_);}
	.st961{fill:url(#SVGID_971_);}
	.st962{fill:url(#SVGID_972_);}
	.st963{fill-rule:evenodd;clip-rule:evenodd;fill:url(#SVGID_973_);}
	.st964{fill:url(#SVGID_974_);}
	.st965{fill:url(#SVGID_975_);}
	.st966{fill:url(#SVGID_976_);}
	.st967{fill:url(#SVGID_977_);}
	.st968{fill:url(#SVGID_978_);}
	.st969{fill:url(#SVGID_979_);}
	.st970{fill:url(#SVGID_980_);}
	.st971{fill:url(#SVGID_981_);}
	.st972{fill:url(#SVGID_982_);}
	.st973{fill:url(#SVGID_983_);}
	.st974{fill:url(#SVGID_984_);}
	.st975{fill:url(#SVGID_985_);}
	.st976{fill:url(#SVGID_986_);}
	.st977{fill:url(#SVGID_987_);}
	.st978{fill:url(#SVGID_988_);}
	.st979{fill:url(#SVGID_989_);}
	.st980{fill:url(#SVGID_990_);}
	.st981{fill:url(#SVGID_991_);}
	.st982{fill:url(#SVGID_992_);}
	.st983{fill:url(#SVGID_993_);}
	.st984{fill:url(#SVGID_994_);}
	.st985{fill:url(#SVGID_995_);}
	.st986{fill:url(#SVGID_996_);}
	.st987{fill:url(#SVGID_997_);}
	.st988{fill:url(#SVGID_998_);}
	.st989{fill:url(#SVGID_999_);}
	.st990{fill:url(#SVGID_1000_);}
	.st991{fill:url(#SVGID_1001_);}
	.st992{fill:url(#SVGID_1002_);}
	.st993{fill:url(#SVGID_1003_);}
	.st994{fill:url(#SVGID_1004_);}
	.st995{fill:url(#SVGID_1005_);}
	.st996{fill:url(#SVGID_1006_);}
	.st997{fill:url(#SVGID_1007_);}
	.st998{fill:url(#SVGID_1008_);}
	.st999{fill:url(#SVGID_1009_);}
	.st1000{fill:url(#SVGID_1010_);}
	.st1001{fill:url(#SVGID_1011_);}
	.st1002{fill:url(#SVGID_1012_);}
	.st1003{fill:url(#SVGID_1013_);}
	.st1004{fill:url(#SVGID_1014_);}
	.st1005{fill:url(#SVGID_1015_);}
	.st1006{fill:url(#SVGID_1016_);}
	.st1007{fill:url(#SVGID_1017_);}
	.st1008{fill:url(#SVGID_1018_);}
	.st1009{fill:url(#SVGID_1019_);}
	.st1010{fill:url(#SVGID_1020_);}
	.st1011{fill:url(#SVGID_1021_);}
	.st1012{fill:url(#SVGID_1022_);}
	.st1013{fill:url(#SVGID_1023_);}
	.st1014{fill:url(#SVGID_1024_);}
	.st1015{fill:url(#SVGID_1025_);}
	.st1016{fill:url(#SVGID_1026_);}
	.st1017{fill:url(#SVGID_1027_);}
	.st1018{fill:url(#SVGID_1028_);}
	.st1019{fill:url(#SVGID_1029_);}
	.st1020{fill:url(#SVGID_1030_);}
	.st1021{fill:url(#SVGID_1031_);}
	.st1022{fill:url(#SVGID_1032_);}
	.st1023{fill:url(#SVGID_1033_);}
	.st1024{fill:url(#SVGID_1034_);}
	.st1025{fill:url(#SVGID_1035_);}
	.st1026{fill:none;stroke:#009CDE;stroke-width:0.25;stroke-miterlimit:10;}
	.st1027{fill-rule:evenodd;clip-rule:evenodd;fill:none;stroke:#363636;stroke-miterlimit:10;}
	.st1028{fill-rule:evenodd;clip-rule:evenodd;fill:#363636;}
	.st1029{fill:url(#SVGID_1036_);}
	.st1030{fill:url(#SVGID_1037_);}
	.st1031{fill:url(#SVGID_1038_);}
	.st1032{fill:url(#SVGID_1039_);}
	.st1033{fill:url(#SVGID_1040_);}
	.st1034{fill:url(#SVGID_1041_);}
	.st1035{fill:url(#SVGID_1042_);}
	.st1036{fill:url(#SVGID_1043_);}
	.st1037{fill:url(#SVGID_1044_);}
	.st1038{fill:url(#SVGID_1045_);}
	.st1039{fill:url(#SVGID_1046_);}
	.st1040{fill:url(#SVGID_1047_);}
	.st1041{fill:url(#SVGID_1048_);}
	.st1042{fill:url(#SVGID_1049_);}
	.st1043{fill:url(#SVGID_1050_);}
	.st1044{fill:url(#SVGID_1051_);}
	.st1045{fill:url(#SVGID_1052_);}
	.st1046{fill:url(#SVGID_1053_);}
	.st1047{fill:url(#SVGID_1054_);}
	.st1048{fill:url(#SVGID_1055_);}
	.st1049{fill:url(#SVGID_1056_);}
	.st1050{fill:url(#SVGID_1057_);}
	.st1051{fill:url(#SVGID_1058_);}
	.st1052{fill:url(#SVGID_1059_);}
	.st1053{fill:url(#SVGID_1060_);}
	.st1054{fill:url(#SVGID_1061_);}
	.st1055{fill:url(#SVGID_1062_);}
	.st1056{fill:url(#SVGID_1063_);}
	.st1057{fill:url(#SVGID_1064_);}
	.st1058{fill:#EE2B7B;}
	.st1059{fill:#EE2B7B;stroke:#EE2B7B;stroke-width:1.4725;stroke-linecap:round;stroke-linejoin:round;stroke-miterlimit:10;}
	.st1060{fill:#FFFFFF;stroke:#FFFFFF;stroke-width:1.4725;stroke-miterlimit:10;}
	.st1061{fill:none;stroke:#FFFFFF;stroke-width:1.4725;stroke-linecap:round;stroke-miterlimit:10;}
	.st1062{fill:none;stroke:#FFFFFF;stroke-width:1.4725;stroke-miterlimit:10;}
	.st1063{fill-rule:evenodd;clip-rule:evenodd;fill:#EE2B7B;}
	.st1064{fill:url(#SVGID_1065_);}
	.st1065{fill:url(#SVGID_1066_);}
	.st1066{fill:url(#SVGID_1067_);}
	.st1067{fill:url(#SVGID_1068_);}
	.st1068{fill:url(#SVGID_1069_);}
	.st1069{fill:url(#SVGID_1070_);}
	.st1070{fill:url(#SVGID_1071_);}
	.st1071{fill:url(#SVGID_1072_);}
	.st1072{fill:url(#SVGID_1073_);}
	.st1073{fill:url(#SVGID_1074_);}
	.st1074{fill:url(#SVGID_1075_);}
	.st1075{fill:url(#SVGID_1076_);}
	.st1076{fill:url(#SVGID_1077_);}
	.st1077{fill:url(#SVGID_1078_);}
	.st1078{fill:url(#SVGID_1079_);}
	.st1079{fill:url(#SVGID_1080_);}
	.st1080{fill:url(#SVGID_1081_);}
	.st1081{fill:url(#SVGID_1082_);}
	.st1082{fill:url(#SVGID_1083_);}
	.st1083{fill:url(#SVGID_1084_);}
	.st1084{fill:url(#SVGID_1085_);}
	.st1085{fill:url(#SVGID_1086_);}
	.st1086{fill:url(#SVGID_1087_);}
	.st1087{fill:url(#SVGID_1088_);}
	.st1088{fill:url(#SVGID_1089_);}
	.st1089{fill:url(#SVGID_1090_);}
	.st1090{fill:url(#SVGID_1091_);}
	.st1091{fill:url(#SVGID_1092_);}
	.st1092{fill:url(#SVGID_1093_);}
	.st1093{fill:url(#SVGID_1094_);}
	.st1094{fill:url(#SVGID_1095_);}
	.st1095{fill:url(#SVGID_1096_);}
	.st1096{fill:url(#SVGID_1097_);}
	.st1097{fill:url(#SVGID_1098_);}
	.st1098{fill:url(#SVGID_1099_);}
	.st1099{fill:url(#SVGID_1100_);}
	.st1100{fill:url(#SVGID_1101_);}
	.st1101{fill:url(#SVGID_1102_);}
	.st1102{fill:url(#SVGID_1103_);}
	.st1103{fill:url(#SVGID_1104_);}
	.st1104{fill:url(#SVGID_1105_);}
	.st1105{fill:url(#SVGID_1106_);}
	.st1106{fill:url(#SVGID_1107_);}
	.st1107{fill:url(#SVGID_1108_);}
	.st1108{fill:url(#SVGID_1109_);}
	.st1109{fill:url(#SVGID_1110_);}
	.st1110{fill:url(#SVGID_1111_);}
	.st1111{fill:url(#SVGID_1112_);}
	.st1112{fill:url(#SVGID_1113_);}
	.st1113{fill:url(#SVGID_1114_);}
	.st1114{fill:url(#SVGID_1115_);}
	.st1115{fill:url(#SVGID_1116_);}
	.st1116{fill:url(#SVGID_1117_);}
	.st1117{fill:url(#SVGID_1118_);}
	.st1118{fill:none;stroke:#009CDE;}
</style>
<circle class="st0" cx="40" cy="40" r="30"/>
<g>
	<linearGradient id="SVGID_1_" gradientUnits="userSpaceOnUse" x1="42.9826" y1="46.1282" x2="49.5461" y2="46.1282">
		<stop  offset="0" style="stop-color:#00B5D0"/>
		<stop  offset="0.3904" style="stop-color:#00B3CF"/>
		<stop  offset="0.6113" style="stop-color:#00AACD"/>
		<stop  offset="0.7899" style="stop-color:#009DCA"/>
		<stop  offset="0.945" style="stop-color:#0089C5"/>
		<stop  offset="1" style="stop-color:#0080C3"/>
	</linearGradient>
	<path class="st1" d="M46.7,42.9c-1.8-0.2-3.4,1.1-3.7,2.9c-0.2,1.8,1.1,3.4,2.9,3.7c1.8,0.2,3.4-1.1,3.7-2.9
		C49.7,44.7,48.5,43.1,46.7,42.9z M47.7,46.3c-0.1,0.8-0.8,1.3-1.6,1.2c-0.8-0.1-1.3-0.8-1.2-1.6c0.1-0.8,0.8-1.3,1.6-1.2
		C47.2,44.8,47.8,45.5,47.7,46.3z"/>
	<linearGradient id="SVGID_2_" gradientUnits="userSpaceOnUse" x1="23.0067" y1="43.6431" x2="29.5723" y2="43.6431">
		<stop  offset="0" style="stop-color:#00B5D0"/>
		<stop  offset="0.3904" style="stop-color:#00B3CF"/>
		<stop  offset="0.6113" style="stop-color:#00AACD"/>
		<stop  offset="0.7899" style="stop-color:#009DCA"/>
		<stop  offset="0.945" style="stop-color:#0089C5"/>
		<stop  offset="1" style="stop-color:#0080C3"/>
	</linearGradient>
	<path class="st2" d="M26.7,40.4c-1.8-0.2-3.4,1.1-3.7,2.9c-0.2,1.8,1.1,3.4,2.9,3.7c1.8,0.2,3.4-1.1,3.7-2.9
		C29.8,42.3,28.5,40.6,26.7,40.4z M27.7,43.8c-0.1,0.8-0.8,1.3-1.6,1.2c-0.8-0.1-1.3-0.8-1.2-1.6c0.1-0.8,0.8-1.3,1.6-1.2
		C27.2,42.3,27.8,43,27.7,43.8z"/>
	<linearGradient id="SVGID_3_" gradientUnits="userSpaceOnUse" x1="17.8333" y1="38.8089" x2="54.6788" y2="38.8089">
		<stop  offset="0" style="stop-color:#00B5D0"/>
		<stop  offset="0.3904" style="stop-color:#00B3CF"/>
		<stop  offset="0.6113" style="stop-color:#00AACD"/>
		<stop  offset="0.7899" style="stop-color:#009DCA"/>
		<stop  offset="0.945" style="stop-color:#0089C5"/>
		<stop  offset="1" style="stop-color:#0080C3"/>
	</linearGradient>
	<path class="st3" d="M54.2,44.8c0.3-2-0.2-3.7-0.2-3.7c-0.7-1.5-7.5-4-7.5-4L42.1,33c-0.7-0.6-1.6-1-2.5-1.2l-9.5-1.2
		c-1.1-0.1-2.2,0.1-3.1,0.8l-3.6,2.5l-2.8,0.3c-0.7,0.2-1.2,0.6-1.3,1c-0.1,0.3-0.2,0.7-0.4,1.2l0.7,0.1c0.3,0,0.5,0.3,0.4,0.6
		l-0.2,1.1c-0.1,0.3-0.4,0.5-0.7,0.5l-0.6-0.1c0,0.1-0.1,0.3-0.2,0.4l-0.2,0.3c-0.1,0.2-0.2,0.4-0.2,0.6c-0.1,0.6-0.2,2,0.1,2.2
		c0.6,0.4,2.7,0.9,4.1,1.4c-0.1,0,0-0.2,0-0.3c0.3-2.3,2.4-3.9,4.6-3.6c2.3,0.3,3.9,2.4,3.6,4.6c0,0.1,0,0.2-0.1,0.3
		c4.2,0.5,7.6,0.9,11.7,1.5c0-0.1,0-0.2,0-0.3c0.3-2.3,2.4-3.9,4.6-3.6c2.3,0.3,3.9,2.4,3.6,4.6c0,0.1,0,0.2,0,0.3
		c1.7,0,3,0.1,3.3,0.1c0.7-0.1,0.9-0.5,1-1.9C54.7,45.2,54.7,44.9,54.2,44.8z M33.2,36L25.8,35c-0.6-0.1-0.8-0.9-0.3-1.2l2.2-1.5
		c0.7-0.5,1.5-0.7,2.3-0.6l3.6,0.4L33.2,36z M43,37.2l-8.3-1l0.5-3.7l4.3,0.5c0.7,0.1,1.3,0.4,1.8,0.8l2.3,2.2
		C44.1,36.5,43.7,37.3,43,37.2z M53,43.2c-0.6-0.1-1.4-0.3-1.8-0.6c-0.7-0.5-1.2-2.9-0.8-2.8c1.8,0.8,2.6,1.4,2.7,1.7
		c0.2,0.4,0.2,1,0.2,1.4C53.3,43.1,53.2,43.2,53,43.2z"/>
	<linearGradient id="SVGID_4_" gradientUnits="userSpaceOnUse" x1="52.0772" y1="39.8207" x2="62.1667" y2="39.8207">
		<stop  offset="0" style="stop-color:#00B5D0"/>
		<stop  offset="0.3904" style="stop-color:#00B3CF"/>
		<stop  offset="0.6113" style="stop-color:#00AACD"/>
		<stop  offset="0.7899" style="stop-color:#009DCA"/>
		<stop  offset="0.945" style="stop-color:#0089C5"/>
		<stop  offset="1" style="stop-color:#0080C3"/>
	</linearGradient>
	<path class="st4" d="M57.1,41.9l2.1,0.8L57,43.2l-1.2,0.2l0.7,1l0.2,0.4c0.6,0.4,1.2,0.8,1.8,1.2l-1.3-2l5-1.1l-4.7-1.8l3.4-3.8
		l-4.9,1.3l0.5-5l-3.2,4l-1.2-2.1c0.1,0.7,0.2,1.4,0.3,2.1l0.2,0.4l0.6,1l0.7-0.9l1.4-1.8l-0.2,2.3L55,39.8l1.2-0.3l2.2-0.6
		l-1.5,1.7L56,41.5L57.1,41.9z"/>
	<linearGradient id="SVGID_5_" gradientUnits="userSpaceOnUse" x1="48.9339" y1="36.148" x2="50.6092" y2="36.148">
		<stop  offset="0" style="stop-color:#00B5D0"/>
		<stop  offset="0.3904" style="stop-color:#00B3CF"/>
		<stop  offset="0.6113" style="stop-color:#00AACD"/>
		<stop  offset="0.7899" style="stop-color:#009DCA"/>
		<stop  offset="0.945" style="stop-color:#0089C5"/>
		<stop  offset="1" style="stop-color:#0080C3"/>
	</linearGradient>
	<polygon class="st5" points="50.2,35.5 49.2,35.5 48.9,36.4 50.6,36.8 	"/>
</g>
</svg>
