<?xml version="1.0" encoding="utf-8"?>
<!-- Generator: Adobe Illustrator 19.2.0, SVG Export Plug-In . SVG Version: 6.00 Build 0)  -->
<svg version="1.1" id="Capa_1" xmlns="http://www.w3.org/2000/svg" xmlns:xlink="http://www.w3.org/1999/xlink" x="0px" y="0px"
	 viewBox="0 0 250 250" style="enable-background:new 0 0 250 250;" xml:space="preserve">
<style type="text/css">
	.st0{fill:none;}
</style>
<path class="st0" d="M83.5,25.5c-12.6,3-24.2,9.4-33.7,18.4C35.5,57.6,27.3,76.1,26.8,96c-0.5,19.9,6.8,38.7,20.5,53.1
	c18.2,19.2,45.6,27.2,71.4,21c12.6-3,24.2-9.4,33.7-18.4c14.4-13.7,22.5-32.2,23-52.1c0.5-19.9-6.8-38.7-20.5-53.1
	C136.7,27.3,109.3,19.3,83.5,25.5z M112.8,110l0,30.2l-23.5,0l0-30.2l-30.2,0V86.5l30.2,0l0-30.2h23.5l0,30.2l30.2,0l0,23.5
	L112.8,110z"/>
<g>
	<path d="M221.6,205.9l-31.7-33.3c15-18.1,23.5-40.6,24-64.6c0.6-28.1-9.7-55-29.1-75.4C158.9,5.5,120.1-5.9,83.5,2.9
		C65.6,7.4,49.2,16.4,35.7,29.1C15.3,48.5,3.7,74.8,3,103c-0.6,28.1,9.7,55,29.1,75.4c26,27.2,64.8,38.6,101.3,29.8
		c13.8-3.3,26.7-9.5,38.2-18l57.1,59.9l18.3-17.5L221.6,205.9z M188.7,107.4c-0.5,21.5-9.3,41.4-24.8,56.2
		c-10.2,9.7-22.7,16.6-36.3,19.8c-27.8,6.7-57.4-1.9-77-22.6c-14.8-15.5-22.6-35.8-22.1-57.2c0.5-21.5,9.4-41.4,24.8-56.2
		C63.5,37.7,76,30.8,89.6,27.5c27.8-6.7,57.4,1.9,77,22.6C181.3,65.7,189.2,85.9,188.7,107.4z"/>
</g>
</svg>
