<?xml version="1.0" encoding="utf-8"?>
<!-- Generator: Adobe Illustrator 20.1.0, SVG Export Plug-In . SVG Version: 6.00 Build 0)  -->
<svg version="1.1" id="Layer_1" xmlns="http://www.w3.org/2000/svg" xmlns:xlink="http://www.w3.org/1999/xlink" x="0px" y="0px"
	 viewBox="0 0 187.4 69.4" style="enable-background:new 0 0 187.4 69.4;" xml:space="preserve">
<style type="text/css">
	.st0{fill:#EA4335;}
	.st1{fill:#757575;}
	.st2{fill:#4285F4;}
	.st3{fill:#FBBC05;}
	.st4{fill:#34A853;}
	.st5{fill:#FFFFFF;}
	.st6{fill:none;stroke:#999B9E;stroke-width:0.2705;stroke-miterlimit:10;}
</style>
<g>
	<g>
		<rect class="st0" width="18" height="69.4"/>
		<g>
			<g>
				<path class="st1" d="M35.6,60.2h-3.5v-28h9.3c2.3,0,4.3,0.8,6,2.4s2.5,3.6,2.5,6s-0.9,4.4-2.5,6c-1.6,1.6-3.7,2.4-6,2.4h-5.8
					C35.6,48.8,35.6,60.2,35.6,60.2z M35.6,45.3h5.9c1.4,0,2.6-0.6,3.5-1.6c0.9-1,1.3-2.1,1.3-3.4c0-1.2-0.4-2.4-1.3-3.4
					c-0.9-1-2.1-1.6-3.5-1.6h-5.9C35.6,35.4,35.6,45.3,35.6,45.3z"/>
				<path class="st1" d="M58.1,60.7c-2,0-3.6-0.6-4.9-1.8c-1.3-1.1-2-2.7-2-4.6c0-2.1,0.8-3.7,2.4-4.9c1.5-1.2,3.5-1.8,5.8-1.8
					c2.1,0,3.7,0.3,5,1.1v-0.6c0-1.5-0.4-2.6-1.4-3.4c-1-0.9-2.1-1.2-3.5-1.2c-1,0-2,0.2-2.7,0.8c-0.9,0.4-1.4,1.1-1.6,2L52,44.9
					c0.4-1.1,1.3-2.2,2.5-3.1c1.3-1,3-1.5,5-1.5c2.4,0,4.4,0.7,5.9,2.1c1.5,1.5,2.4,3.5,2.4,6.1v11.6h-3.4v-2.7h-0.1
					C62.9,59.7,60.8,60.7,58.1,60.7z M58.7,57.5c1.4,0,2.7-0.6,3.9-1.7c1.2-1.1,1.8-2.5,1.8-3.9c-1-0.8-2.5-1.2-4.5-1.2
					c-1.8,0-3,0.3-3.8,1.1c-0.9,0.8-1.3,1.7-1.3,2.7c0,0.9,0.4,1.7,1.2,2.2C56.7,57.3,57.6,57.5,58.7,57.5z"/>
				<path class="st1" d="M75,40.9v3.1h0.1c0.4-1.1,1.2-2,2.3-2.6c1.1-0.7,2.3-1,3.6-1c0.3,0,0.8,0,1.2,0.1v3.5c-0.4,0-1-0.1-1.4-0.1
					c-1.6,0-3.1,0.4-4.2,1.5c-1.1,1-1.6,2.4-1.6,4.2v10.5h-3.5V40.9C71.5,40.9,75,40.9,75,40.9z M94.3,60.4c-2,0-3.4-0.6-4.5-1.6
					c-1-1.1-1.5-2.6-1.5-4.5v-10H85v-3.3h3.3v-5.8h3.5v5.8h4.6v3.3h-4.6v9.8c0,2.1,0.9,3.1,2.5,3.1c0.7,0,1.2-0.1,1.6-0.3l1.2,3
					C96.2,60.3,95.4,60.4,94.3,60.4z"/>
				<path class="st1" d="M103.1,40.9v2.7h0.1c0.5-0.9,1.3-1.7,2.4-2.4c1.1-0.7,2.3-1,3.5-1c2.3,0,4.1,0.8,5.3,2.1
					c1.2,1.5,1.9,3.4,1.9,5.8V60h-3.5V48.8c0-3.6-1.5-5.3-4.6-5.3c-1.4,0-2.6,0.6-3.5,1.8s-1.4,2.6-1.4,4.2v10.6h-3.5V40.9H103.1z"
					/>
				<path class="st1" d="M128.9,60.7c-2.8,0-5.1-1-6.9-2.9c-1.8-1.9-2.6-4.4-2.6-7.3c0-2.8,0.9-5.2,2.5-7.2c1.8-2,3.9-3,6.6-3
					c2.7,0,5,0.9,6.7,2.8c1.6,1.8,2.5,4.4,2.5,7.4v0.7h-14.8c0.1,1.9,0.8,3.5,1.9,4.6c1.2,1.1,2.5,1.7,4.1,1.7
					c2.5,0,4.2-1.1,5.1-3.3l3.2,1.3c-0.7,1.5-1.6,2.7-3,3.7C132.7,60.3,131,60.7,128.9,60.7z M133.9,48.3c-0.1-1.1-0.5-2.1-1.4-3.1
					c-0.9-1-2.2-1.5-4.1-1.5c-1.3,0-2.4,0.4-3.4,1.2c-1,0.8-1.6,1.9-2,3.4H133.9z"/>
				<path class="st1" d="M144.4,60.2h-3.5V41.1h3.4v3.1h0.1c0.3-1,1.1-1.9,2.2-2.6s2.2-1,3.2-1s2,0.1,2.6,0.4l-1.3,3.4
					c-0.4-0.2-1.1-0.2-1.9-0.2c-1.3,0-2.4,0.6-3.4,1.6c-1,1-1.4,2.4-1.4,4V60.2z"/>
			</g>
			<g>
				<g>
					<path class="st2" d="M40.1,25.8c-4.6,0-8.5-3.8-8.5-8.5s3.8-8.5,8.5-8.5c2.5,0,4.4,1,5.7,2.4l-1.6,1.7c-1-0.9-2.3-1.7-4.2-1.7
						c-3.4,0-6,2.8-6,6.3s2.6,6.3,6,6.3c2.2,0,3.4-0.9,4.3-1.7c0.7-0.7,1.1-1.7,1.2-2.9H40v-2.4h7.7c0.1,0.4,0.1,1,0.1,1.6
						c0,1.8-0.4,3.9-2,5.5C44.5,24.9,42.6,25.8,40.1,25.8z"/>
					<path class="st0" d="M60.1,20.1c0,3.1-2.4,5.5-5.4,5.5c-3,0-5.4-2.4-5.4-5.5c0-3.3,2.4-5.5,5.4-5.5
						C57.7,14.6,60.1,17,60.1,20.1z M57.7,20.1c0-2-1.4-3.4-3.1-3.4c-1.6,0-3.1,1.3-3.1,3.4s1.4,3.4,3.1,3.4
						C56.3,23.5,57.7,22.2,57.7,20.1z"/>
					<path class="st3" d="M72.4,20.1c0,3.1-2.4,5.5-5.4,5.5c-3,0-5.4-2.4-5.4-5.5c0-3.3,2.4-5.5,5.4-5.5C70,14.6,72.4,17,72.4,20.1z
						 M70,20.1c0-2-1.4-3.4-3.1-3.4c-1.6,0-3.1,1.3-3.1,3.4s1.4,3.4,3.1,3.4C68.5,23.5,70,22.2,70,20.1z"/>
					<path class="st2" d="M84,15v9.9c0,4-2.3,5.7-5.1,5.7c-2.6,0-4.2-1.8-4.8-3.3l2.1-0.9c0.3,0.9,1.3,2,2.7,2
						c1.8,0,2.8-1.1,2.8-3.3v-0.8h-0.1c-0.5,0.7-1.5,1.2-2.8,1.2c-2.7,0-5.1-2.4-5.1-5.5s2.5-5.5,5.1-5.5c1.3,0,2.3,0.6,2.8,1.2h0.1
						V15C81.7,15,84,15,84,15z M81.9,20.2c0-1.9-1.3-3.4-2.8-3.4c-1.6,0-3,1.5-3,3.4s1.3,3.4,3,3.4C80.7,23.5,81.9,22.2,81.9,20.2z"
						/>
					<path class="st4" d="M88.7,9.1v16.3h-2.4V9.1H88.7z"/>
					<path class="st0" d="M98.3,22l1.9,1.2c-0.5,0.9-2,2.5-4.5,2.5c-3.1,0-5.4-2.5-5.4-5.5c0-3.3,2.3-5.5,5-5.5
						c2.8,0,4.2,2.2,4.6,3.5l0.2,0.7l-7.2,3c0.5,1.1,1.4,1.7,2.6,1.7C96.9,23.5,97.7,22.9,98.3,22z M92.6,20l4.8-2
						c-0.2-0.7-1.1-1.1-2-1.1C94.3,16.8,92.6,17.9,92.6,20z"/>
				</g>
			</g>
		</g>
		<g>
			<path class="st5" d="M12.4,58.2v0.9H5.6v-2.4c0-0.6,0.2-1.1,0.5-1.6c0.4-0.4,0.9-0.7,1.4-0.7s1.1,0.2,1.4,0.7
				c0.4,0.4,0.5,0.9,0.5,1.6v1.5H12.4z M8.8,58.2v-1.5c0-0.3-0.1-0.7-0.3-0.9c-0.2-0.2-0.5-0.3-0.8-0.3c-0.3,0-0.5,0.1-0.8,0.3
				c-0.2,0.2-0.3,0.6-0.3,0.9v1.5H8.8z"/>
			<path class="st5" d="M12.4,51.5H5.6v-2.4c0-0.6,0.2-1.1,0.5-1.6c0.4-0.4,0.9-0.7,1.4-0.7c0.4,0,0.9,0.1,1.3,0.4
				c0.3,0.3,0.5,0.7,0.7,1.2l0,0l2.7-1.9l0,0v1l-2.7,1.9v1h2.7L12.4,51.5L12.4,51.5z M8.8,50.6v-1.5c0-0.3-0.1-0.7-0.3-0.9
				c-0.2-0.2-0.5-0.3-0.9-0.3S7,48,6.8,48.3s-0.3,0.6-0.3,0.9v1.5H8.8z"/>
			<path class="st5" d="M6.4,39.8V43h2.2v-2.8h0.8v2.9h2.2v-3.1h0.9v4H5.6v-4L6.4,39.8L6.4,39.8z"/>
			<path class="st5" d="M12.4,36.7H5.6v-0.9l4.2-2.5l0,0l-4.2-2.5V30h6.8v0.9H8.3H7.2l0,0l3.7,2.1v0.6l-3.7,2.1l0,0h1.1h4.1V36.7z"
				/>
			<path class="st5" d="M12.4,26.7H5.6v-0.9h6.8V26.7z"/>
			<path class="st5" d="M6.4,18.2v3.1h2.2v-2.9h0.8v2.9h2.2v-3.1h0.9v4H5.6v-4H6.4z"/>
			<path class="st5" d="M12.4,15.1H5.6v-2.4c0-0.6,0.2-1.1,0.5-1.6c0.4-0.4,0.9-0.7,1.4-0.7c0.4,0,0.9,0.1,1.3,0.4
				c0.3,0.3,0.5,0.7,0.7,1.2l0,0l2.7-1.9l0,0v1l-2.7,1.9v1h2.7L12.4,15.1L12.4,15.1z M8.8,14.2v-1.5c0-0.3-0.1-0.7-0.3-0.9
				c-0.2-0.2-0.5-0.3-0.9-0.3S7,11.6,6.8,11.8s-0.3,0.6-0.3,0.9v1.5H8.8z"/>
		</g>
	</g>
</g>
<rect class="st6" width="187.4" height="69.4"/>
</svg>
