<?xml version="1.0" encoding="utf-8"?>
<!-- Generator: Adobe Illustrator 20.1.0, SVG Export Plug-In . SVG Version: 6.00 Build 0)  -->
<svg version="1.1" id="Layer_1" xmlns="http://www.w3.org/2000/svg" xmlns:xlink="http://www.w3.org/1999/xlink" x="0px" y="0px"
	 viewBox="0 0 60 58" style="enable-background:new 0 0 60 58;" xml:space="preserve">
<style type="text/css">
	.st0{fill:#059DC5;}
</style>
<g>
	<path class="st0" d="M29.6,0.7c-15.5,0-27.9,12.5-27.9,28c0,15.4,12.5,27.9,27.9,27.9s28-12.6,27.9-28C57.6,13.2,45,0.7,29.6,0.7z
		 M29.6,51C17.3,51,7.3,41,7.3,28.6c0-12.3,10-22.3,22.3-22.3C42,6.3,52,16.3,52,28.7C52,41,42,51,29.6,51z"/>
	<path class="st0" d="M16.1,34.2c-0.7,0-0.7,0-0.4,0.7c3,6.6,10,10.2,17,8.7c5.3-1.1,9-4.4,11.2-9.4c-0.3,0-0.5,0-0.8,0
		C34.1,34.2,25.1,34.2,16.1,34.2z"/>
	<path class="st0" d="M39.4,25.9c2.3,0,4.2-1.9,4.2-4.2s-1.8-4.2-4.2-4.2c-2.3,0-4.2,1.8-4.2,4.2C35.2,24,37.1,25.9,39.4,25.9z"/>
	<path class="st0" d="M19.8,25.9c2.3,0,4.2-1.9,4.2-4.2s-1.8-4.2-4.2-4.2c-2.3,0-4.2,1.9-4.2,4.2C15.7,24,17.6,25.8,19.8,25.9z"/>
</g>
</svg>
